Gamma function to 5 is 24
First order of Besel function to 0.5 is 0.242268
Negative sqaure root of -2 is 0+1.41421i
Exponential function of I is 0.540302+0.841471i
Exponential function of I times Pi is -1+1.22465e-16i
I to the power of exponential function is -0.42822-0.903675i
0.1111111111111111111111111111 in float       : 0.1111111119389533996582031
0.1111111111111111111111111111 in double      : 0.1111111111111111049432054
0.1111111111111111111111111111 in long double : 0.1111111111111111049432054
