\relax 
\@writefile{toc}{\contentsline {section}{\numberline {1}Assignment}{1}}
\newlabel{eq:m}{{1}{1}}
\newlabel{eq:2}{{2}{1}}
\@writefile{lof}{\contentsline {figure}{\numberline {1}{\ignorespaces The eigenvalues of the matrix \textup  {\hbox {\mathsurround \z@ \normalfont  (\ignorespaces 1\hbox {}\unskip \@@italiccorr )}} plotted as a function x. The calculated eigenvalues are plotted together with the exact values found using eq. \textup  {\hbox {\mathsurround \z@ \normalfont  (\ignorespaces 2\hbox {}\unskip \@@italiccorr )}}.}}{1}}
\newlabel{fig:1}{{1}{1}}
