0 1 0
0.1 0.980265 0.0990133
0.2 0.96053 0.196053
0.3 0.940796 0.291119
0.4 0.921061 0.384212
0.5 0.864972 0.473514
0.6 0.808884 0.557207
0.7 0.752795 0.635291
0.8 0.696707 0.707766
0.9 0.613119 0.773257
1 0.529532 0.83039
1.1 0.445945 0.879163
1.2 0.362358 0.919579
1.3 0.264468 0.95092
1.4 0.166579 0.972472
1.5 0.0686898 0.984236
1.6 -0.0291995 0.98621
1.7 -0.125936 0.978453
1.8 -0.222673 0.961023
1.9 -0.31941 0.933919
2 -0.416147 0.897141
2.1 -0.496459 0.851511
2.2 -0.57677 0.797849
2.3 -0.657082 0.736157
2.4 -0.737394 0.666433
2.5 -0.788601 0.590133
2.6 -0.839808 0.508713
2.7 -0.891015 0.422172
2.8 -0.942222 0.33051
2.9 -0.95624 0.235587
3 -0.970259 0.139262
3.1 -0.984277 0.0415348
3.2 -0.998295 -0.0575937
3.3 -0.972911 -0.156154
3.4 -0.947527 -0.252176
3.5 -0.922143 -0.345659
3.6 -0.896758 -0.436604
3.7 -0.83598 -0.523241
3.8 -0.775201 -0.6038
3.9 -0.714422 -0.678281
4 -0.653644 -0.746685
4.1 -0.567066 -0.80772
4.2 -0.480488 -0.860098
4.3 -0.393911 -0.903818
4.4 -0.307333 -0.93888
4.5 -0.208625 -0.964678
4.6 -0.109917 -0.980605
4.7 -0.011209 -0.986661
4.8 0.087499 -0.982847
4.9 0.182753 -0.969334
5 0.278008 -0.946296
5.1 0.373262 -0.913733
5.2 0.468517 -0.871644
5.3 0.545279 -0.820954
5.4 0.622041 -0.762588
5.5 0.698804 -0.696546
5.6 0.775566 -0.622827
5.7 0.821717 -0.542963
5.8 0.867868 -0.458484
5.9 0.914019 -0.369389
6 0.96017 -0.27568
6.1 0.976173 -0.178863
6.2 0.992176 -0.0804454
