0.1 -15.3 1.04 
1.33 0.32 0.594 
2.55 2.45 0.983 
3.78 2.75 0.998 
5 2.27 1.11 
6.22 1.35 0.398 
7.45 0.157 0.535 
8.68 -1.23 0.968 
9.9 -2.75 0.478 


0.1 -15.3027 -15.3048 -15.3006 
0.11 -14.6564 -14.6375 -14.6752 
0.12 -14.068 -14.03 -14.106 
0.13 -13.5284 -13.4727 -13.584 
0.14 -13.0302 -12.9582 -13.1023 
0.15 -12.5678 -12.4805 -12.6552 
0.16 -12.1366 -12.0349 -12.2382 
0.17 -11.7327 -11.6176 -11.8478 
0.18 -11.3531 -11.2252 -11.4809 
0.19 -10.995 -10.8551 -11.1349 
0.2 -10.6564 -10.505 -10.8077 
0.21 -10.3352 -10.173 -10.4975 
0.22 -10.03 -9.85728 -10.2027 
0.23 -9.73916 -9.55649 -9.92182 
0.24 -9.46158 -9.26933 -9.65382 
0.25 -9.19614 -8.9947 -9.39758 
0.26 -8.94191 -8.73161 -9.1522 
0.27 -8.69802 -8.47919 -8.91684 
0.28 -8.46373 -8.23666 -8.69079 
0.29 -8.23836 -8.00333 -8.47339 
0.3 -8.02131 -7.77858 -8.26404 
0.31 -7.81203 -7.56184 -8.06223 
0.32 -7.61004 -7.3526 -7.86748 
0.33 -7.41487 -7.1504 -7.67934 
0.34 -7.22613 -6.95482 -7.49743 
0.35 -7.04343 -6.76548 -7.32138 
0.36 -6.86645 -6.58203 -7.15087 
0.37 -6.69486 -6.40414 -6.98559 
0.38 -6.52838 -6.23151 -6.82525 
0.39 -6.36675 -6.06388 -6.66962 
0.4 -6.20971 -5.90099 -6.51843 
0.41 -6.05705 -5.7426 -6.37149 
0.42 -5.90854 -5.58851 -6.22857 
0.43 -5.764 -5.4385 -6.0895 
0.44 -5.62324 -5.29239 -5.9541 
0.45 -5.48609 -5.15 -5.82219 
0.46 -5.3524 -5.01117 -5.69363 
0.47 -5.22201 -4.87575 -5.56828 
0.48 -5.09479 -4.74359 -5.44599 
0.49 -4.9706 -4.61456 -5.32664 
0.5 -4.84933 -4.48853 -5.21012 
0.51 -4.73085 -4.36539 -5.09631 
0.52 -4.61506 -4.24502 -4.9851 
0.53 -4.50186 -4.12731 -4.8764 
0.54 -4.39114 -4.01217 -4.77011 
0.55 -4.28283 -3.89951 -4.66615 
0.56 -4.17682 -3.78922 -4.56442 
0.57 -4.07305 -3.68123 -4.46486 
0.58 -3.97142 -3.57547 -4.36738 
0.59 -3.87188 -3.47184 -4.27192 
0.6 -3.77435 -3.37029 -4.17841 
0.61 -3.67875 -3.27073 -4.08677 
0.62 -3.58504 -3.17312 -3.99696 
0.63 -3.49314 -3.07738 -3.90891 
0.64 -3.40301 -2.98345 -3.82257 
0.65 -3.31459 -2.89129 -3.73788 
0.66 -3.22781 -2.80083 -3.6548 
0.67 -3.14265 -2.71203 -3.57327 
0.68 -3.05904 -2.62483 -3.49325 
0.69 -2.97694 -2.53919 -3.4147 
0.7 -2.89632 -2.45506 -3.33757 
0.71 -2.81712 -2.37241 -3.26182 
0.72 -2.7393 -2.29119 -3.18742 
0.73 -2.66284 -2.21135 -3.11432 
0.74 -2.58769 -2.13287 -3.0425 
0.75 -2.51381 -2.05571 -2.97192 
0.76 -2.44118 -1.97982 -2.90253 
0.77 -2.36976 -1.90519 -2.83433 
0.78 -2.29951 -1.83176 -2.76726 
0.79 -2.23042 -1.75953 -2.70131 
0.8 -2.16245 -1.68845 -2.63644 
0.81 -2.09556 -1.61849 -2.57264 
0.82 -2.02975 -1.54964 -2.50986 
0.83 -1.96497 -1.48185 -2.4481 
0.84 -1.90121 -1.41512 -2.38731 
0.85 -1.83844 -1.3494 -2.32749 
0.86 -1.77664 -1.28468 -2.26861 
0.87 -1.71579 -1.22094 -2.21064 
0.88 -1.65585 -1.15814 -2.15356 
0.89 -1.59682 -1.09628 -2.09737 
0.9 -1.53868 -1.03533 -2.04202 
0.91 -1.48139 -0.975269 -1.98752 
0.92 -1.42495 -0.916078 -1.93383 
0.93 -1.36934 -0.857739 -1.88094 
0.94 -1.31454 -0.800232 -1.82884 
0.95 -1.26052 -0.743541 -1.7775 
0.96 -1.20728 -0.687649 -1.72692 
0.97 -1.1548 -0.632539 -1.67706 
0.98 -1.10306 -0.578195 -1.62793 
0.99 -1.05206 -0.524602 -1.57951 
1 -1.00176 -0.471744 -1.53178 
1.01 -0.952163 -0.419606 -1.48472 
1.02 -0.903251 -0.368175 -1.43833 
1.03 -0.855012 -0.317437 -1.39259 
1.04 -0.807432 -0.267378 -1.34749 
1.05 -0.760498 -0.217986 -1.30301 
1.06 -0.714198 -0.169247 -1.25915 
1.07 -0.668521 -0.12115 -1.21589 
1.08 -0.623454 -0.0736825 -1.17323 
1.09 -0.578987 -0.0268327 -1.13114 
1.1 -0.535108 0.0194105 -1.08963 
1.11 -0.491807 0.065058 -1.04867 
1.12 -0.449073 0.110121 -1.00827 
1.13 -0.406897 0.154608 -0.968402 
1.14 -0.365268 0.198532 -0.929069 
1.15 -0.324178 0.241901 -0.890256 
1.16 -0.283616 0.284725 -0.851956 
1.17 -0.243573 0.327013 -0.81416 
1.18 -0.204041 0.368775 -0.776858 
1.19 -0.165012 0.410019 -0.740043 
1.2 -0.126476 0.450755 -0.703707 
1.21 -0.0884258 0.490989 -0.667841 
1.22 -0.0508531 0.530732 -0.632438 
1.23 -0.01375 0.56999 -0.59749 
1.24 0.0228908 0.608772 -0.56299 
1.25 0.059077 0.647085 -0.528931 
1.26 0.0948157 0.684937 -0.495306 
1.27 0.130114 0.722335 -0.462107 
1.28 0.164979 0.759286 -0.429328 
1.29 0.199417 0.795797 -0.396963 
1.3 0.233435 0.831875 -0.365006 
1.31 0.267039 0.867527 -0.333449 
1.32 0.300236 0.902759 -0.302287 
1.33 0.333032 0.937577 -0.271513 
1.34 0.365432 0.971987 -0.241123 
1.35 0.397443 1.006 -0.211111 
1.36 0.42907 1.03961 -0.18147 
1.37 0.46032 1.07283 -0.152195 
1.38 0.491196 1.10567 -0.123281 
1.39 0.521706 1.13814 -0.0947235 
1.4 0.551854 1.17022 -0.0665164 
1.41 0.581645 1.20194 -0.038655 
1.42 0.611084 1.2333 -0.0111345 
1.43 0.640177 1.2643 0.0160501 
1.44 0.668928 1.29495 0.0429032 
1.45 0.697342 1.32525 0.0694296 
1.46 0.725423 1.35521 0.0956338 
1.47 0.753176 1.38483 0.12152 
1.48 0.780605 1.41412 0.147093 
1.49 0.807716 1.44308 0.172356 
1.5 0.834511 1.47171 0.197314 
1.51 0.860996 1.50002 0.221971 
1.52 0.887174 1.52802 0.246331 
1.53 0.913049 1.5557 0.270398 
1.54 0.938626 1.58308 0.294175 
1.55 0.963908 1.61015 0.317666 
1.56 0.988899 1.63692 0.340875 
1.57 1.0136 1.6634 0.363806 
1.58 1.03802 1.68958 0.386462 
1.59 1.06216 1.71548 0.408847 
1.6 1.08603 1.74109 0.430963 
1.61 1.10962 1.76642 0.452815 
1.62 1.13294 1.79147 0.474406 
1.63 1.15599 1.81624 0.495738 
1.64 1.17878 1.84075 0.516815 
1.65 1.20131 1.86499 0.537641 
1.66 1.22359 1.88896 0.558217 
1.67 1.24561 1.91267 0.578548 
1.68 1.26738 1.93612 0.598635 
1.69 1.2889 1.95932 0.618483 
1.7 1.31018 1.98226 0.638093 
1.71 1.33121 2.00496 0.657469 
1.72 1.35201 2.02741 0.676613 
1.73 1.37257 2.04961 0.695528 
1.74 1.3929 2.07158 0.714217 
1.75 1.41299 2.0933 0.732681 
1.76 1.43286 2.11479 0.750925 
1.77 1.4525 2.13605 0.76895 
1.78 1.47192 2.15708 0.786759 
1.79 1.49112 2.17788 0.804353 
1.8 1.5101 2.19846 0.821737 
1.81 1.52886 2.21881 0.838911 
1.82 1.54741 2.23894 0.855878 
1.83 1.56575 2.25886 0.872641 
1.84 1.58388 2.27856 0.889201 
1.85 1.6018 2.29805 0.905561 
1.86 1.61952 2.31732 0.921724 
1.87 1.63704 2.33639 0.93769 
1.88 1.65436 2.35525 0.953463 
1.89 1.67148 2.37391 0.969044 
1.9 1.6884 2.39237 0.984435 
1.91 1.70513 2.41063 0.999639 
1.92 1.72167 2.42869 1.01466 
1.93 1.73802 2.44655 1.02949 
1.94 1.75418 2.46422 1.04414 
1.95 1.77016 2.4817 1.05861 
1.96 1.78595 2.49899 1.07291 
1.97 1.80156 2.51609 1.08703 
1.98 1.81699 2.53301 1.10097 
1.99 1.83224 2.54974 1.11474 
2 1.84731 2.56629 1.12834 
2.01 1.86221 2.58266 1.14177 
2.02 1.87694 2.59885 1.15503 
2.03 1.8915 2.61487 1.16813 
2.04 1.90588 2.63071 1.18106 
2.05 1.9201 2.64638 1.19383 
2.06 1.93415 2.66187 1.20643 
2.07 1.94804 2.6772 1.21888 
2.08 1.96176 2.69236 1.23117 
2.09 1.97533 2.70735 1.2433 
2.1 1.98873 2.72217 1.25528 
2.11 2.00197 2.73684 1.2671 
2.12 2.01506 2.75134 1.27878 
2.13 2.02799 2.76568 1.2903 
2.14 2.04076 2.77986 1.30167 
2.15 2.05339 2.79388 1.31289 
2.16 2.06586 2.80775 1.32397 
2.17 2.07818 2.82147 1.3349 
2.18 2.09036 2.83503 1.34569 
2.19 2.10239 2.84844 1.35634 
2.2 2.11427 2.86169 1.36684 
2.21 2.12601 2.8748 1.37721 
2.22 2.1376 2.88777 1.38743 
2.23 2.14905 2.90058 1.39752 
2.24 2.16036 2.91325 1.40747 
2.25 2.17154 2.92578 1.41729 
2.26 2.18257 2.93817 1.42697 
2.27 2.19347 2.95041 1.43652 
2.28 2.20423 2.96252 1.44594 
2.29 2.21486 2.97448 1.45523 
2.3 2.22535 2.98631 1.46439 
2.31 2.23571 2.998 1.47342 
2.32 2.24594 3.00956 1.48232 
2.33 2.25604 3.02098 1.4911 
2.34 2.26601 3.03227 1.49976 
2.35 2.27586 3.04343 1.50829 
2.36 2.28558 3.05446 1.51669 
2.37 2.29517 3.06536 1.52498 
2.38 2.30463 3.07613 1.53314 
2.39 2.31398 3.08677 1.54119 
2.4 2.3232 3.09729 1.54911 
2.41 2.3323 3.10768 1.55692 
2.42 2.34128 3.11795 1.56462 
2.43 2.35014 3.12809 1.57219 
2.44 2.35888 3.13811 1.57965 
2.45 2.36751 3.14802 1.587 
2.46 2.37602 3.1578 1.59424 
2.47 2.38441 3.16746 1.60136 
2.48 2.39269 3.177 1.60837 
2.49 2.40085 3.18643 1.61527 
2.5 2.4089 3.19574 1.62207 
2.51 2.41684 3.20494 1.62875 
2.52 2.42467 3.21402 1.63533 
2.53 2.43239 3.22299 1.6418 
2.54 2.44 3.23184 1.64816 
2.55 2.4475 3.24059 1.65442 
2.56 2.4549 3.24922 1.66058 
2.57 2.46218 3.25774 1.66663 
2.58 2.46937 3.26615 1.67258 
2.59 2.47644 3.27446 1.67842 
2.6 2.48341 3.28266 1.68417 
2.61 2.49028 3.29075 1.68982 
2.62 2.49705 3.29873 1.69536 
2.63 2.50371 3.30661 1.70081 
2.64 2.51027 3.31439 1.70616 
2.65 2.51674 3.32206 1.71141 
2.66 2.5231 3.32963 1.71657 
2.67 2.52936 3.3371 1.72163 
2.68 2.53553 3.34447 1.72659 
2.69 2.5416 3.35174 1.73146 
2.7 2.54757 3.3589 1.73624 
2.71 2.55345 3.36597 1.74093 
2.72 2.55923 3.37294 1.74552 
2.73 2.56492 3.37981 1.75002 
2.74 2.57051 3.38659 1.75443 
2.75 2.57601 3.39327 1.75875 
2.76 2.58142 3.39985 1.76298 
2.77 2.58673 3.40634 1.76712 
2.78 2.59196 3.41274 1.77117 
2.79 2.59709 3.41904 1.77513 
2.8 2.60213 3.42525 1.77901 
2.81 2.60709 3.43137 1.7828 
2.82 2.61195 3.4374 1.78651 
2.83 2.61673 3.44334 1.79013 
2.84 2.62142 3.44918 1.79366 
2.85 2.62603 3.45494 1.79712 
2.86 2.63055 3.46061 1.80048 
2.87 2.63498 3.46619 1.80377 
2.88 2.63933 3.47168 1.80697 
2.89 2.64359 3.47709 1.81009 
2.9 2.64777 3.48241 1.81314 
2.91 2.65187 3.48764 1.81609 
2.92 2.65588 3.49279 1.81897 
2.93 2.65982 3.49786 1.82177 
2.94 2.66367 3.50284 1.8245 
2.95 2.66744 3.50773 1.82714 
2.96 2.67113 3.51255 1.8297 
2.97 2.67474 3.51728 1.83219 
2.98 2.67827 3.52193 1.8346 
2.99 2.68172 3.5265 1.83694 
3 2.68509 3.53099 1.8392 
3.01 2.68839 3.5354 1.84138 
3.02 2.69161 3.53972 1.84349 
3.03 2.69475 3.54397 1.84552 
3.04 2.69781 3.54815 1.84748 
3.05 2.70081 3.55224 1.84937 
3.06 2.70372 3.55626 1.85119 
3.07 2.70656 3.56019 1.85293 
3.08 2.70933 3.56406 1.8546 
3.09 2.71202 3.56784 1.8562 
3.1 2.71464 3.57155 1.85773 
3.11 2.71719 3.57519 1.85918 
3.12 2.71966 3.57875 1.86057 
3.13 2.72206 3.58224 1.86189 
3.14 2.72439 3.58565 1.86314 
3.15 2.72665 3.58899 1.86432 
3.16 2.72884 3.59226 1.86543 
3.17 2.73096 3.59546 1.86647 
3.18 2.73301 3.59858 1.86745 
3.19 2.735 3.60164 1.86836 
3.2 2.73691 3.60462 1.8692 
3.21 2.73875 3.60753 1.86998 
3.22 2.74053 3.61037 1.87069 
3.23 2.74224 3.61314 1.87133 
3.24 2.74388 3.61585 1.87191 
3.25 2.74545 3.61848 1.87243 
3.26 2.74696 3.62105 1.87288 
3.27 2.74841 3.62355 1.87327 
3.28 2.74979 3.62598 1.87359 
3.29 2.7511 3.62834 1.87385 
3.3 2.75235 3.63064 1.87405 
3.31 2.75353 3.63287 1.87419 
3.32 2.75465 3.63504 1.87427 
3.33 2.75571 3.63714 1.87428 
3.34 2.7567 3.63917 1.87423 
3.35 2.75763 3.64114 1.87412 
3.36 2.7585 3.64305 1.87395 
3.37 2.75931 3.64489 1.87373 
3.38 2.76005 3.64667 1.87344 
3.39 2.76074 3.64839 1.87309 
3.4 2.76136 3.65004 1.87268 
3.41 2.76192 3.65163 1.87222 
3.42 2.76243 3.65316 1.87169 
3.43 2.76287 3.65463 1.87111 
3.44 2.76325 3.65603 1.87047 
3.45 2.76358 3.65738 1.86978 
3.46 2.76384 3.65866 1.86902 
3.47 2.76405 3.65989 1.86821 
3.48 2.7642 3.66105 1.86735 
3.49 2.76429 3.66216 1.86643 
3.5 2.76433 3.6632 1.86545 
3.51 2.7643 3.66419 1.86442 
3.52 2.76422 3.66512 1.86333 
3.53 2.76409 3.66599 1.86218 
3.54 2.76389 3.6668 1.86099 
3.55 2.76365 3.66756 1.85974 
3.56 2.76334 3.66825 1.85843 
3.57 2.76298 3.6689 1.85707 
3.58 2.76257 3.66948 1.85566 
3.59 2.7621 3.67001 1.8542 
3.6 2.76158 3.67048 1.85268 
3.61 2.761 3.6709 1.85111 
3.62 2.76037 3.67126 1.84949 
3.63 2.75969 3.67157 1.84782 
3.64 2.75895 3.67182 1.84609 
3.65 2.75817 3.67201 1.84432 
3.66 2.75732 3.67216 1.84249 
3.67 2.75643 3.67225 1.84061 
3.68 2.75548 3.67228 1.83869 
3.69 2.75449 3.67227 1.83671 
3.7 2.75344 3.6722 1.83468 
3.71 2.75234 3.67207 1.83261 
3.72 2.75119 3.6719 1.83048 
3.73 2.74999 3.67167 1.8283 
3.74 2.74874 3.67139 1.82608 
3.75 2.74743 3.67106 1.82381 
3.76 2.74608 3.67068 1.82149 
3.77 2.74468 3.67025 1.81912 
3.78 2.74323 3.66976 1.81671 
3.79 2.74174 3.66923 1.81424 
3.8 2.74019 3.66864 1.81173 
3.81 2.73859 3.66801 1.80918 
3.82 2.73695 3.66733 1.80657 
3.83 2.73526 3.66659 1.80392 
3.84 2.73352 3.66581 1.80122 
3.85 2.73173 3.66498 1.79848 
3.86 2.7299 3.6641 1.79569 
3.87 2.72802 3.66317 1.79286 
3.88 2.72609 3.6622 1.78998 
3.89 2.72411 3.66117 1.78706 
3.9 2.72209 3.6601 1.78409 
3.91 2.72003 3.65898 1.78108 
3.92 2.71792 3.65781 1.77802 
3.93 2.71576 3.6566 1.77492 
3.94 2.71356 3.65534 1.77177 
3.95 2.71131 3.65403 1.76858 
3.96 2.70902 3.65268 1.76535 
3.97 2.70668 3.65128 1.76207 
3.98 2.7043 3.64984 1.75875 
3.99 2.70187 3.64835 1.75539 
4 2.6994 3.64681 1.75199 
4.01 2.69689 3.64523 1.74854 
4.02 2.69433 3.64361 1.74505 
4.03 2.69173 3.64194 1.74152 
4.04 2.68909 3.64023 1.73795 
4.05 2.6864 3.63847 1.73434 
4.06 2.68367 3.63667 1.73068 
4.07 2.6809 3.63482 1.72699 
4.08 2.67809 3.63293 1.72325 
4.09 2.67524 3.631 1.71947 
4.1 2.67234 3.62902 1.71565 
4.11 2.6694 3.62701 1.71179 
4.12 2.66642 3.62495 1.7079 
4.13 2.6634 3.62284 1.70396 
4.14 2.66034 3.6207 1.69998 
4.15 2.65723 3.61851 1.69596 
4.16 2.65409 3.61628 1.6919 
4.17 2.65091 3.61401 1.68781 
4.18 2.64768 3.61169 1.68367 
4.19 2.64442 3.60934 1.6795 
4.2 2.64112 3.60695 1.67529 
4.21 2.63777 3.60451 1.67103 
4.22 2.63439 3.60203 1.66674 
4.23 2.63097 3.59952 1.66242 
4.24 2.62751 3.59696 1.65805 
4.25 2.62401 3.59436 1.65365 
4.26 2.62047 3.59172 1.64921 
4.27 2.61689 3.58905 1.64473 
4.28 2.61327 3.58633 1.64022 
4.29 2.60962 3.58358 1.63566 
4.3 2.60593 3.58078 1.63108 
4.31 2.6022 3.57795 1.62645 
4.32 2.59843 3.57507 1.62179 
4.33 2.59463 3.57216 1.61709 
4.34 2.59078 3.56921 1.61236 
4.35 2.5869 3.56622 1.60759 
4.36 2.58299 3.5632 1.60278 
4.37 2.57904 3.56013 1.59794 
4.38 2.57505 3.55703 1.59306 
4.39 2.57102 3.55389 1.58815 
4.4 2.56696 3.55072 1.5832 
4.41 2.56286 3.5475 1.57822 
4.42 2.55872 3.54425 1.5732 
4.43 2.55455 3.54096 1.56815 
4.44 2.55035 3.53764 1.56306 
4.45 2.54611 3.53428 1.55794 
4.46 2.54183 3.53088 1.55278 
4.47 2.53752 3.52744 1.54759 
4.48 2.53317 3.52397 1.54237 
4.49 2.52879 3.52047 1.53711 
4.5 2.52438 3.51693 1.53182 
4.51 2.51992 3.51335 1.5265 
4.52 2.51544 3.50974 1.52114 
4.53 2.51092 3.50609 1.51575 
4.54 2.50637 3.50241 1.51033 
4.55 2.50178 3.49869 1.50487 
4.56 2.49716 3.49494 1.49938 
4.57 2.4925 3.49115 1.49386 
4.58 2.48782 3.48733 1.48831 
4.59 2.48309 3.48347 1.48272 
4.6 2.47834 3.47958 1.4771 
4.61 2.47355 3.47565 1.47145 
4.62 2.46873 3.4717 1.46577 
4.63 2.46388 3.4677 1.46005 
4.64 2.45899 3.46368 1.45431 
4.65 2.45407 3.45962 1.44853 
4.66 2.44912 3.45553 1.44272 
4.67 2.44414 3.4514 1.43688 
4.68 2.43912 3.44724 1.43101 
4.69 2.43408 3.44305 1.42511 
4.7 2.429 3.43882 1.41917 
4.71 2.42389 3.43457 1.41321 
4.72 2.41875 3.43028 1.40722 
4.73 2.41357 3.42596 1.40119 
4.74 2.40837 3.4216 1.39514 
4.75 2.40313 3.41721 1.38905 
4.76 2.39787 3.4128 1.38294 
4.77 2.39257 3.40835 1.37679 
4.78 2.38724 3.40386 1.37062 
4.79 2.38188 3.39935 1.36441 
4.8 2.37649 3.39481 1.35818 
4.81 2.37107 3.39023 1.35192 
4.82 2.36562 3.38562 1.34562 
4.83 2.36014 3.38098 1.3393 
4.84 2.35463 3.37632 1.33295 
4.85 2.34909 3.37162 1.32657 
4.86 2.34352 3.36689 1.32016 
4.87 2.33793 3.36212 1.31373 
4.88 2.3323 3.35733 1.30726 
4.89 2.32664 3.35251 1.30077 
4.9 2.32095 3.34766 1.29424 
4.91 2.31524 3.34278 1.28769 
4.92 2.30949 3.33787 1.28111 
4.93 2.30372 3.33292 1.27451 
4.94 2.29791 3.32795 1.26787 
4.95 2.29208 3.32295 1.26121 
4.96 2.28622 3.31792 1.25452 
4.97 2.28033 3.31286 1.2478 
4.98 2.27442 3.30777 1.24106 
4.99 2.26847 3.30266 1.23429 
5 2.2625 3.29751 1.22749 
5.01 2.2565 3.29233 1.22066 
5.02 2.25047 3.28713 1.21381 
5.03 2.24441 3.2819 1.20693 
5.04 2.23833 3.27664 1.20002 
5.05 2.23222 3.27135 1.19308 
5.06 2.22608 3.26603 1.18612 
5.07 2.21991 3.26068 1.17914 
5.08 2.21372 3.25531 1.17212 
5.09 2.2075 3.24991 1.16508 
5.1 2.20125 3.24448 1.15802 
5.11 2.19497 3.23902 1.15093 
5.12 2.18867 3.23353 1.14381 
5.13 2.18234 3.22802 1.13666 
5.14 2.17599 3.22248 1.12949 
5.15 2.16961 3.21692 1.1223 
5.16 2.1632 3.21132 1.11508 
5.17 2.15677 3.2057 1.10783 
5.18 2.15031 3.20005 1.10056 
5.19 2.14382 3.19438 1.09326 
5.2 2.13731 3.18867 1.08594 
5.21 2.13077 3.18294 1.0786 
5.22 2.12421 3.17719 1.07122 
5.23 2.11762 3.17141 1.06383 
5.24 2.111 3.1656 1.05641 
5.25 2.10436 3.15977 1.04896 
5.26 2.0977 3.1539 1.04149 
5.27 2.09101 3.14802 1.03399 
5.28 2.08429 3.14211 1.02647 
5.29 2.07755 3.13617 1.01893 
5.3 2.07078 3.1302 1.01136 
5.31 2.06399 3.12421 1.00377 
5.32 2.05718 3.1182 0.996153 
5.33 2.05034 3.11216 0.988513 
5.34 2.04347 3.10609 0.980849 
5.35 2.03658 3.1 0.973161 
5.36 2.02967 3.09388 0.965449 
5.37 2.02273 3.08774 0.957714 
5.38 2.01577 3.08158 0.949956 
5.39 2.00878 3.07538 0.942174 
5.4 2.00177 3.06917 0.934368 
5.41 1.99473 3.06293 0.92654 
5.42 1.98767 3.05666 0.918688 
5.43 1.98059 3.05037 0.910813 
5.44 1.97349 3.04406 0.902915 
5.45 1.96636 3.03772 0.894995 
5.46 1.9592 3.03135 0.887051 
5.47 1.95203 3.02497 0.879085 
5.48 1.94483 3.01855 0.871096 
5.49 1.9376 3.01212 0.863085 
5.5 1.93036 3.00566 0.855051 
5.51 1.92309 2.99918 0.846994 
5.52 1.91579 2.99267 0.838916 
5.53 1.90848 2.98614 0.830815 
5.54 1.90114 2.97958 0.822692 
5.55 1.89378 2.97301 0.814547 
5.56 1.88639 2.96641 0.80638 
5.57 1.87899 2.95978 0.798191 
5.58 1.87156 2.95313 0.78998 
5.59 1.8641 2.94646 0.781747 
5.6 1.85663 2.93977 0.773493 
5.61 1.84913 2.93305 0.765217 
5.62 1.84162 2.92631 0.75692 
5.63 1.83407 2.91955 0.748601 
5.64 1.82651 2.91276 0.74026 
5.65 1.81893 2.90596 0.731899 
5.66 1.81132 2.89913 0.723516 
5.67 1.80369 2.89227 0.715112 
5.68 1.79604 2.8854 0.706687 
5.69 1.78837 2.8785 0.698241 
5.7 1.78068 2.87158 0.689774 
5.71 1.77296 2.86464 0.681286 
5.72 1.76523 2.85767 0.672778 
5.73 1.75747 2.85069 0.664248 
5.74 1.74969 2.84368 0.655699 
5.75 1.74189 2.83665 0.647128 
5.76 1.73407 2.8296 0.638537 
5.77 1.72622 2.82252 0.629926 
5.78 1.71836 2.81543 0.621294 
5.79 1.71048 2.80831 0.612642 
5.8 1.70257 2.80117 0.60397 
5.81 1.69464 2.79401 0.595277 
5.82 1.6867 2.78683 0.586565 
5.83 1.67873 2.77963 0.577832 
5.84 1.67074 2.7724 0.56908 
5.85 1.66273 2.76516 0.560308 
5.86 1.6547 2.75789 0.551515 
5.87 1.64665 2.75061 0.542704 
5.88 1.63859 2.7433 0.533872 
5.89 1.6305 2.73597 0.525021 
5.9 1.62239 2.72862 0.516151 
5.91 1.61426 2.72125 0.50726 
5.92 1.60611 2.71386 0.498351 
5.93 1.59794 2.70645 0.489422 
5.94 1.58975 2.69902 0.480474 
5.95 1.58154 2.69156 0.471507 
5.96 1.57331 2.68409 0.46252 
5.97 1.56506 2.6766 0.453515 
5.98 1.55679 2.66909 0.444491 
5.99 1.5485 2.66155 0.435447 
6 1.54019 2.654 0.426385 
6.01 1.53186 2.64643 0.417304 
6.02 1.52352 2.63883 0.408204 
6.03 1.51515 2.63122 0.399085 
6.04 1.50677 2.62359 0.389948 
6.05 1.49836 2.61593 0.380792 
6.06 1.48994 2.60826 0.371618 
6.07 1.4815 2.60057 0.362425 
6.08 1.47304 2.59286 0.353214 
6.09 1.46456 2.58513 0.343984 
6.1 1.45606 2.57738 0.334737 
6.11 1.44754 2.56961 0.325471 
6.12 1.439 2.56182 0.316186 
6.13 1.43045 2.55401 0.306884 
6.14 1.42187 2.54618 0.297564 
6.15 1.41328 2.53833 0.288226 
6.16 1.40467 2.53047 0.27887 
6.17 1.39604 2.52258 0.269496 
6.18 1.38739 2.51468 0.260104 
6.19 1.37873 2.50676 0.250694 
6.2 1.37004 2.49881 0.241267 
6.21 1.36134 2.49085 0.231822 
6.22 1.35262 2.48288 0.22236 
6.23 1.34388 2.47488 0.21288 
6.24 1.33512 2.46686 0.203383 
6.25 1.32635 2.45883 0.193868 
6.26 1.31755 2.45077 0.184336 
6.27 1.30874 2.4427 0.174786 
6.28 1.29992 2.43461 0.16522 
6.29 1.29107 2.4265 0.155636 
6.3 1.28221 2.41838 0.146035 
6.31 1.27333 2.41023 0.136417 
6.32 1.26443 2.40207 0.126782 
6.33 1.25551 2.39389 0.11713 
6.34 1.24658 2.38569 0.107461 
6.35 1.23763 2.37748 0.097775 
6.36 1.22866 2.36924 0.0880724 
6.37 1.21967 2.36099 0.0783531 
6.38 1.21067 2.35272 0.068617 
6.39 1.20165 2.34443 0.0588643 
6.4 1.19261 2.33613 0.0490951 
6.41 1.18356 2.3278 0.0393093 
6.42 1.17449 2.31946 0.029507 
6.43 1.1654 2.31111 0.0196882 
6.44 1.15629 2.30273 0.00985307 
6.45 1.14717 2.29434 1.60288e-06 
6.46 1.13803 2.28593 -0.00986616 
6.47 1.12887 2.2775 -0.0197502 
6.48 1.1197 2.26906 -0.0296503 
6.49 1.11051 2.26059 -0.0395666 
6.5 1.10131 2.25211 -0.0494991 
6.51 1.09209 2.24362 -0.0594475 
6.52 1.08285 2.23511 -0.0694119 
6.53 1.07359 2.22658 -0.0793923 
6.54 1.06432 2.21803 -0.0893886 
6.55 1.05503 2.20947 -0.0994007 
6.56 1.04573 2.20089 -0.109429 
6.57 1.03641 2.19229 -0.119472 
6.58 1.02707 2.18367 -0.129532 
6.59 1.01772 2.17504 -0.139607 
6.6 1.00835 2.1664 -0.149697 
6.61 0.998965 2.15773 -0.159803 
6.62 0.989564 2.14905 -0.169925 
6.63 0.980147 2.14036 -0.180062 
6.64 0.970715 2.13164 -0.190215 
6.65 0.961266 2.12291 -0.200382 
6.66 0.951802 2.11417 -0.210566 
6.67 0.942322 2.10541 -0.220764 
6.68 0.932826 2.09663 -0.230978 
6.69 0.923314 2.08783 -0.241207 
6.7 0.913787 2.07902 -0.251451 
6.71 0.904244 2.0702 -0.26171 
6.72 0.894686 2.06136 -0.271984 
6.73 0.885112 2.0525 -0.282273 
6.74 0.875523 2.04362 -0.292577 
6.75 0.865918 2.03473 -0.302897 
6.76 0.856298 2.02583 -0.31323 
6.77 0.846663 2.01691 -0.323579 
6.78 0.837013 2.00797 -0.333943 
6.79 0.827347 1.99902 -0.344321 
6.8 0.817666 1.99005 -0.354714 
6.81 0.80797 1.98106 -0.365122 
6.82 0.798259 1.97206 -0.375544 
6.83 0.788533 1.96305 -0.385981 
6.84 0.778792 1.95402 -0.396432 
6.85 0.769036 1.94497 -0.406898 
6.86 0.759265 1.93591 -0.417378 
6.87 0.749479 1.92683 -0.427873 
6.88 0.739679 1.91774 -0.438382 
6.89 0.729863 1.90863 -0.448905 
6.9 0.720033 1.89951 -0.459443 
6.91 0.710189 1.89037 -0.469995 
6.92 0.700329 1.88122 -0.480561 
6.93 0.690455 1.87205 -0.491141 
6.94 0.680567 1.86287 -0.501735 
6.95 0.670664 1.85367 -0.512344 
6.96 0.660746 1.84446 -0.522966 
6.97 0.650814 1.83523 -0.533602 
6.98 0.640868 1.82599 -0.544253 
6.99 0.630907 1.81673 -0.554917 
7 0.620932 1.80746 -0.565595 
7.01 0.610943 1.79817 -0.576287 
7.02 0.600939 1.78887 -0.586993 
7.03 0.590921 1.77955 -0.597712 
7.04 0.58089 1.77022 -0.608445 
7.05 0.570844 1.76088 -0.619192 
7.06 0.560784 1.75152 -0.629953 
7.07 0.550709 1.74215 -0.640727 
7.08 0.540621 1.73276 -0.651514 
7.09 0.530519 1.72335 -0.662315 
7.1 0.520404 1.71394 -0.67313 
7.11 0.510274 1.70451 -0.683958 
7.12 0.50013 1.69506 -0.6948 
7.13 0.489973 1.6856 -0.705654 
7.14 0.479802 1.67613 -0.716523 
7.15 0.469617 1.66664 -0.727404 
7.16 0.459418 1.65714 -0.738299 
7.17 0.449206 1.64762 -0.749207 
7.18 0.43898 1.63809 -0.760128 
7.19 0.428741 1.62854 -0.771062 
7.2 0.418488 1.61899 -0.782009 
7.21 0.408222 1.60941 -0.79297 
7.22 0.397942 1.59983 -0.803943 
7.23 0.387649 1.59023 -0.81493 
7.24 0.377342 1.58061 -0.825929 
7.25 0.367022 1.57099 -0.836941 
7.26 0.356689 1.56134 -0.847967 
7.27 0.346342 1.55169 -0.859005 
7.28 0.335983 1.54202 -0.870056 
7.29 0.32561 1.53234 -0.881119 
7.3 0.315224 1.52264 -0.892196 
7.31 0.304825 1.51293 -0.903285 
7.32 0.294412 1.50321 -0.914387 
7.33 0.283987 1.49348 -0.925501 
7.34 0.273549 1.48373 -0.936628 
7.35 0.263097 1.47396 -0.947768 
7.36 0.252633 1.46419 -0.95892 
7.37 0.242156 1.4544 -0.970085 
7.38 0.231666 1.44459 -0.981262 
7.39 0.221163 1.43478 -0.992452 
7.4 0.210647 1.42495 -1.00365 
7.41 0.200119 1.41511 -1.01487 
7.42 0.189578 1.40525 -1.0261 
7.43 0.179024 1.39538 -1.03733 
7.44 0.168458 1.3855 -1.04859 
7.45 0.157878 1.37561 -1.05985 
7.46 0.147287 1.3657 -1.07112 
7.47 0.136682 1.35578 -1.08241 
7.48 0.126065 1.34584 -1.09371 
7.49 0.115436 1.3359 -1.10503 
7.5 0.104794 1.32594 -1.11635 
7.51 0.0941401 1.31597 -1.12769 
7.52 0.0834734 1.30598 -1.13903 
7.53 0.0727945 1.29598 -1.15039 
7.54 0.0621031 1.28597 -1.16177 
7.55 0.0513995 1.27595 -1.17315 
7.56 0.0406836 1.26591 -1.18455 
7.57 0.0299555 1.25587 -1.19596 
7.58 0.0192152 1.24581 -1.20737 
7.59 0.00846273 1.23573 -1.21881 
7.6 -0.00230189 1.22565 -1.23025 
7.61 -0.0130786 1.21555 -1.2417 
7.62 -0.0238674 1.20544 -1.25317 
7.63 -0.0346682 1.19531 -1.26465 
7.64 -0.0454811 1.18518 -1.27614 
7.65 -0.0563059 1.17503 -1.28764 
7.66 -0.0671427 1.16487 -1.29915 
7.67 -0.0779914 1.1547 -1.31068 
7.68 -0.0888519 1.14451 -1.32222 
7.69 -0.0997244 1.13432 -1.33376 
7.7 -0.110609 1.12411 -1.34532 
7.71 -0.121505 1.11388 -1.35689 
7.72 -0.132412 1.10365 -1.36848 
7.73 -0.143332 1.09341 -1.38007 
7.74 -0.154263 1.08315 -1.39167 
7.75 -0.165206 1.07288 -1.40329 
7.76 -0.176161 1.0626 -1.41492 
7.77 -0.187127 1.0523 -1.42656 
7.78 -0.198105 1.042 -1.43821 
7.79 -0.209094 1.03168 -1.44987 
7.8 -0.220095 1.02135 -1.46154 
7.81 -0.231107 1.01101 -1.47322 
7.82 -0.242131 1.00066 -1.48492 
7.83 -0.253166 0.990291 -1.49662 
7.84 -0.264212 0.979915 -1.50834 
7.85 -0.27527 0.969526 -1.52007 
7.86 -0.28634 0.959126 -1.53181 
7.87 -0.29742 0.948715 -1.54356 
7.88 -0.308512 0.938291 -1.55532 
7.89 -0.319615 0.927856 -1.56709 
7.9 -0.33073 0.91741 -1.57887 
7.91 -0.341855 0.906952 -1.59066 
7.92 -0.352992 0.896482 -1.60247 
7.93 -0.36414 0.886001 -1.61428 
7.94 -0.375299 0.875509 -1.62611 
7.95 -0.386469 0.865005 -1.63794 
7.96 -0.397651 0.854489 -1.64979 
7.97 -0.408843 0.843963 -1.66165 
7.98 -0.420046 0.833425 -1.67352 
7.99 -0.43126 0.822875 -1.6854 
8 -0.442485 0.812315 -1.69729 
8.01 -0.453722 0.801743 -1.70919 
8.02 -0.464969 0.791159 -1.7211 
8.03 -0.476226 0.780565 -1.73302 
8.04 -0.487495 0.76996 -1.74495 
8.05 -0.498775 0.759343 -1.75689 
8.06 -0.510065 0.748715 -1.76884 
8.07 -0.521366 0.738076 -1.78081 
8.08 -0.532678 0.727426 -1.79278 
8.09 -0.544 0.716765 -1.80477 
8.1 -0.555333 0.706093 -1.81676 
8.11 -0.566677 0.69541 -1.82876 
8.12 -0.578032 0.684716 -1.84078 
8.13 -0.589397 0.674011 -1.8528 
8.14 -0.600773 0.663295 -1.86484 
8.15 -0.612159 0.652569 -1.87689 
8.16 -0.623556 0.641831 -1.88894 
8.17 -0.634963 0.631083 -1.90101 
8.18 -0.64638 0.620324 -1.91308 
8.19 -0.657809 0.609554 -1.92517 
8.2 -0.669247 0.598773 -1.93727 
8.21 -0.680696 0.587982 -1.94937 
8.22 -0.692156 0.57718 -1.96149 
8.23 -0.703625 0.566367 -1.97362 
8.24 -0.715105 0.555543 -1.98575 
8.25 -0.726596 0.544709 -1.9979 
8.26 -0.738096 0.533865 -2.01006 
8.27 -0.749607 0.52301 -2.02222 
8.28 -0.761128 0.512144 -2.0344 
8.29 -0.772659 0.501268 -2.04659 
8.3 -0.784201 0.490381 -2.05878 
8.31 -0.795752 0.479484 -2.07099 
8.32 -0.807314 0.468576 -2.0832 
8.33 -0.818886 0.457658 -2.09543 
8.34 -0.830468 0.44673 -2.10767 
8.35 -0.84206 0.435791 -2.11991 
8.36 -0.853662 0.424842 -2.13217 
8.37 -0.865274 0.413883 -2.14443 
8.38 -0.876896 0.402913 -2.1567 
8.39 -0.888527 0.391933 -2.16899 
8.4 -0.900169 0.380943 -2.18128 
8.41 -0.911821 0.369943 -2.19358 
8.42 -0.923483 0.358932 -2.2059 
8.43 -0.935154 0.347911 -2.21822 
8.44 -0.946835 0.33688 -2.23055 
8.45 -0.958527 0.325839 -2.24289 
8.46 -0.970228 0.314788 -2.25524 
8.47 -0.981938 0.303727 -2.2676 
8.48 -0.993659 0.292656 -2.27997 
8.49 -1.00539 0.281575 -2.29235 
8.5 -1.01713 0.270483 -2.30474 
8.51 -1.02888 0.259382 -2.31714 
8.52 -1.04064 0.248271 -2.32955 
8.53 -1.05241 0.23715 -2.34196 
8.54 -1.06418 0.226019 -2.35439 
8.55 -1.07597 0.214878 -2.36682 
8.56 -1.08777 0.203727 -2.37927 
8.57 -1.09958 0.192567 -2.39172 
8.58 -1.11139 0.181396 -2.40418 
8.59 -1.12322 0.170216 -2.41666 
8.6 -1.13506 0.159026 -2.42914 
8.61 -1.1469 0.147826 -2.44163 
8.62 -1.15876 0.136617 -2.45413 
8.63 -1.17062 0.125398 -2.46664 
8.64 -1.18249 0.114169 -2.47915 
8.65 -1.19438 0.102931 -2.49168 
8.66 -1.20627 0.0916826 -2.50422 
8.67 -1.21817 0.0804249 -2.51676 
8.68 -1.23008 0.0691576 -2.52932 
8.69 -1.242 0.0578808 -2.54188 
8.7 -1.25393 0.0465944 -2.55445 
8.71 -1.26587 0.0352985 -2.56703 
8.72 -1.27781 0.0239931 -2.57962 
8.73 -1.28977 0.0126782 -2.59222 
8.74 -1.30174 0.00135383 -2.60483 
8.75 -1.31371 -0.00997995 -2.61744 
8.76 -1.3257 -0.0213231 -2.63007 
8.77 -1.33769 -0.0326757 -2.6427 
8.78 -1.34969 -0.0440377 -2.65535 
8.79 -1.3617 -0.055409 -2.668 
8.8 -1.37372 -0.0667896 -2.68066 
8.81 -1.38575 -0.0781795 -2.69333 
8.82 -1.39779 -0.0895788 -2.70601 
8.83 -1.40984 -0.100987 -2.71869 
8.84 -1.4219 -0.112405 -2.73139 
8.85 -1.43396 -0.123832 -2.74409 
8.86 -1.44604 -0.135268 -2.75681 
8.87 -1.45812 -0.146713 -2.76953 
8.88 -1.47021 -0.158168 -2.78226 
8.89 -1.48231 -0.169632 -2.795 
8.9 -1.49442 -0.181104 -2.80774 
8.91 -1.50654 -0.192586 -2.8205 
8.92 -1.51867 -0.204077 -2.83326 
8.93 -1.53081 -0.215577 -2.84604 
8.94 -1.54295 -0.227086 -2.85882 
8.95 -1.55511 -0.238604 -2.87161 
8.96 -1.56727 -0.250131 -2.88441 
8.97 -1.57944 -0.261667 -2.89721 
8.98 -1.59162 -0.273212 -2.91003 
8.99 -1.60381 -0.284766 -2.92285 
9 -1.61601 -0.296329 -2.93568 
9.01 -1.62821 -0.307901 -2.94852 
9.02 -1.64043 -0.319481 -2.96137 
9.03 -1.65265 -0.331071 -2.97423 
9.04 -1.66488 -0.342669 -2.98709 
9.05 -1.67712 -0.354276 -2.99997 
9.06 -1.68937 -0.365892 -3.01285 
9.07 -1.70163 -0.377517 -3.02574 
9.08 -1.71389 -0.38915 -3.03864 
9.09 -1.72617 -0.400792 -3.05154 
9.1 -1.73845 -0.412443 -3.06446 
9.11 -1.75074 -0.424103 -3.07738 
9.12 -1.76304 -0.435771 -3.09031 
9.13 -1.77535 -0.447448 -3.10325 
9.14 -1.78767 -0.459134 -3.1162 
9.15 -1.79999 -0.470828 -3.12915 
9.16 -1.81232 -0.482531 -3.14212 
9.17 -1.82467 -0.494243 -3.15509 
9.18 -1.83702 -0.505963 -3.16807 
9.19 -1.84937 -0.517691 -3.18106 
9.2 -1.86174 -0.529428 -3.19405 
9.21 -1.87411 -0.541174 -3.20706 
9.22 -1.8865 -0.552928 -3.22007 
9.23 -1.89889 -0.564691 -3.23309 
9.24 -1.91129 -0.576462 -3.24611 
9.25 -1.9237 -0.588241 -3.25915 
9.26 -1.93611 -0.600029 -3.27219 
9.27 -1.94854 -0.611825 -3.28524 
9.28 -1.96097 -0.62363 -3.2983 
9.29 -1.97341 -0.635443 -3.31137 
9.3 -1.98586 -0.647265 -3.32445 
9.31 -1.99831 -0.659094 -3.33753 
9.32 -2.01078 -0.670932 -3.35062 
9.33 -2.02325 -0.682779 -3.36372 
9.34 -2.03573 -0.694633 -3.37682 
9.35 -2.04822 -0.706496 -3.38994 
9.36 -2.06071 -0.718368 -3.40306 
9.37 -2.07322 -0.730247 -3.41619 
9.38 -2.08573 -0.742135 -3.42933 
9.39 -2.09825 -0.75403 -3.44247 
9.4 -2.11078 -0.765934 -3.45562 
9.41 -2.12332 -0.777846 -3.46878 
9.42 -2.13586 -0.789767 -3.48195 
9.43 -2.14841 -0.801695 -3.49513 
9.44 -2.16097 -0.813632 -3.50831 
9.45 -2.17354 -0.825576 -3.5215 
9.46 -2.18611 -0.837529 -3.5347 
9.47 -2.1987 -0.849489 -3.54791 
9.48 -2.21129 -0.861458 -3.56112 
9.49 -2.22389 -0.873435 -3.57434 
9.5 -2.23649 -0.88542 -3.58757 
9.51 -2.24911 -0.897412 -3.6008 
9.52 -2.26173 -0.909413 -3.61405 
9.53 -2.27436 -0.921422 -3.6273 
9.54 -2.287 -0.933438 -3.64056 
9.55 -2.29964 -0.945463 -3.65382 
9.56 -2.3123 -0.957495 -3.6671 
9.57 -2.32496 -0.969536 -3.68038 
9.58 -2.33762 -0.981584 -3.69367 
9.59 -2.3503 -0.99364 -3.70696 
9.6 -2.36298 -1.0057 -3.72026 
9.61 -2.37568 -1.01778 -3.73357 
9.62 -2.38837 -1.02985 -3.74689 
9.63 -2.40108 -1.04194 -3.76022 
9.64 -2.41379 -1.05404 -3.77355 
9.65 -2.42651 -1.06614 -3.78689 
9.66 -2.43924 -1.07825 -3.80024 
9.67 -2.45198 -1.09037 -3.81359 
9.68 -2.46472 -1.10249 -3.82695 
9.69 -2.47747 -1.11463 -3.84032 
9.7 -2.49023 -1.12677 -3.8537 
9.71 -2.503 -1.13892 -3.86708 
9.72 -2.51577 -1.15108 -3.88047 
9.73 -2.52855 -1.16324 -3.89387 
9.74 -2.54134 -1.17541 -3.90727 
9.75 -2.55414 -1.18759 -3.92068 
9.76 -2.56694 -1.19978 -3.9341 
9.77 -2.57975 -1.21197 -3.94753 
9.78 -2.59257 -1.22417 -3.96096 
9.79 -2.60539 -1.23638 -3.9744 
9.8 -2.61822 -1.2486 -3.98785 
9.81 -2.63106 -1.26083 -4.0013 
9.82 -2.64391 -1.27306 -4.01476 
9.83 -2.65676 -1.2853 -4.02823 
9.84 -2.66963 -1.29755 -4.04171 
9.85 -2.68249 -1.3098 -4.05519 
9.86 -2.69537 -1.32206 -4.06868 
9.87 -2.70825 -1.33433 -4.08217 
9.88 -2.72114 -1.34661 -4.09568 
9.89 -2.73404 -1.35889 -4.10919 
9.9 -2.74694 -1.37118 -4.1227 
9.91 -2.75986 -1.38348 -4.13623 
9.92 -2.77277 -1.39579 -4.14976 
9.93 -2.7857 -1.4081 -4.1633 
9.94 -2.79863 -1.42042 -4.17684 
9.95 -2.81157 -1.43275 -4.19039 
9.96 -2.82452 -1.44509 -4.20395 
9.97 -2.83747 -1.45743 -4.21751 
9.98 -2.85043 -1.46978 -4.23109 
9.99 -2.8634 -1.48214 -4.24467 
10 -2.87638 -1.4945 -4.25825 
10.01 -2.88936 -1.50687 -4.27184 
10.02 -2.90235 -1.51925 -4.28544 
10.03 -2.91534 -1.53164 -4.29905 
10.04 -2.92835 -1.54403 -4.31266 
10.05 -2.94136 -1.55643 -4.32628 
10.06 -2.95437 -1.56884 -4.33991 
10.07 -2.9674 -1.58125 -4.35354 
10.08 -2.98043 -1.59368 -4.36718 
10.09 -2.99346 -1.6061 -4.38082 
10.1 -3.00651 -1.61854 -4.39448 
10.11 -3.01956 -1.63098 -4.40814 
10.12 -3.03262 -1.64343 -4.4218 
10.13 -3.04568 -1.65589 -4.43547 
10.14 -3.05875 -1.66835 -4.44915 
10.15 -3.07183 -1.68083 -4.46284 
10.16 -3.08492 -1.6933 -4.47653 
10.17 -3.09801 -1.70579 -4.49023 
10.18 -3.11111 -1.71828 -4.50394 
10.19 -3.12421 -1.73078 -4.51765 
10.2 -3.13733 -1.74329 -4.53137 
10.21 -3.15045 -1.7558 -4.54509 
10.22 -3.16357 -1.76832 -4.55882 
10.23 -3.1767 -1.78085 -4.57256 
10.24 -3.18984 -1.79338 -4.58631 
10.25 -3.20299 -1.80592 -4.60006 
10.26 -3.21614 -1.81847 -4.61381 
10.27 -3.2293 -1.83102 -4.62758 
10.28 -3.24246 -1.84358 -4.64135 
10.29 -3.25564 -1.85615 -4.65512 
10.3 -3.26882 -1.86872 -4.66891 
10.31 -3.282 -1.88131 -4.6827 
10.32 -3.29519 -1.89389 -4.69649 
10.33 -3.30839 -1.90649 -4.71029 
10.34 -3.3216 -1.91909 -4.7241 
10.35 -3.33481 -1.9317 -4.73792 
10.36 -3.34803 -1.94431 -4.75174 
10.37 -3.36125 -1.95694 -4.76557 
10.38 -3.37448 -1.96956 -4.7794 
10.39 -3.38772 -1.9822 -4.79324 
10.4 -3.40096 -1.99484 -4.80709 
10.41 -3.41421 -2.00749 -4.82094 
10.42 -3.42747 -2.02015 -4.8348 
10.43 -3.44074 -2.03281 -4.84866 
10.44 -3.45401 -2.04548 -4.86254 
10.45 -3.46728 -2.05815 -4.87641 
10.46 -3.48056 -2.07083 -4.8903 
10.47 -3.49385 -2.08352 -4.90419 
10.48 -3.50715 -2.09622 -4.91808 
10.49 -3.52045 -2.10892 -4.93198 
10.5 -3.53376 -2.12162 -4.94589 
10.51 -3.54707 -2.13434 -4.95981 
10.52 -3.56039 -2.14706 -4.97373 
10.53 -3.57372 -2.15979 -4.98766 
10.54 -3.58706 -2.17252 -5.00159 
10.55 -3.6004 -2.18526 -5.01553 
10.56 -3.61374 -2.19801 -5.02947 
10.57 -3.62709 -2.21076 -5.04342 
10.58 -3.64045 -2.22352 -5.05738 
10.59 -3.65382 -2.23629 -5.07134 
10.6 -3.66719 -2.24906 -5.08531 
10.61 -3.68057 -2.26184 -5.09929 
10.62 -3.69395 -2.27463 -5.11327 
10.63 -3.70734 -2.28742 -5.12726 
10.64 -3.72073 -2.30022 -5.14125 
10.65 -3.73414 -2.31302 -5.15525 
10.66 -3.74755 -2.32583 -5.16926 
10.67 -3.76096 -2.33865 -5.18327 
10.68 -3.77438 -2.35147 -5.19729 
10.69 -3.78781 -2.3643 -5.21131 
10.7 -3.80124 -2.37714 -5.22534 
10.71 -3.81468 -2.38998 -5.23937 
10.72 -3.82812 -2.40283 -5.25341 
10.73 -3.84157 -2.41569 -5.26746 
10.74 -3.85503 -2.42855 -5.28151 
10.75 -3.8685 -2.44142 -5.29557 
10.76 -3.88196 -2.45429 -5.30964 
10.77 -3.89544 -2.46717 -5.32371 
10.78 -3.90892 -2.48006 -5.33778 
10.79 -3.92241 -2.49295 -5.35187 
10.8 -3.9359 -2.50585 -5.36595 
10.81 -3.9494 -2.51875 -5.38005 
10.82 -3.96291 -2.53167 -5.39415 
10.83 -3.97642 -2.54458 -5.40825 
10.84 -3.98994 -2.55751 -5.42236 
10.85 -4.00346 -2.57044 -5.43648 
10.86 -4.01699 -2.58337 -5.4506 
10.87 -4.03052 -2.59631 -5.46473 
10.88 -4.04406 -2.60926 -5.47887 
10.89 -4.05761 -2.62222 -5.49301 
10.9 -4.07116 -2.63518 -5.50715 
10.91 -4.08472 -2.64814 -5.5213 
10.92 -4.09829 -2.66111 -5.53546 
10.93 -4.11186 -2.67409 -5.54962 
10.94 -4.12543 -2.68708 -5.56379 
10.95 -4.13902 -2.70007 -5.57796 
10.96 -4.1526 -2.71306 -5.59214 
10.97 -4.1662 -2.72607 -5.60633 
10.98 -4.1798 -2.73907 -5.62052 
10.99 -4.1934 -2.75209 -5.63472 
11 -4.20701 -2.76511 -5.64892 
11.01 -4.22063 -2.77813 -5.66313 
11.02 -4.23425 -2.79117 -5.67734 
11.03 -4.24788 -2.80421 -5.69156 
11.04 -4.26152 -2.81725 -5.70578 
11.05 -4.27516 -2.8303 -5.72001 
11.06 -4.2888 -2.84336 -5.73425 
11.07 -4.30245 -2.85642 -5.74849 
11.08 -4.31611 -2.86948 -5.76274 
11.09 -4.32977 -2.88256 -5.77699 
11.1 -4.34344 -2.89564 -5.79124 
11.11 -4.35712 -2.90872 -5.80551 
11.12 -4.3708 -2.92181 -5.81978 
11.13 -4.38448 -2.93491 -5.83405 
11.14 -4.39817 -2.94801 -5.84833 
11.15 -4.41187 -2.96112 -5.86262 
11.16 -4.42557 -2.97424 -5.87691 
11.17 -4.43928 -2.98736 -5.8912 
11.18 -4.45299 -3.00048 -5.9055 
11.19 -4.46671 -3.01361 -5.91981 
11.2 -4.48044 -3.02675 -5.93412 
11.21 -4.49417 -3.03989 -5.94844 
11.22 -4.5079 -3.05304 -5.96276 
11.23 -4.52164 -3.0662 -5.97709 
11.24 -4.53539 -3.07936 -5.99142 
11.25 -4.54914 -3.09252 -6.00576 
11.26 -4.5629 -3.1057 -6.02011 
11.27 -4.57667 -3.11887 -6.03446 
11.28 -4.59043 -3.13206 -6.04881 
11.29 -4.60421 -3.14524 -6.06317 
11.3 -4.61799 -3.15844 -6.07754 
11.31 -4.63177 -3.17164 -6.09191 
11.32 -4.64557 -3.18484 -6.10629 
11.33 -4.65936 -3.19806 -6.12067 
11.34 -4.67316 -3.21127 -6.13506 
11.35 -4.68697 -3.2245 -6.14945 
11.36 -4.70078 -3.23772 -6.16384 
11.37 -4.7146 -3.25096 -6.17825 
11.38 -4.72843 -3.2642 -6.19266 
11.39 -4.74225 -3.27744 -6.20707 
11.4 -4.75609 -3.29069 -6.22149 
11.41 -4.76993 -3.30395 -6.23591 
11.42 -4.78377 -3.31721 -6.25034 
11.43 -4.79762 -3.33048 -6.26477 
11.44 -4.81148 -3.34375 -6.27921 
11.45 -4.82534 -3.35703 -6.29366 
11.46 -4.83921 -3.37031 -6.30811 
11.47 -4.85308 -3.3836 -6.32256 
11.48 -4.86696 -3.39689 -6.33702 
11.49 -4.88084 -3.41019 -6.35149 
11.5 -4.89473 -3.4235 -6.36596 
11.51 -4.90862 -3.43681 -6.38043 
11.52 -4.92252 -3.45013 -6.39491 
11.53 -4.93642 -3.46345 -6.4094 
11.54 -4.95033 -3.47677 -6.42389 
11.55 -4.96425 -3.49011 -6.43838 
11.56 -4.97816 -3.50344 -6.45288 
11.57 -4.99209 -3.51679 -6.46739 
11.58 -5.00602 -3.53014 -6.4819 
11.59 -5.01995 -3.54349 -6.49642 
11.6 -5.03389 -3.55685 -6.51094 
11.61 -5.04784 -3.57022 -6.52546 
11.62 -5.06179 -3.58359 -6.53999 
11.63 -5.07575 -3.59696 -6.55453 
11.64 -5.08971 -3.61034 -6.56907 
11.65 -5.10367 -3.62373 -6.58362 
11.66 -5.11764 -3.63712 -6.59817 
11.67 -5.13162 -3.65052 -6.61273 
11.68 -5.1456 -3.66392 -6.62729 
11.69 -5.15959 -3.67733 -6.64185 
11.7 -5.17358 -3.69074 -6.65642 
11.71 -5.18758 -3.70416 -6.671 
11.72 -5.20158 -3.71758 -6.68558 
11.73 -5.21559 -3.73101 -6.70017 
11.74 -5.2296 -3.74444 -6.71476 
11.75 -5.24362 -3.75788 -6.72935 
11.76 -5.25764 -3.77132 -6.74395 
11.77 -5.27167 -3.78477 -6.75856 
11.78 -5.2857 -3.79823 -6.77317 
11.79 -5.29974 -3.81169 -6.78778 
11.8 -5.31378 -3.82515 -6.8024 
11.81 -5.32783 -3.83862 -6.81703 
11.82 -5.34188 -3.8521 -6.83166 
11.83 -5.35594 -3.86558 -6.84629 
11.84 -5.37 -3.87906 -6.86093 
11.85 -5.38407 -3.89255 -6.87558 
11.86 -5.39814 -3.90605 -6.89023 
11.87 -5.41222 -3.91955 -6.90488 
11.88 -5.4263 -3.93306 -6.91954 
11.89 -5.44038 -3.94657 -6.9342 
11.9 -5.45448 -3.96008 -6.94887 
11.91 -5.46857 -3.97361 -6.96354 
11.92 -5.48268 -3.98713 -6.97822 
11.93 -5.49678 -4.00066 -6.9929 
11.94 -5.5109 -4.0142 -7.00759 
11.95 -5.52501 -4.02774 -7.02228 
11.96 -5.53913 -4.04129 -7.03698 
11.97 -5.55326 -4.05484 -7.05168 
11.98 -5.56739 -4.0684 -7.06639 
11.99 -5.58153 -4.08196 -7.0811 
12 -5.59567 -4.09553 -7.09582 

 
0.1 -15.3058 -15.4649 -15.1467 
0.2 -10.6599 -10.6936 -10.6261 
0.3 -8.02502 -7.98464 -8.06541 
0.4 -6.21357 -6.11996 -6.30718 
0.5 -4.85329 -4.71793 -4.98866 
0.6 -3.77839 -3.60853 -3.94824 
0.7 -2.90041 -2.70107 -3.09975 
0.8 -2.16658 -1.94141 -2.39174 
0.9 -1.54284 -1.29465 -1.79102 
1 -1.00594 -0.736939 -1.27494 
1.1 -0.539298 -0.251273 -0.827324 
1.2 -0.130672 0.174904 -0.436249 
1.3 0.229238 0.551127 -0.0926501 
1.4 0.547661 0.884807 0.210516 
1.5 0.830326 1.18182 0.478833 
1.6 1.08185 1.4469 0.716804 
1.7 1.30602 1.68393 0.928109 
1.8 1.50595 1.8961 1.1158 
1.9 1.68428 2.08612 1.28243 
2 1.84321 2.25626 1.43016 
2.1 1.98464 2.40845 1.56084 
2.2 2.11021 2.54436 1.67605 
2.3 2.22132 2.66545 1.77718 
2.4 2.31919 2.77298 1.86541 
2.5 2.40493 2.86805 1.9418 
2.6 2.47946 2.95165 2.00728 
2.7 2.54365 3.02463 2.06268 
2.8 2.59825 3.08777 2.10872 
2.9 2.64392 3.14176 2.14607 
3 2.68127 3.18722 2.17532 
3.1 2.71085 3.22471 2.19699 
3.2 2.73315 3.25474 2.21157 
3.3 2.74863 3.27777 2.21949 
3.4 2.75768 3.29421 2.22115 
3.5 2.76068 3.30444 2.21691 
3.6 2.75797 3.30883 2.20712 
3.7 2.74987 3.30767 2.19206 
3.8 2.73665 3.30129 2.17202 
3.9 2.7186 3.28993 2.14727 
4 2.69595 3.27386 2.11803 
4.1 2.66892 3.25331 2.08454 
4.2 2.63774 3.22849 2.04699 
4.3 2.60259 3.19961 2.00558 
4.4 2.56366 3.16685 1.96048 
4.5 2.52112 3.13039 1.91186 
4.6 2.47513 3.09038 1.85988 
4.7 2.42583 3.04699 1.80467 
4.8 2.37337 3.00035 1.74638 
4.9 2.31787 2.9506 1.68514 
5 2.25946 2.89786 1.62105 
5.1 2.19825 2.84226 1.55424 
5.2 2.13435 2.78389 1.48481 
5.3 2.06787 2.72288 1.41286 
5.4 1.9989 2.65932 1.33849 
5.5 1.92753 2.59329 1.26177 
5.6 1.85385 2.5249 1.18281 
5.7 1.77794 2.45422 1.10167 
5.8 1.69988 2.38133 1.01844 
5.9 1.61974 2.30631 0.933176 
6 1.53759 2.22923 0.845958 
6.1 1.4535 2.15016 0.756847 
6.2 1.36753 2.06917 0.665905 
6.3 1.27975 1.9863 0.57319 
6.4 1.1902 1.90164 0.478759 
6.5 1.09894 1.81522 0.382664 
6.6 1.00603 1.7271 0.284956 
6.7 0.911513 1.63734 0.185685 
6.8 0.815439 1.54598 0.084895 
6.9 0.717853 1.45307 -0.0173682 
7 0.618799 1.35866 -0.121063 
7.1 0.518318 1.26278 -0.226147 
7.2 0.41645 1.16548 -0.332584 
7.3 0.313233 1.0668 -0.440335 
7.4 0.208705 0.966773 -0.549364 
7.5 0.102899 0.865436 -0.659638 
7.6 -0.00414893 0.762825 -0.771123 
7.7 -0.112408 0.658972 -0.883787 
7.8 -0.221845 0.55391 -0.997601 
7.9 -0.332432 0.44767 -1.11253 
8 -0.444139 0.340281 -1.22856 
8.1 -0.556939 0.231772 -1.34565 
8.2 -0.670804 0.12217 -1.46378 
8.3 -0.785709 0.0115026 -1.58292 
8.4 -0.901628 -0.100206 -1.70305 
8.5 -1.01854 -0.21293 -1.82415 
8.6 -1.13642 -0.326647 -1.94619 
8.7 -1.25524 -0.441333 -2.06915 
8.8 -1.37499 -0.556966 -2.19301 
8.9 -1.49564 -0.673525 -2.31775 
9 -1.61717 -0.790989 -2.44335 
9.1 -1.73956 -0.909338 -2.56979 
9.2 -1.8628 -1.02855 -2.69706 
9.3 -1.98687 -1.14861 -2.82512 
9.4 -2.11174 -1.26951 -2.95398 
9.5 -2.23741 -1.39121 -3.08361 
9.6 -2.36385 -1.5137 -3.21399 
9.7 -2.49105 -1.63698 -3.34512 
9.8 -2.61899 -1.76101 -3.47696 
9.9 -2.74766 -1.8858 -3.60952 
10 -2.87704 -2.01131 -3.74277 
10.1 -3.00712 -2.13754 -3.8767 
10.2 -3.13789 -2.26447 -4.0113 
10.3 -3.26933 -2.3921 -4.14656 
10.4 -3.40143 -2.52039 -4.28246 
10.5 -3.53417 -2.64936 -4.41898 
10.6 -3.66755 -2.77897 -4.55613 
10.7 -3.80155 -2.90922 -4.69388 
10.8 -3.93616 -3.04009 -4.83223 
10.9 -4.07137 -3.17158 -4.97116 
11 -4.20717 -3.30368 -5.11066 
11.1 -4.34355 -3.43636 -5.25073 
11.2 -4.48049 -3.56963 -5.39135 
11.3 -4.61799 -3.70347 -5.53252 
11.4 -4.75604 -3.83787 -5.67421 
11.5 -4.89463 -3.97282 -5.81644 
11.6 -5.03374 -4.10832 -5.95917 
11.7 -5.17338 -4.24434 -6.10242 
11.8 -5.31352 -4.38089 -6.24616 
11.9 -5.45417 -4.51796 -6.39039 
12 -5.59531 -4.65553 -6.5351 
