<?xml version="1.0" encoding="utf-8"  standalone="no"?>
<!DOCTYPE svg PUBLIC "-//W3C//DTD SVG 1.1//EN"
 "http://www.w3.org/Graphics/SVG/1.1/DTD/svg11.dtd">
<svg 
 width="600" height="480"
 viewBox="0 0 600 480"
 xmlns="http://www.w3.org/2000/svg"
 xmlns:xlink="http://www.w3.org/1999/xlink"
>

<title>Gnuplot</title>
<desc>Produced by GNUPLOT 5.0 patchlevel 3 </desc>

<g id="gnuplot_canvas">

<rect x="0" y="0" width="600" height="480" fill="#ffffff"/>
<defs>

	<circle id='gpDot' r='0.5' stroke-width='0.5'/>
	<path id='gpPt0' stroke-width='0.222' stroke='currentColor' d='M-1,0 h2 M0,-1 v2'/>
	<path id='gpPt1' stroke-width='0.222' stroke='currentColor' d='M-1,-1 L1,1 M1,-1 L-1,1'/>
	<path id='gpPt2' stroke-width='0.222' stroke='currentColor' d='M-1,0 L1,0 M0,-1 L0,1 M-1,-1 L1,1 M-1,1 L1,-1'/>
	<rect id='gpPt3' stroke-width='0.222' stroke='currentColor' x='-1' y='-1' width='2' height='2'/>
	<rect id='gpPt4' stroke-width='0.222' stroke='currentColor' fill='currentColor' x='-1' y='-1' width='2' height='2'/>
	<circle id='gpPt5' stroke-width='0.222' stroke='currentColor' cx='0' cy='0' r='1'/>
	<use xlink:href='#gpPt5' id='gpPt6' fill='currentColor' stroke='none'/>
	<path id='gpPt7' stroke-width='0.222' stroke='currentColor' d='M0,-1.33 L-1.33,0.67 L1.33,0.67 z'/>
	<use xlink:href='#gpPt7' id='gpPt8' fill='currentColor' stroke='none'/>
	<use xlink:href='#gpPt7' id='gpPt9' stroke='currentColor' transform='rotate(180)'/>
	<use xlink:href='#gpPt9' id='gpPt10' fill='currentColor' stroke='none'/>
	<use xlink:href='#gpPt3' id='gpPt11' stroke='currentColor' transform='rotate(45)'/>
	<use xlink:href='#gpPt11' id='gpPt12' fill='currentColor' stroke='none'/>
	<path id='gpPt13' stroke-width='0.222' stroke='currentColor' d='M0,1.330 L1.265,0.411 L0.782,-1.067 L-0.782,-1.076 L-1.265,0.411 z'/>
	<use xlink:href='#gpPt13' id='gpPt14' fill='currentColor' stroke='none'/>
	<filter id='textbox' filterUnits='objectBoundingBox' x='0' y='0' height='1' width='1'>
	  <feFlood flood-color='#FFFFFF' flood-opacity='1' result='bgnd'/>
	  <feComposite in='SourceGraphic' in2='bgnd' operator='atop'/>
	</filter>
	<filter id='greybox' filterUnits='objectBoundingBox' x='0' y='0' height='1' width='1'>
	  <feFlood flood-color='lightgrey' flood-opacity='1' result='grey'/>
	  <feComposite in='SourceGraphic' in2='grey' operator='atop'/>
	</filter>
</defs>
<g fill="none" color="#FFFFFF" stroke="currentColor" stroke-width="1.00" stroke-linecap="butt" stroke-linejoin="miter">
</g>
<g fill="none" color="black" stroke="currentColor" stroke-width="1.00" stroke-linecap="butt" stroke-linejoin="miter">
	<path stroke='black'  d='M63.6,422.4 L72.6,422.4 M575.0,422.4 L566.0,422.4  '/>	<g transform="translate(55.3,426.9)" stroke="none" fill="black" font-family="Arial" font-size="12.00"  text-anchor="end">
		<text><tspan font-family="Arial" >-20</tspan></text>
	</g>
</g>
<g fill="none" color="black" stroke="currentColor" stroke-width="1.00" stroke-linecap="butt" stroke-linejoin="miter">
	<path stroke='black'  d='M63.6,341.3 L72.6,341.3 M575.0,341.3 L566.0,341.3  '/>	<g transform="translate(55.3,345.8)" stroke="none" fill="black" font-family="Arial" font-size="12.00"  text-anchor="end">
		<text><tspan font-family="Arial" >-15</tspan></text>
	</g>
</g>
<g fill="none" color="black" stroke="currentColor" stroke-width="1.00" stroke-linecap="butt" stroke-linejoin="miter">
	<path stroke='black'  d='M63.6,260.1 L72.6,260.1 M575.0,260.1 L566.0,260.1  '/>	<g transform="translate(55.3,264.6)" stroke="none" fill="black" font-family="Arial" font-size="12.00"  text-anchor="end">
		<text><tspan font-family="Arial" >-10</tspan></text>
	</g>
</g>
<g fill="none" color="black" stroke="currentColor" stroke-width="1.00" stroke-linecap="butt" stroke-linejoin="miter">
	<path stroke='black'  d='M63.6,179.0 L72.6,179.0 M575.0,179.0 L566.0,179.0  '/>	<g transform="translate(55.3,183.5)" stroke="none" fill="black" font-family="Arial" font-size="12.00"  text-anchor="end">
		<text><tspan font-family="Arial" >-5</tspan></text>
	</g>
</g>
<g fill="none" color="black" stroke="currentColor" stroke-width="1.00" stroke-linecap="butt" stroke-linejoin="miter">
	<path stroke='black'  d='M63.6,97.8 L72.6,97.8 M575.0,97.8 L566.0,97.8  '/>	<g transform="translate(55.3,102.3)" stroke="none" fill="black" font-family="Arial" font-size="12.00"  text-anchor="end">
		<text><tspan font-family="Arial" > 0</tspan></text>
	</g>
</g>
<g fill="none" color="black" stroke="currentColor" stroke-width="1.00" stroke-linecap="butt" stroke-linejoin="miter">
	<path stroke='black'  d='M63.6,16.7 L72.6,16.7 M575.0,16.7 L566.0,16.7  '/>	<g transform="translate(55.3,21.2)" stroke="none" fill="black" font-family="Arial" font-size="12.00"  text-anchor="end">
		<text><tspan font-family="Arial" > 5</tspan></text>
	</g>
</g>
<g fill="none" color="black" stroke="currentColor" stroke-width="1.00" stroke-linecap="butt" stroke-linejoin="miter">
	<path stroke='black'  d='M63.6,422.4 L63.6,413.4 M63.6,16.7 L63.6,25.7  '/>	<g transform="translate(63.6,444.9)" stroke="none" fill="black" font-family="Arial" font-size="12.00"  text-anchor="middle">
		<text><tspan font-family="Arial" > 0</tspan></text>
	</g>
</g>
<g fill="none" color="black" stroke="currentColor" stroke-width="1.00" stroke-linecap="butt" stroke-linejoin="miter">
	<path stroke='black'  d='M148.8,422.4 L148.8,413.4 M148.8,16.7 L148.8,25.7  '/>	<g transform="translate(148.8,444.9)" stroke="none" fill="black" font-family="Arial" font-size="12.00"  text-anchor="middle">
		<text><tspan font-family="Arial" > 2</tspan></text>
	</g>
</g>
<g fill="none" color="black" stroke="currentColor" stroke-width="1.00" stroke-linecap="butt" stroke-linejoin="miter">
	<path stroke='black'  d='M234.1,422.4 L234.1,413.4 M234.1,16.7 L234.1,25.7  '/>	<g transform="translate(234.1,444.9)" stroke="none" fill="black" font-family="Arial" font-size="12.00"  text-anchor="middle">
		<text><tspan font-family="Arial" > 4</tspan></text>
	</g>
</g>
<g fill="none" color="black" stroke="currentColor" stroke-width="1.00" stroke-linecap="butt" stroke-linejoin="miter">
	<path stroke='black'  d='M319.3,422.4 L319.3,413.4 M319.3,16.7 L319.3,25.7  '/>	<g transform="translate(319.3,444.9)" stroke="none" fill="black" font-family="Arial" font-size="12.00"  text-anchor="middle">
		<text><tspan font-family="Arial" > 6</tspan></text>
	</g>
</g>
<g fill="none" color="black" stroke="currentColor" stroke-width="1.00" stroke-linecap="butt" stroke-linejoin="miter">
	<path stroke='black'  d='M404.5,422.4 L404.5,413.4 M404.5,16.7 L404.5,25.7  '/>	<g transform="translate(404.5,444.9)" stroke="none" fill="black" font-family="Arial" font-size="12.00"  text-anchor="middle">
		<text><tspan font-family="Arial" > 8</tspan></text>
	</g>
</g>
<g fill="none" color="black" stroke="currentColor" stroke-width="1.00" stroke-linecap="butt" stroke-linejoin="miter">
	<path stroke='black'  d='M489.8,422.4 L489.8,413.4 M489.8,16.7 L489.8,25.7  '/>	<g transform="translate(489.8,444.9)" stroke="none" fill="black" font-family="Arial" font-size="12.00"  text-anchor="middle">
		<text><tspan font-family="Arial" > 10</tspan></text>
	</g>
</g>
<g fill="none" color="black" stroke="currentColor" stroke-width="1.00" stroke-linecap="butt" stroke-linejoin="miter">
	<path stroke='black'  d='M575.0,422.4 L575.0,413.4 M575.0,16.7 L575.0,25.7  '/>	<g transform="translate(575.0,444.9)" stroke="none" fill="black" font-family="Arial" font-size="12.00"  text-anchor="middle">
		<text><tspan font-family="Arial" > 12</tspan></text>
	</g>
</g>
<g fill="none" color="black" stroke="currentColor" stroke-width="1.00" stroke-linecap="butt" stroke-linejoin="miter">
</g>
<g fill="none" color="black" stroke="currentColor" stroke-width="1.00" stroke-linecap="butt" stroke-linejoin="miter">
	<path stroke='black'  d='M63.6,16.7 L63.6,422.4 L575.0,422.4 L575.0,16.7 L63.6,16.7 Z  '/></g>
<g fill="none" color="black" stroke="currentColor" stroke-width="1.00" stroke-linecap="butt" stroke-linejoin="miter">
	<g transform="translate(17.6,219.6) rotate(270)" stroke="none" fill="black" font-family="Arial" font-size="12.00"  text-anchor="middle">
		<text><tspan font-family="Arial" >y(x)</tspan></text>
	</g>
</g>
<g fill="none" color="black" stroke="currentColor" stroke-width="1.00" stroke-linecap="butt" stroke-linejoin="miter">
	<g transform="translate(319.3,471.9)" stroke="none" fill="black" font-family="Arial" font-size="12.00"  text-anchor="middle">
		<text><tspan font-family="Arial" >x</tspan></text>
	</g>
</g>
<g fill="none" color="black" stroke="currentColor" stroke-width="1.00" stroke-linecap="butt" stroke-linejoin="miter">
</g>
	<g id="gnuplot_plot_1" ><title>Fc(x)</title>
<g fill="none" color="black" stroke="currentColor" stroke-width="1.00" stroke-linecap="butt" stroke-linejoin="miter">
	<g transform="translate(507.9,300.9)" stroke="none" fill="black" font-family="Arial" font-size="12.00"  text-anchor="end">
		<text><tspan font-family="Arial" >F</tspan><tspan font-family="Arial"  font-size="9.6" dy="3.60px">c</tspan><tspan font-family="Arial"  font-size="12.0" dy="-3.60px">(x)</tspan></text>
	</g>
</g>
<g fill="none" color="black" stroke="currentColor" stroke-width="1.00" stroke-linecap="butt" stroke-linejoin="miter">
	<path stroke='rgb(  0,   0,   0)'  d='M516.2,296.4 L558.4,296.4 M67.9,346.2 L68.3,335.7 L68.7,326.1 L69.1,317.4 L69.6,309.3 L70.0,301.8
		L70.4,294.8 L70.8,288.2 L71.3,282.1 L71.7,276.3 L72.1,270.8 L72.5,265.6 L73.0,260.6 L73.4,255.9
		L73.8,251.4 L74.3,247.1 L74.7,242.9 L75.1,239.0 L75.5,235.2 L76.0,231.5 L76.4,228.0 L76.8,224.6
		L77.2,221.3 L77.7,218.2 L78.1,215.1 L78.5,212.1 L78.9,209.3 L79.4,206.5 L79.8,203.8 L80.2,201.2
		L80.6,198.6 L81.1,196.1 L81.5,193.7 L81.9,191.4 L82.4,189.1 L82.8,186.9 L83.2,184.7 L83.6,182.6
		L84.1,180.5 L84.5,178.5 L84.9,176.5 L85.3,174.6 L85.8,172.7 L86.2,170.9 L86.6,169.1 L87.0,167.3
		L87.5,165.6 L87.9,163.9 L88.3,162.3 L88.7,160.7 L89.2,159.1 L89.6,157.5 L90.0,156.0 L90.4,154.5
		L90.9,153.1 L91.3,151.6 L91.7,150.2 L92.2,148.8 L92.6,147.5 L93.0,146.1 L93.4,144.8 L93.9,143.6
		L94.3,142.3 L94.7,141.1 L95.1,139.8 L95.6,138.6 L96.0,137.5 L96.4,136.3 L96.8,135.2 L97.3,134.0
		L97.7,132.9 L98.1,131.8 L98.5,130.8 L99.0,129.7 L99.4,128.7 L99.8,127.7 L100.3,126.7 L100.7,125.7
		L101.1,124.7 L101.5,123.8 L102.0,122.8 L102.4,121.9 L102.8,121.0 L103.2,120.1 L103.7,119.2 L104.1,118.3
		L104.5,117.4 L104.9,116.6 L105.4,115.7 L105.8,114.9 L106.2,114.1 L106.6,113.3 L107.1,112.5 L107.5,111.7
		L107.9,110.9 L108.3,110.2 L108.8,109.4 L109.2,108.7 L109.6,108.0 L110.1,107.2 L110.5,106.5 L110.9,105.8
		L111.3,105.1 L111.8,104.4 L112.2,103.8 L112.6,103.1 L113.0,102.4 L113.5,101.8 L113.9,101.2 L114.3,100.5
		L114.7,99.9 L115.2,99.3 L115.6,98.7 L116.0,98.1 L116.4,97.5 L116.9,96.9 L117.3,96.3 L117.7,95.7
		L118.1,95.2 L118.6,94.6 L119.0,94.1 L119.4,93.5 L119.9,93.0 L120.3,92.4 L120.7,91.9 L121.1,91.4
		L121.6,90.9 L122.0,90.4 L122.4,89.9 L122.8,89.4 L123.3,88.9 L123.7,88.4 L124.1,87.9 L124.5,87.5
		L125.0,87.0 L125.4,86.5 L125.8,86.1 L126.2,85.6 L126.7,85.2 L127.1,84.7 L127.5,84.3 L128.0,83.9
		L128.4,83.4 L128.8,83.0 L129.2,82.6 L129.7,82.2 L130.1,81.8 L130.5,81.4 L130.9,81.0 L131.4,80.6
		L131.8,80.2 L132.2,79.8 L132.6,79.5 L133.1,79.1 L133.5,78.7 L133.9,78.3 L134.3,78.0 L134.8,77.6
		L135.2,77.3 L135.6,76.9 L136.0,76.6 L136.5,76.2 L136.9,75.9 L137.3,75.6 L137.8,75.2 L138.2,74.9
		L138.6,74.6 L139.0,74.3 L139.5,74.0 L139.9,73.6 L140.3,73.3 L140.7,73.0 L141.2,72.7 L141.6,72.4
		L142.0,72.1 L142.4,71.8 L142.9,71.6 L143.3,71.3 L143.7,71.0 L144.1,70.7 L144.6,70.4 L145.0,70.2
		L145.4,69.9 L145.9,69.6 L146.3,69.4 L146.7,69.1 L147.1,68.9 L147.6,68.6 L148.0,68.4 L148.4,68.1
		L148.8,67.9 L149.3,67.6 L149.7,67.4 L150.1,67.1 L150.5,66.9 L151.0,66.7 L151.4,66.5 L151.8,66.2
		L152.2,66.0 L152.7,65.8 L153.1,65.6 L153.5,65.4 L153.9,65.1 L154.4,64.9 L154.8,64.7 L155.2,64.5
		L155.7,64.3 L156.1,64.1 L156.5,63.9 L156.9,63.7 L157.4,63.5 L157.8,63.3 L158.2,63.2 L158.6,63.0
		L159.1,62.8 L159.5,62.6 L159.9,62.4 L160.3,62.2 L160.8,62.1 L161.2,61.9 L161.6,61.7 L162.0,61.6
		L162.5,61.4 L162.9,61.2 L163.3,61.1 L163.7,60.9 L164.2,60.7 L164.6,60.6 L165.0,60.4 L165.5,60.3
		L165.9,60.1 L166.3,60.0 L166.7,59.8 L167.2,59.7 L167.6,59.6 L168.0,59.4 L168.4,59.3 L168.9,59.1
		L169.3,59.0 L169.7,58.9 L170.1,58.7 L170.6,58.6 L171.0,58.5 L171.4,58.4 L171.8,58.2 L172.3,58.1
		L172.7,58.0 L173.1,57.9 L173.6,57.8 L174.0,57.7 L174.4,57.5 L174.8,57.4 L175.3,57.3 L175.7,57.2
		L176.1,57.1 L176.5,57.0 L177.0,56.9 L177.4,56.8 L177.8,56.7 L178.2,56.6 L178.7,56.5 L179.1,56.4
		L179.5,56.3 L179.9,56.2 L180.4,56.1 L180.8,56.0 L181.2,55.9 L181.6,55.9 L182.1,55.8 L182.5,55.7
		L182.9,55.6 L183.4,55.5 L183.8,55.5 L184.2,55.4 L184.6,55.3 L185.1,55.2 L185.5,55.2 L185.9,55.1
		L186.3,55.0 L186.8,54.9 L187.2,54.9 L187.6,54.8 L188.0,54.7 L188.5,54.7 L188.9,54.6 L189.3,54.6
		L189.7,54.5 L190.2,54.4 L190.6,54.4 L191.0,54.3 L191.5,54.3 L191.9,54.2 L192.3,54.2 L192.7,54.1
		L193.2,54.1 L193.6,54.0 L194.0,54.0 L194.4,53.9 L194.9,53.9 L195.3,53.8 L195.7,53.8 L196.1,53.7
		L196.6,53.7 L197.0,53.7 L197.4,53.6 L197.8,53.6 L198.3,53.6 L198.7,53.5 L199.1,53.5 L199.5,53.5
		L200.0,53.4 L200.4,53.4 L200.8,53.4 L201.3,53.3 L201.7,53.3 L202.1,53.3 L202.5,53.3 L203.0,53.2
		L203.4,53.2 L203.8,53.2 L204.2,53.2 L204.7,53.2 L205.1,53.1 L205.5,53.1 L205.9,53.1 L206.4,53.1
		L206.8,53.1 L207.2,53.1 L207.6,53.0 L208.1,53.0 L208.5,53.0 L208.9,53.0 L209.3,53.0 L209.8,53.0
		L210.2,53.0 L210.6,53.0 L211.1,53.0 L211.5,53.0 L211.9,53.0 L212.3,53.0 L212.8,53.0 L213.2,53.0
		L213.6,53.0 L214.0,53.0 L214.5,53.0 L214.9,53.0 L215.3,53.0 L215.7,53.0 L216.2,53.0 L216.6,53.0
		L217.0,53.0 L217.4,53.0 L217.9,53.0 L218.3,53.1 L218.7,53.1 L219.2,53.1 L219.6,53.1 L220.0,53.1
		L220.4,53.1 L220.9,53.1 L221.3,53.2 L221.7,53.2 L222.1,53.2 L222.6,53.2 L223.0,53.2 L223.4,53.3
		L223.8,53.3 L224.3,53.3 L224.7,53.3 L225.1,53.3 L225.5,53.4 L226.0,53.4 L226.4,53.4 L226.8,53.5
		L227.2,53.5 L227.7,53.5 L228.1,53.5 L228.5,53.6 L229.0,53.6 L229.4,53.6 L229.8,53.7 L230.2,53.7
		L230.7,53.7 L231.1,53.8 L231.5,53.8 L231.9,53.8 L232.4,53.9 L232.8,53.9 L233.2,54.0 L233.6,54.0
		L234.1,54.0 L234.5,54.1 L234.9,54.1 L235.3,54.2 L235.8,54.2 L236.2,54.2 L236.6,54.3 L237.0,54.3
		L237.5,54.4 L237.9,54.4 L238.3,54.5 L238.8,54.5 L239.2,54.6 L239.6,54.6 L240.0,54.7 L240.5,54.7
		L240.9,54.8 L241.3,54.8 L241.7,54.9 L242.2,54.9 L242.6,55.0 L243.0,55.0 L243.4,55.1 L243.9,55.1
		L244.3,55.2 L244.7,55.3 L245.1,55.3 L245.6,55.4 L246.0,55.4 L246.4,55.5 L246.9,55.6 L247.3,55.6
		L247.7,55.7 L248.1,55.7 L248.6,55.8 L249.0,55.9 L249.4,55.9 L249.8,56.0 L250.3,56.1 L250.7,56.1
		L251.1,56.2 L251.5,56.2 L252.0,56.3 L252.4,56.4 L252.8,56.5 L253.2,56.5 L253.7,56.6 L254.1,56.7
		L254.5,56.7 L254.9,56.8 L255.4,56.9 L255.8,56.9 L256.2,57.0 L256.7,57.1 L257.1,57.2 L257.5,57.2
		L257.9,57.3 L258.4,57.4 L258.8,57.5 L259.2,57.5 L259.6,57.6 L260.1,57.7 L260.5,57.8 L260.9,57.9
		L261.3,57.9 L261.8,58.0 L262.2,58.1 L262.6,58.2 L263.0,58.3 L263.5,58.3 L263.9,58.4 L264.3,58.5
		L264.8,58.6 L265.2,58.7 L265.6,58.8 L266.0,58.8 L266.5,58.9 L266.9,59.0 L267.3,59.1 L267.7,59.2
		L268.2,59.3 L268.6,59.4 L269.0,59.5 L269.4,59.5 L269.9,59.6 L270.3,59.7 L270.7,59.8 L271.1,59.9
		L271.6,60.0 L272.0,60.1 L272.4,60.2 L272.8,60.3 L273.3,60.4 L273.7,60.5 L274.1,60.5 L274.6,60.6
		L275.0,60.7 L275.4,60.8 L275.8,60.9 L276.3,61.0 L276.7,61.1 L277.1,61.2 L277.5,61.3 L278.0,61.4
		L278.4,61.5 L278.8,61.6 L279.2,61.7 L279.7,61.8 L280.1,61.9 L280.5,62.0 L280.9,62.1 L281.4,62.2
		L281.8,62.3 L282.2,62.4 L282.6,62.5 L283.1,62.6 L283.5,62.7 L283.9,62.8 L284.4,62.9 L284.8,63.1
		L285.2,63.2 L285.6,63.3 L286.1,63.4 L286.5,63.5 L286.9,63.6 L287.3,63.7 L287.8,63.8 L288.2,63.9
		L288.6,64.0 L289.0,64.1 L289.5,64.2 L289.9,64.3 L290.3,64.5 L290.7,64.6 L291.2,64.7 L291.6,64.8
		L292.0,64.9 L292.5,65.0 L292.9,65.1 L293.3,65.2 L293.7,65.4 L294.2,65.5 L294.6,65.6 L295.0,65.7
		L295.4,65.8 L295.9,65.9 L296.3,66.0 L296.7,66.2 L297.1,66.3 L297.6,66.4 L298.0,66.5 L298.4,66.6
		L298.8,66.8 L299.3,66.9 L299.7,67.0 L300.1,67.1 L300.5,67.2 L301.0,67.3 L301.4,67.5 L301.8,67.6
		L302.3,67.7 L302.7,67.8 L303.1,68.0 L303.5,68.1 L304.0,68.2 L304.4,68.3 L304.8,68.4 L305.2,68.6
		L305.7,68.7 L306.1,68.8 L306.5,68.9 L306.9,69.1 L307.4,69.2 L307.8,69.3 L308.2,69.4 L308.6,69.6
		L309.1,69.7 L309.5,69.8 L309.9,70.0 L310.4,70.1 L310.8,70.2 L311.2,70.3 L311.6,70.5 L312.1,70.6
		L312.5,70.7 L312.9,70.9 L313.3,71.0 L313.8,71.1 L314.2,71.2 L314.6,71.4 L315.0,71.5 L315.5,71.6
		L315.9,71.8 L316.3,71.9 L316.7,72.0 L317.2,72.2 L317.6,72.3 L318.0,72.4 L318.4,72.6 L318.9,72.7
		L319.3,72.8 L319.7,73.0 L320.2,73.1 L320.6,73.3 L321.0,73.4 L321.4,73.5 L321.9,73.7 L322.3,73.8
		L322.7,73.9 L323.1,74.1 L323.6,74.2 L324.0,74.3 L324.4,74.5 L324.8,74.6 L325.3,74.8 L325.7,74.9
		L326.1,75.0 L326.5,75.2 L327.0,75.3 L327.4,75.5 L327.8,75.6 L328.2,75.7 L328.7,75.9 L329.1,76.0
		L329.5,76.2 L330.0,76.3 L330.4,76.5 L330.8,76.6 L331.2,76.7 L331.7,76.9 L332.1,77.0 L332.5,77.2
		L332.9,77.3 L333.4,77.5 L333.8,77.6 L334.2,77.8 L334.6,77.9 L335.1,78.0 L335.5,78.2 L335.9,78.3
		L336.3,78.5 L336.8,78.6 L337.2,78.8 L337.6,78.9 L338.1,79.1 L338.5,79.2 L338.9,79.4 L339.3,79.5
		L339.8,79.7 L340.2,79.8 L340.6,80.0 L341.0,80.1 L341.5,80.3 L341.9,80.4 L342.3,80.6 L342.7,80.7
		L343.2,80.9 L343.6,81.0 L344.0,81.2 L344.4,81.3 L344.9,81.5 L345.3,81.6 L345.7,81.8 L346.1,81.9
		L346.6,82.1 L347.0,82.2 L347.4,82.4 L347.9,82.5 L348.3,82.7 L348.7,82.9 L349.1,83.0 L349.6,83.2
		L350.0,83.3 L350.4,83.5 L350.8,83.6 L351.3,83.8 L351.7,83.9 L352.1,84.1 L352.5,84.3 L353.0,84.4
		L353.4,84.6 L353.8,84.7 L354.2,84.9 L354.7,85.0 L355.1,85.2 L355.5,85.4 L356.0,85.5 L356.4,85.7
		L356.8,85.8 L357.2,86.0 L357.7,86.2 L358.1,86.3 L358.5,86.5 L358.9,86.6 L359.4,86.8 L359.8,87.0
		L360.2,87.1 L360.6,87.3 L361.1,87.4 L361.5,87.6 L361.9,87.8 L362.3,87.9 L362.8,88.1 L363.2,88.3
		L363.6,88.4 L364.0,88.6 L364.5,88.7 L364.9,88.9 L365.3,89.1 L365.8,89.2 L366.2,89.4 L366.6,89.6
		L367.0,89.7 L367.5,89.9 L367.9,90.1 L368.3,90.2 L368.7,90.4 L369.2,90.6 L369.6,90.7 L370.0,90.9
		L370.4,91.0 L370.9,91.2 L371.3,91.4 L371.7,91.5 L372.1,91.7 L372.6,91.9 L373.0,92.1 L373.4,92.2
		L373.8,92.4 L374.3,92.6 L374.7,92.7 L375.1,92.9 L375.6,93.1 L376.0,93.2 L376.4,93.4 L376.8,93.6
		L377.3,93.7 L377.7,93.9 L378.1,94.1 L378.5,94.3 L379.0,94.4 L379.4,94.6 L379.8,94.8 L380.2,94.9
		L380.7,95.1 L381.1,95.3 L381.5,95.4 L381.9,95.6 L382.4,95.8 L382.8,96.0 L383.2,96.1 L383.7,96.3
		L384.1,96.5 L384.5,96.7 L384.9,96.8 L385.4,97.0 L385.8,97.2 L386.2,97.4 L386.6,97.5 L387.1,97.7
		L387.5,97.9 L387.9,98.1 L388.3,98.2 L388.8,98.4 L389.2,98.6 L389.6,98.8 L390.0,98.9 L390.5,99.1
		L390.9,99.3 L391.3,99.5 L391.7,99.6 L392.2,99.8 L392.6,100.0 L393.0,100.2 L393.5,100.3 L393.9,100.5
		L394.3,100.7 L394.7,100.9 L395.2,101.1 L395.6,101.2 L396.0,101.4 L396.4,101.6 L396.9,101.8 L397.3,101.9
		L397.7,102.1 L398.1,102.3 L398.6,102.5 L399.0,102.7 L399.4,102.8 L399.8,103.0 L400.3,103.2 L400.7,103.4
		L401.1,103.6 L401.6,103.7 L402.0,103.9 L402.4,104.1 L402.8,104.3 L403.3,104.5 L403.7,104.7 L404.1,104.8
		L404.5,105.0 L405.0,105.2 L405.4,105.4 L405.8,105.6 L406.2,105.8 L406.7,105.9 L407.1,106.1 L407.5,106.3
		L407.9,106.5 L408.4,106.7 L408.8,106.9 L409.2,107.0 L409.6,107.2 L410.1,107.4 L410.5,107.6 L410.9,107.8
		L411.4,108.0 L411.8,108.1 L412.2,108.3 L412.6,108.5 L413.1,108.7 L413.5,108.9 L413.9,109.1 L414.3,109.3
		L414.8,109.4 L415.2,109.6 L415.6,109.8 L416.0,110.0 L416.5,110.2 L416.9,110.4 L417.3,110.6 L417.7,110.8
		L418.2,110.9 L418.6,111.1 L419.0,111.3 L419.4,111.5 L419.9,111.7 L420.3,111.9 L420.7,112.1 L421.2,112.3
		L421.6,112.4 L422.0,112.6 L422.4,112.8 L422.9,113.0 L423.3,113.2 L423.7,113.4 L424.1,113.6 L424.6,113.8
		L425.0,114.0 L425.4,114.2 L425.8,114.3 L426.3,114.5 L426.7,114.7 L427.1,114.9 L427.5,115.1 L428.0,115.3
		L428.4,115.5 L428.8,115.7 L429.3,115.9 L429.7,116.1 L430.1,116.3 L430.5,116.5 L431.0,116.6 L431.4,116.8
		L431.8,117.0 L432.2,117.2 L432.7,117.4 L433.1,117.6 L433.5,117.8 L433.9,118.0 L434.4,118.2 L434.8,118.4
		L435.2,118.6 L435.6,118.8 L436.1,119.0 L436.5,119.2 L436.9,119.4 L437.3,119.5 L437.8,119.7 L438.2,119.9
		L438.6,120.1 L439.1,120.3 L439.5,120.5 L439.9,120.7 L440.3,120.9 L440.8,121.1 L441.2,121.3 L441.6,121.5
		L442.0,121.7 L442.5,121.9 L442.9,122.1 L443.3,122.3 L443.7,122.5 L444.2,122.7 L444.6,122.9 L445.0,123.1
		L445.4,123.3 L445.9,123.5 L446.3,123.7 L446.7,123.9 L447.2,124.1 L447.6,124.3 L448.0,124.5 L448.4,124.7
		L448.9,124.9 L449.3,125.1 L449.7,125.3 L450.1,125.5 L450.6,125.7 L451.0,125.9 L451.4,126.1 L451.8,126.3
		L452.3,126.5 L452.7,126.7 L453.1,126.9 L453.5,127.1 L454.0,127.3 L454.4,127.5 L454.8,127.7 L455.2,127.9
		L455.7,128.1 L456.1,128.3 L456.5,128.5 L457.0,128.7 L457.4,128.9 L457.8,129.1 L458.2,129.3 L458.7,129.5
		L459.1,129.7 L459.5,129.9 L459.9,130.1 L460.4,130.3 L460.8,130.5 L461.2,130.7 L461.6,130.9 L462.1,131.1
		L462.5,131.3 L462.9,131.5 L463.3,131.7 L463.8,131.9 L464.2,132.1 L464.6,132.3 L465.0,132.5 L465.5,132.7
		L465.9,132.9 L466.3,133.1 L466.8,133.3 L467.2,133.5 L467.6,133.7 L468.0,133.9 L468.5,134.1 L468.9,134.3
		L469.3,134.5 L469.7,134.7 L470.2,135.0 L470.6,135.2 L471.0,135.4 L471.4,135.6 L471.9,135.8 L472.3,136.0
		L472.7,136.2 L473.1,136.4 L473.6,136.6 L474.0,136.8 L474.4,137.0 L474.9,137.2 L475.3,137.4 L475.7,137.6
		L476.1,137.8 L476.6,138.0 L477.0,138.3 L477.4,138.5 L477.8,138.7 L478.3,138.9 L478.7,139.1 L479.1,139.3
		L479.5,139.5 L480.0,139.7 L480.4,139.9 L480.8,140.1 L481.2,140.3 L481.7,140.5 L482.1,140.7 L482.5,141.0
		L482.9,141.2 L483.4,141.4 L483.8,141.6 L484.2,141.8 L484.7,142.0 L485.1,142.2 L485.5,142.4 L485.9,142.6
		L486.4,142.8 L486.8,143.0 L487.2,143.3 L487.6,143.5 L488.1,143.7 L488.5,143.9 L488.9,144.1 L489.3,144.3
		L489.8,144.5 L490.2,144.7 L490.6,144.9 L491.0,145.2 L491.5,145.4 L491.9,145.6 L492.3,145.8 L492.7,146.0
		L493.2,146.2 L493.6,146.4 L494.0,146.6 L494.5,146.8 L494.9,147.1 L495.3,147.3 L495.7,147.5 L496.2,147.7
		L496.6,147.9 L497.0,148.1 L497.4,148.3 L497.9,148.5 L498.3,148.8 L498.7,149.0 L499.1,149.2 L499.6,149.4
		L500.0,149.6 L500.4,149.8 L500.8,150.0 L501.3,150.2 L501.7,150.5 L502.1,150.7 L502.6,150.9 L503.0,151.1
		L503.4,151.3 L503.8,151.5 L504.3,151.7 L504.7,152.0 L505.1,152.2 L505.5,152.4 L506.0,152.6 L506.4,152.8
		L506.8,153.0 L507.2,153.2 L507.7,153.5 L508.1,153.7 L508.5,153.9 L508.9,154.1 L509.4,154.3 L509.8,154.5
		L510.2,154.8 L510.6,155.0 L511.1,155.2 L511.5,155.4 L511.9,155.6 L512.4,155.8 L512.8,156.1 L513.2,156.3
		L513.6,156.5 L514.1,156.7 L514.5,156.9 L514.9,157.1 L515.3,157.4 L515.8,157.6 L516.2,157.8 L516.6,158.0
		L517.0,158.2 L517.5,158.4 L517.9,158.7 L518.3,158.9 L518.7,159.1 L519.2,159.3 L519.6,159.5 L520.0,159.7
		L520.5,160.0 L520.9,160.2 L521.3,160.4 L521.7,160.6 L522.2,160.8 L522.6,161.1 L523.0,161.3 L523.4,161.5
		L523.9,161.7 L524.3,161.9 L524.7,162.2 L525.1,162.4 L525.6,162.6 L526.0,162.8 L526.4,163.0 L526.8,163.2
		L527.3,163.5 L527.7,163.7 L528.1,163.9 L528.5,164.1 L529.0,164.3 L529.4,164.6 L529.8,164.8 L530.3,165.0
		L530.7,165.2 L531.1,165.4 L531.5,165.7 L532.0,165.9 L532.4,166.1 L532.8,166.3 L533.2,166.6 L533.7,166.8
		L534.1,167.0 L534.5,167.2 L534.9,167.4 L535.4,167.7 L535.8,167.9 L536.2,168.1 L536.6,168.3 L537.1,168.5
		L537.5,168.8 L537.9,169.0 L538.3,169.2 L538.8,169.4 L539.2,169.7 L539.6,169.9 L540.1,170.1 L540.5,170.3
		L540.9,170.5 L541.3,170.8 L541.8,171.0 L542.2,171.2 L542.6,171.4 L543.0,171.7 L543.5,171.9 L543.9,172.1
		L544.3,172.3 L544.7,172.6 L545.2,172.8 L545.6,173.0 L546.0,173.2 L546.4,173.5 L546.9,173.7 L547.3,173.9
		L547.7,174.1 L548.2,174.3 L548.6,174.6 L549.0,174.8 L549.4,175.0 L549.9,175.2 L550.3,175.5 L550.7,175.7
		L551.1,175.9 L551.6,176.1 L552.0,176.4 L552.4,176.6 L552.8,176.8 L553.3,177.0 L553.7,177.3 L554.1,177.5
		L554.5,177.7 L555.0,177.9 L555.4,178.2 L555.8,178.4 L556.2,178.6 L556.7,178.9 L557.1,179.1 L557.5,179.3
		L558.0,179.5 L558.4,179.8 L558.8,180.0 L559.2,180.2 L559.7,180.4 L560.1,180.7 L560.5,180.9 L560.9,181.1
		L561.4,181.3 L561.8,181.6 L562.2,181.8 L562.6,182.0 L563.1,182.3 L563.5,182.5 L563.9,182.7 L564.3,182.9
		L564.8,183.2 L565.2,183.4 L565.6,183.6 L566.1,183.8 L566.5,184.1 L566.9,184.3 L567.3,184.5 L567.8,184.8
		L568.2,185.0 L568.6,185.2 L569.0,185.4 L569.5,185.7 L569.9,185.9 L570.3,186.1 L570.7,186.4 L571.2,186.6
		L571.6,186.8 L572.0,187.0 L572.4,187.3 L572.9,187.5 L573.3,187.7 L573.7,188.0 L574.1,188.2 L574.6,188.4
		L575.0,188.6  '/></g>
	</g>
	<g id="gnuplot_plot_2" ><title>Fc+dc(x)</title>
<g fill="none" color="black" stroke="currentColor" stroke-width="1.00" stroke-linecap="butt" stroke-linejoin="miter">
	<g transform="translate(507.9,318.9)" stroke="none" fill="black" font-family="Arial" font-size="12.00"  text-anchor="end">
		<text><tspan font-family="Arial" >F</tspan><tspan font-family="Arial"  font-size="9.6" dy="3.60px">c+dc</tspan><tspan font-family="Arial"  font-size="12.0" dy="-3.60px">(x)</tspan></text>
	</g>
</g>
<g fill="none" color="black" stroke="currentColor" stroke-width="1.00" stroke-linecap="butt" stroke-linejoin="miter">
	<path stroke='rgb(255,   0,   0)'  d='M516.2,314.4 L558.4,314.4 M67.9,346.2 L68.3,335.4 L68.7,325.5 L69.1,316.5 L69.6,308.1 L70.0,300.4
		L70.4,293.1 L70.8,286.4 L71.3,280.0 L71.7,274.0 L72.1,268.3 L72.5,262.9 L73.0,257.8 L73.4,252.9
		L73.8,248.3 L74.3,243.8 L74.7,239.5 L75.1,235.4 L75.5,231.5 L76.0,227.7 L76.4,224.1 L76.8,220.6
		L77.2,217.2 L77.7,213.9 L78.1,210.7 L78.5,207.6 L78.9,204.7 L79.4,201.8 L79.8,199.0 L80.2,196.2
		L80.6,193.6 L81.1,191.0 L81.5,188.5 L81.9,186.1 L82.4,183.7 L82.8,181.4 L83.2,179.2 L83.6,177.0
		L84.1,174.8 L84.5,172.7 L84.9,170.7 L85.3,168.7 L85.8,166.7 L86.2,164.8 L86.6,162.9 L87.0,161.1
		L87.5,159.3 L87.9,157.6 L88.3,155.9 L88.7,154.2 L89.2,152.5 L89.6,150.9 L90.0,149.3 L90.4,147.8
		L90.9,146.3 L91.3,144.8 L91.7,143.3 L92.2,141.9 L92.6,140.4 L93.0,139.0 L93.4,137.7 L93.9,136.3
		L94.3,135.0 L94.7,133.7 L95.1,132.5 L95.6,131.2 L96.0,130.0 L96.4,128.8 L96.8,127.6 L97.3,126.4
		L97.7,125.2 L98.1,124.1 L98.5,123.0 L99.0,121.9 L99.4,120.8 L99.8,119.7 L100.3,118.7 L100.7,117.7
		L101.1,116.6 L101.5,115.6 L102.0,114.6 L102.4,113.7 L102.8,112.7 L103.2,111.8 L103.7,110.8 L104.1,109.9
		L104.5,109.0 L104.9,108.1 L105.4,107.2 L105.8,106.4 L106.2,105.5 L106.6,104.6 L107.1,103.8 L107.5,103.0
		L107.9,102.2 L108.3,101.4 L108.8,100.6 L109.2,99.8 L109.6,99.0 L110.1,98.3 L110.5,97.5 L110.9,96.8
		L111.3,96.1 L111.8,95.3 L112.2,94.6 L112.6,93.9 L113.0,93.2 L113.5,92.5 L113.9,91.9 L114.3,91.2
		L114.7,90.5 L115.2,89.9 L115.6,89.2 L116.0,88.6 L116.4,88.0 L116.9,87.3 L117.3,86.7 L117.7,86.1
		L118.1,85.5 L118.6,84.9 L119.0,84.3 L119.4,83.8 L119.9,83.2 L120.3,82.6 L120.7,82.1 L121.1,81.5
		L121.6,81.0 L122.0,80.4 L122.4,79.9 L122.8,79.4 L123.3,78.8 L123.7,78.3 L124.1,77.8 L124.5,77.3
		L125.0,76.8 L125.4,76.3 L125.8,75.8 L126.2,75.4 L126.7,74.9 L127.1,74.4 L127.5,74.0 L128.0,73.5
		L128.4,73.0 L128.8,72.6 L129.2,72.1 L129.7,71.7 L130.1,71.3 L130.5,70.8 L130.9,70.4 L131.4,70.0
		L131.8,69.6 L132.2,69.2 L132.6,68.8 L133.1,68.4 L133.5,68.0 L133.9,67.6 L134.3,67.2 L134.8,66.8
		L135.2,66.4 L135.6,66.0 L136.0,65.7 L136.5,65.3 L136.9,64.9 L137.3,64.6 L137.8,64.2 L138.2,63.9
		L138.6,63.5 L139.0,63.2 L139.5,62.8 L139.9,62.5 L140.3,62.2 L140.7,61.8 L141.2,61.5 L141.6,61.2
		L142.0,60.9 L142.4,60.5 L142.9,60.2 L143.3,59.9 L143.7,59.6 L144.1,59.3 L144.6,59.0 L145.0,58.7
		L145.4,58.4 L145.9,58.1 L146.3,57.9 L146.7,57.6 L147.1,57.3 L147.6,57.0 L148.0,56.7 L148.4,56.5
		L148.8,56.2 L149.3,55.9 L149.7,55.7 L150.1,55.4 L150.5,55.1 L151.0,54.9 L151.4,54.6 L151.8,54.4
		L152.2,54.1 L152.7,53.9 L153.1,53.7 L153.5,53.4 L153.9,53.2 L154.4,53.0 L154.8,52.7 L155.2,52.5
		L155.7,52.3 L156.1,52.1 L156.5,51.8 L156.9,51.6 L157.4,51.4 L157.8,51.2 L158.2,51.0 L158.6,50.8
		L159.1,50.6 L159.5,50.4 L159.9,50.2 L160.3,50.0 L160.8,49.8 L161.2,49.6 L161.6,49.4 L162.0,49.2
		L162.5,49.0 L162.9,48.8 L163.3,48.6 L163.7,48.5 L164.2,48.3 L164.6,48.1 L165.0,47.9 L165.5,47.7
		L165.9,47.6 L166.3,47.4 L166.7,47.2 L167.2,47.1 L167.6,46.9 L168.0,46.8 L168.4,46.6 L168.9,46.4
		L169.3,46.3 L169.7,46.1 L170.1,46.0 L170.6,45.8 L171.0,45.7 L171.4,45.5 L171.8,45.4 L172.3,45.3
		L172.7,45.1 L173.1,45.0 L173.6,44.8 L174.0,44.7 L174.4,44.6 L174.8,44.4 L175.3,44.3 L175.7,44.2
		L176.1,44.1 L176.5,43.9 L177.0,43.8 L177.4,43.7 L177.8,43.6 L178.2,43.4 L178.7,43.3 L179.1,43.2
		L179.5,43.1 L179.9,43.0 L180.4,42.9 L180.8,42.8 L181.2,42.7 L181.6,42.6 L182.1,42.5 L182.5,42.4
		L182.9,42.3 L183.4,42.2 L183.8,42.1 L184.2,42.0 L184.6,41.9 L185.1,41.8 L185.5,41.7 L185.9,41.6
		L186.3,41.5 L186.8,41.4 L187.2,41.3 L187.6,41.2 L188.0,41.2 L188.5,41.1 L188.9,41.0 L189.3,40.9
		L189.7,40.8 L190.2,40.8 L190.6,40.7 L191.0,40.6 L191.5,40.5 L191.9,40.5 L192.3,40.4 L192.7,40.3
		L193.2,40.3 L193.6,40.2 L194.0,40.1 L194.4,40.1 L194.9,40.0 L195.3,39.9 L195.7,39.9 L196.1,39.8
		L196.6,39.8 L197.0,39.7 L197.4,39.7 L197.8,39.6 L198.3,39.5 L198.7,39.5 L199.1,39.4 L199.5,39.4
		L200.0,39.3 L200.4,39.3 L200.8,39.3 L201.3,39.2 L201.7,39.2 L202.1,39.1 L202.5,39.1 L203.0,39.0
		L203.4,39.0 L203.8,39.0 L204.2,38.9 L204.7,38.9 L205.1,38.9 L205.5,38.8 L205.9,38.8 L206.4,38.8
		L206.8,38.7 L207.2,38.7 L207.6,38.7 L208.1,38.6 L208.5,38.6 L208.9,38.6 L209.3,38.6 L209.8,38.5
		L210.2,38.5 L210.6,38.5 L211.1,38.5 L211.5,38.4 L211.9,38.4 L212.3,38.4 L212.8,38.4 L213.2,38.4
		L213.6,38.4 L214.0,38.3 L214.5,38.3 L214.9,38.3 L215.3,38.3 L215.7,38.3 L216.2,38.3 L216.6,38.3
		L217.0,38.3 L217.4,38.3 L217.9,38.3 L218.3,38.3 L218.7,38.3 L219.2,38.3 L219.6,38.2 L220.0,38.2
		L220.4,38.2 L220.9,38.2 L221.3,38.2 L221.7,38.2 L222.1,38.3 L222.6,38.3 L223.0,38.3 L223.4,38.3
		L223.8,38.3 L224.3,38.3 L224.7,38.3 L225.1,38.3 L225.5,38.3 L226.0,38.3 L226.4,38.3 L226.8,38.3
		L227.2,38.4 L227.7,38.4 L228.1,38.4 L228.5,38.4 L229.0,38.4 L229.4,38.4 L229.8,38.4 L230.2,38.5
		L230.7,38.5 L231.1,38.5 L231.5,38.5 L231.9,38.5 L232.4,38.6 L232.8,38.6 L233.2,38.6 L233.6,38.6
		L234.1,38.7 L234.5,38.7 L234.9,38.7 L235.3,38.7 L235.8,38.8 L236.2,38.8 L236.6,38.8 L237.0,38.9
		L237.5,38.9 L237.9,38.9 L238.3,38.9 L238.8,39.0 L239.2,39.0 L239.6,39.0 L240.0,39.1 L240.5,39.1
		L240.9,39.2 L241.3,39.2 L241.7,39.2 L242.2,39.3 L242.6,39.3 L243.0,39.3 L243.4,39.4 L243.9,39.4
		L244.3,39.5 L244.7,39.5 L245.1,39.6 L245.6,39.6 L246.0,39.6 L246.4,39.7 L246.9,39.7 L247.3,39.8
		L247.7,39.8 L248.1,39.9 L248.6,39.9 L249.0,40.0 L249.4,40.0 L249.8,40.1 L250.3,40.1 L250.7,40.2
		L251.1,40.2 L251.5,40.3 L252.0,40.3 L252.4,40.4 L252.8,40.4 L253.2,40.5 L253.7,40.5 L254.1,40.6
		L254.5,40.7 L254.9,40.7 L255.4,40.8 L255.8,40.8 L256.2,40.9 L256.7,40.9 L257.1,41.0 L257.5,41.1
		L257.9,41.1 L258.4,41.2 L258.8,41.2 L259.2,41.3 L259.6,41.4 L260.1,41.4 L260.5,41.5 L260.9,41.6
		L261.3,41.6 L261.8,41.7 L262.2,41.8 L262.6,41.8 L263.0,41.9 L263.5,42.0 L263.9,42.0 L264.3,42.1
		L264.8,42.2 L265.2,42.2 L265.6,42.3 L266.0,42.4 L266.5,42.5 L266.9,42.5 L267.3,42.6 L267.7,42.7
		L268.2,42.7 L268.6,42.8 L269.0,42.9 L269.4,43.0 L269.9,43.0 L270.3,43.1 L270.7,43.2 L271.1,43.3
		L271.6,43.4 L272.0,43.4 L272.4,43.5 L272.8,43.6 L273.3,43.7 L273.7,43.8 L274.1,43.8 L274.6,43.9
		L275.0,44.0 L275.4,44.1 L275.8,44.2 L276.3,44.2 L276.7,44.3 L277.1,44.4 L277.5,44.5 L278.0,44.6
		L278.4,44.7 L278.8,44.8 L279.2,44.8 L279.7,44.9 L280.1,45.0 L280.5,45.1 L280.9,45.2 L281.4,45.3
		L281.8,45.4 L282.2,45.5 L282.6,45.5 L283.1,45.6 L283.5,45.7 L283.9,45.8 L284.4,45.9 L284.8,46.0
		L285.2,46.1 L285.6,46.2 L286.1,46.3 L286.5,46.4 L286.9,46.5 L287.3,46.6 L287.8,46.7 L288.2,46.8
		L288.6,46.8 L289.0,46.9 L289.5,47.0 L289.9,47.1 L290.3,47.2 L290.7,47.3 L291.2,47.4 L291.6,47.5
		L292.0,47.6 L292.5,47.7 L292.9,47.8 L293.3,47.9 L293.7,48.0 L294.2,48.1 L294.6,48.2 L295.0,48.3
		L295.4,48.4 L295.9,48.5 L296.3,48.6 L296.7,48.8 L297.1,48.9 L297.6,49.0 L298.0,49.1 L298.4,49.2
		L298.8,49.3 L299.3,49.4 L299.7,49.5 L300.1,49.6 L300.5,49.7 L301.0,49.8 L301.4,49.9 L301.8,50.0
		L302.3,50.1 L302.7,50.2 L303.1,50.4 L303.5,50.5 L304.0,50.6 L304.4,50.7 L304.8,50.8 L305.2,50.9
		L305.7,51.0 L306.1,51.1 L306.5,51.2 L306.9,51.4 L307.4,51.5 L307.8,51.6 L308.2,51.7 L308.6,51.8
		L309.1,51.9 L309.5,52.0 L309.9,52.2 L310.4,52.3 L310.8,52.4 L311.2,52.5 L311.6,52.6 L312.1,52.7
		L312.5,52.8 L312.9,53.0 L313.3,53.1 L313.8,53.2 L314.2,53.3 L314.6,53.4 L315.0,53.6 L315.5,53.7
		L315.9,53.8 L316.3,53.9 L316.7,54.0 L317.2,54.2 L317.6,54.3 L318.0,54.4 L318.4,54.5 L318.9,54.6
		L319.3,54.8 L319.7,54.9 L320.2,55.0 L320.6,55.1 L321.0,55.3 L321.4,55.4 L321.9,55.5 L322.3,55.6
		L322.7,55.8 L323.1,55.9 L323.6,56.0 L324.0,56.1 L324.4,56.3 L324.8,56.4 L325.3,56.5 L325.7,56.6
		L326.1,56.8 L326.5,56.9 L327.0,57.0 L327.4,57.2 L327.8,57.3 L328.2,57.4 L328.7,57.5 L329.1,57.7
		L329.5,57.8 L330.0,57.9 L330.4,58.1 L330.8,58.2 L331.2,58.3 L331.7,58.5 L332.1,58.6 L332.5,58.7
		L332.9,58.9 L333.4,59.0 L333.8,59.1 L334.2,59.3 L334.6,59.4 L335.1,59.5 L335.5,59.7 L335.9,59.8
		L336.3,59.9 L336.8,60.1 L337.2,60.2 L337.6,60.3 L338.1,60.5 L338.5,60.6 L338.9,60.7 L339.3,60.9
		L339.8,61.0 L340.2,61.2 L340.6,61.3 L341.0,61.4 L341.5,61.6 L341.9,61.7 L342.3,61.8 L342.7,62.0
		L343.2,62.1 L343.6,62.3 L344.0,62.4 L344.4,62.5 L344.9,62.7 L345.3,62.8 L345.7,63.0 L346.1,63.1
		L346.6,63.2 L347.0,63.4 L347.4,63.5 L347.9,63.7 L348.3,63.8 L348.7,64.0 L349.1,64.1 L349.6,64.2
		L350.0,64.4 L350.4,64.5 L350.8,64.7 L351.3,64.8 L351.7,65.0 L352.1,65.1 L352.5,65.3 L353.0,65.4
		L353.4,65.5 L353.8,65.7 L354.2,65.8 L354.7,66.0 L355.1,66.1 L355.5,66.3 L356.0,66.4 L356.4,66.6
		L356.8,66.7 L357.2,66.9 L357.7,67.0 L358.1,67.2 L358.5,67.3 L358.9,67.5 L359.4,67.6 L359.8,67.8
		L360.2,67.9 L360.6,68.1 L361.1,68.2 L361.5,68.4 L361.9,68.5 L362.3,68.7 L362.8,68.8 L363.2,69.0
		L363.6,69.1 L364.0,69.3 L364.5,69.4 L364.9,69.6 L365.3,69.7 L365.8,69.9 L366.2,70.0 L366.6,70.2
		L367.0,70.3 L367.5,70.5 L367.9,70.6 L368.3,70.8 L368.7,70.9 L369.2,71.1 L369.6,71.3 L370.0,71.4
		L370.4,71.6 L370.9,71.7 L371.3,71.9 L371.7,72.0 L372.1,72.2 L372.6,72.3 L373.0,72.5 L373.4,72.7
		L373.8,72.8 L374.3,73.0 L374.7,73.1 L375.1,73.3 L375.6,73.4 L376.0,73.6 L376.4,73.8 L376.8,73.9
		L377.3,74.1 L377.7,74.2 L378.1,74.4 L378.5,74.6 L379.0,74.7 L379.4,74.9 L379.8,75.0 L380.2,75.2
		L380.7,75.4 L381.1,75.5 L381.5,75.7 L381.9,75.8 L382.4,76.0 L382.8,76.2 L383.2,76.3 L383.7,76.5
		L384.1,76.6 L384.5,76.8 L384.9,77.0 L385.4,77.1 L385.8,77.3 L386.2,77.5 L386.6,77.6 L387.1,77.8
		L387.5,78.0 L387.9,78.1 L388.3,78.3 L388.8,78.4 L389.2,78.6 L389.6,78.8 L390.0,78.9 L390.5,79.1
		L390.9,79.3 L391.3,79.4 L391.7,79.6 L392.2,79.8 L392.6,79.9 L393.0,80.1 L393.5,80.3 L393.9,80.4
		L394.3,80.6 L394.7,80.8 L395.2,80.9 L395.6,81.1 L396.0,81.3 L396.4,81.4 L396.9,81.6 L397.3,81.8
		L397.7,81.9 L398.1,82.1 L398.6,82.3 L399.0,82.4 L399.4,82.6 L399.8,82.8 L400.3,83.0 L400.7,83.1
		L401.1,83.3 L401.6,83.5 L402.0,83.6 L402.4,83.8 L402.8,84.0 L403.3,84.1 L403.7,84.3 L404.1,84.5
		L404.5,84.7 L405.0,84.8 L405.4,85.0 L405.8,85.2 L406.2,85.3 L406.7,85.5 L407.1,85.7 L407.5,85.9
		L407.9,86.0 L408.4,86.2 L408.8,86.4 L409.2,86.6 L409.6,86.7 L410.1,86.9 L410.5,87.1 L410.9,87.3
		L411.4,87.4 L411.8,87.6 L412.2,87.8 L412.6,87.9 L413.1,88.1 L413.5,88.3 L413.9,88.5 L414.3,88.6
		L414.8,88.8 L415.2,89.0 L415.6,89.2 L416.0,89.4 L416.5,89.5 L416.9,89.7 L417.3,89.9 L417.7,90.1
		L418.2,90.2 L418.6,90.4 L419.0,90.6 L419.4,90.8 L419.9,90.9 L420.3,91.1 L420.7,91.3 L421.2,91.5
		L421.6,91.7 L422.0,91.8 L422.4,92.0 L422.9,92.2 L423.3,92.4 L423.7,92.6 L424.1,92.7 L424.6,92.9
		L425.0,93.1 L425.4,93.3 L425.8,93.5 L426.3,93.6 L426.7,93.8 L427.1,94.0 L427.5,94.2 L428.0,94.4
		L428.4,94.5 L428.8,94.7 L429.3,94.9 L429.7,95.1 L430.1,95.3 L430.5,95.4 L431.0,95.6 L431.4,95.8
		L431.8,96.0 L432.2,96.2 L432.7,96.4 L433.1,96.5 L433.5,96.7 L433.9,96.9 L434.4,97.1 L434.8,97.3
		L435.2,97.5 L435.6,97.6 L436.1,97.8 L436.5,98.0 L436.9,98.2 L437.3,98.4 L437.8,98.6 L438.2,98.7
		L438.6,98.9 L439.1,99.1 L439.5,99.3 L439.9,99.5 L440.3,99.7 L440.8,99.8 L441.2,100.0 L441.6,100.2
		L442.0,100.4 L442.5,100.6 L442.9,100.8 L443.3,101.0 L443.7,101.2 L444.2,101.3 L444.6,101.5 L445.0,101.7
		L445.4,101.9 L445.9,102.1 L446.3,102.3 L446.7,102.5 L447.2,102.6 L447.6,102.8 L448.0,103.0 L448.4,103.2
		L448.9,103.4 L449.3,103.6 L449.7,103.8 L450.1,104.0 L450.6,104.2 L451.0,104.3 L451.4,104.5 L451.8,104.7
		L452.3,104.9 L452.7,105.1 L453.1,105.3 L453.5,105.5 L454.0,105.7 L454.4,105.9 L454.8,106.1 L455.2,106.2
		L455.7,106.4 L456.1,106.6 L456.5,106.8 L457.0,107.0 L457.4,107.2 L457.8,107.4 L458.2,107.6 L458.7,107.8
		L459.1,108.0 L459.5,108.2 L459.9,108.3 L460.4,108.5 L460.8,108.7 L461.2,108.9 L461.6,109.1 L462.1,109.3
		L462.5,109.5 L462.9,109.7 L463.3,109.9 L463.8,110.1 L464.2,110.3 L464.6,110.5 L465.0,110.7 L465.5,110.8
		L465.9,111.0 L466.3,111.2 L466.8,111.4 L467.2,111.6 L467.6,111.8 L468.0,112.0 L468.5,112.2 L468.9,112.4
		L469.3,112.6 L469.7,112.8 L470.2,113.0 L470.6,113.2 L471.0,113.4 L471.4,113.6 L471.9,113.8 L472.3,114.0
		L472.7,114.2 L473.1,114.4 L473.6,114.6 L474.0,114.7 L474.4,114.9 L474.9,115.1 L475.3,115.3 L475.7,115.5
		L476.1,115.7 L476.6,115.9 L477.0,116.1 L477.4,116.3 L477.8,116.5 L478.3,116.7 L478.7,116.9 L479.1,117.1
		L479.5,117.3 L480.0,117.5 L480.4,117.7 L480.8,117.9 L481.2,118.1 L481.7,118.3 L482.1,118.5 L482.5,118.7
		L482.9,118.9 L483.4,119.1 L483.8,119.3 L484.2,119.5 L484.7,119.7 L485.1,119.9 L485.5,120.1 L485.9,120.3
		L486.4,120.5 L486.8,120.7 L487.2,120.9 L487.6,121.1 L488.1,121.3 L488.5,121.5 L488.9,121.7 L489.3,121.9
		L489.8,122.1 L490.2,122.3 L490.6,122.5 L491.0,122.7 L491.5,122.9 L491.9,123.1 L492.3,123.3 L492.7,123.5
		L493.2,123.7 L493.6,123.9 L494.0,124.1 L494.5,124.3 L494.9,124.5 L495.3,124.7 L495.7,124.9 L496.2,125.1
		L496.6,125.3 L497.0,125.5 L497.4,125.7 L497.9,125.9 L498.3,126.1 L498.7,126.3 L499.1,126.5 L499.6,126.7
		L500.0,126.9 L500.4,127.1 L500.8,127.4 L501.3,127.6 L501.7,127.8 L502.1,128.0 L502.6,128.2 L503.0,128.4
		L503.4,128.6 L503.8,128.8 L504.3,129.0 L504.7,129.2 L505.1,129.4 L505.5,129.6 L506.0,129.8 L506.4,130.0
		L506.8,130.2 L507.2,130.4 L507.7,130.6 L508.1,130.8 L508.5,131.0 L508.9,131.2 L509.4,131.4 L509.8,131.7
		L510.2,131.9 L510.6,132.1 L511.1,132.3 L511.5,132.5 L511.9,132.7 L512.4,132.9 L512.8,133.1 L513.2,133.3
		L513.6,133.5 L514.1,133.7 L514.5,133.9 L514.9,134.1 L515.3,134.3 L515.8,134.5 L516.2,134.8 L516.6,135.0
		L517.0,135.2 L517.5,135.4 L517.9,135.6 L518.3,135.8 L518.7,136.0 L519.2,136.2 L519.6,136.4 L520.0,136.6
		L520.5,136.8 L520.9,137.0 L521.3,137.3 L521.7,137.5 L522.2,137.7 L522.6,137.9 L523.0,138.1 L523.4,138.3
		L523.9,138.5 L524.3,138.7 L524.7,138.9 L525.1,139.1 L525.6,139.3 L526.0,139.6 L526.4,139.8 L526.8,140.0
		L527.3,140.2 L527.7,140.4 L528.1,140.6 L528.5,140.8 L529.0,141.0 L529.4,141.2 L529.8,141.4 L530.3,141.7
		L530.7,141.9 L531.1,142.1 L531.5,142.3 L532.0,142.5 L532.4,142.7 L532.8,142.9 L533.2,143.1 L533.7,143.3
		L534.1,143.6 L534.5,143.8 L534.9,144.0 L535.4,144.2 L535.8,144.4 L536.2,144.6 L536.6,144.8 L537.1,145.0
		L537.5,145.3 L537.9,145.5 L538.3,145.7 L538.8,145.9 L539.2,146.1 L539.6,146.3 L540.1,146.5 L540.5,146.7
		L540.9,147.0 L541.3,147.2 L541.8,147.4 L542.2,147.6 L542.6,147.8 L543.0,148.0 L543.5,148.2 L543.9,148.5
		L544.3,148.7 L544.7,148.9 L545.2,149.1 L545.6,149.3 L546.0,149.5 L546.4,149.7 L546.9,150.0 L547.3,150.2
		L547.7,150.4 L548.2,150.6 L548.6,150.8 L549.0,151.0 L549.4,151.2 L549.9,151.5 L550.3,151.7 L550.7,151.9
		L551.1,152.1 L551.6,152.3 L552.0,152.5 L552.4,152.7 L552.8,153.0 L553.3,153.2 L553.7,153.4 L554.1,153.6
		L554.5,153.8 L555.0,154.0 L555.4,154.3 L555.8,154.5 L556.2,154.7 L556.7,154.9 L557.1,155.1 L557.5,155.3
		L558.0,155.6 L558.4,155.8 L558.8,156.0 L559.2,156.2 L559.7,156.4 L560.1,156.6 L560.5,156.9 L560.9,157.1
		L561.4,157.3 L561.8,157.5 L562.2,157.7 L562.6,158.0 L563.1,158.2 L563.5,158.4 L563.9,158.6 L564.3,158.8
		L564.8,159.0 L565.2,159.3 L565.6,159.5 L566.1,159.7 L566.5,159.9 L566.9,160.1 L567.3,160.4 L567.8,160.6
		L568.2,160.8 L568.6,161.0 L569.0,161.2 L569.5,161.4 L569.9,161.7 L570.3,161.9 L570.7,162.1 L571.2,162.3
		L571.6,162.5 L572.0,162.8 L572.4,163.0 L572.9,163.2 L573.3,163.4 L573.7,163.6 L574.1,163.9 L574.6,164.1
		L575.0,164.3  '/></g>
	</g>
	<g id="gnuplot_plot_3" ><title>Fc-dc(x)</title>
<g fill="none" color="black" stroke="currentColor" stroke-width="1.00" stroke-linecap="butt" stroke-linejoin="miter">
	<g transform="translate(507.9,336.9)" stroke="none" fill="black" font-family="Arial" font-size="12.00"  text-anchor="end">
		<text><tspan font-family="Arial" >F</tspan><tspan font-family="Arial"  font-size="9.6" dy="3.60px">c-dc</tspan><tspan font-family="Arial"  font-size="12.0" dy="-3.60px">(x)</tspan></text>
	</g>
</g>
<g fill="none" color="black" stroke="currentColor" stroke-width="1.00" stroke-linecap="butt" stroke-linejoin="miter">
	<path stroke='rgb(  0,   0, 255)'  d='M516.2,332.4 L558.4,332.4 M67.9,346.1 L68.3,336.0 L68.7,326.8 L69.1,318.3 L69.6,310.5 L70.0,303.2
		L70.4,296.4 L70.8,290.1 L71.3,284.2 L71.7,278.5 L72.1,273.2 L72.5,268.2 L73.0,263.4 L73.4,258.9
		L73.8,254.5 L74.3,250.3 L74.7,246.4 L75.1,242.5 L75.5,238.9 L76.0,235.3 L76.4,231.9 L76.8,228.7
		L77.2,225.5 L77.7,222.5 L78.1,219.5 L78.5,216.7 L78.9,213.9 L79.4,211.2 L79.8,208.6 L80.2,206.1
		L80.6,203.6 L81.1,201.2 L81.5,198.9 L81.9,196.7 L82.4,194.5 L82.8,192.3 L83.2,190.2 L83.6,188.2
		L84.1,186.2 L84.5,184.3 L84.9,182.4 L85.3,180.5 L85.8,178.7 L86.2,177.0 L86.6,175.2 L87.0,173.6
		L87.5,171.9 L87.9,170.3 L88.3,168.7 L88.7,167.2 L89.2,165.6 L89.6,164.2 L90.0,162.7 L90.4,161.3
		L90.9,159.9 L91.3,158.5 L91.7,157.2 L92.2,155.8 L92.6,154.5 L93.0,153.3 L93.4,152.0 L93.9,150.8
		L94.3,149.6 L94.7,148.4 L95.1,147.2 L95.6,146.1 L96.0,144.9 L96.4,143.8 L96.8,142.7 L97.3,141.7
		L97.7,140.6 L98.1,139.6 L98.5,138.6 L99.0,137.6 L99.4,136.6 L99.8,135.6 L100.3,134.7 L100.7,133.7
		L101.1,132.8 L101.5,131.9 L102.0,131.0 L102.4,130.1 L102.8,129.2 L103.2,128.4 L103.7,127.5 L104.1,126.7
		L104.5,125.9 L104.9,125.1 L105.4,124.3 L105.8,123.5 L106.2,122.7 L106.6,121.9 L107.1,121.2 L107.5,120.4
		L107.9,119.7 L108.3,119.0 L108.8,118.3 L109.2,117.6 L109.6,116.9 L110.1,116.2 L110.5,115.5 L110.9,114.9
		L111.3,114.2 L111.8,113.6 L112.2,112.9 L112.6,112.3 L113.0,111.7 L113.5,111.1 L113.9,110.4 L114.3,109.8
		L114.7,109.3 L115.2,108.7 L115.6,108.1 L116.0,107.5 L116.4,107.0 L116.9,106.4 L117.3,105.9 L117.7,105.3
		L118.1,104.8 L118.6,104.3 L119.0,103.8 L119.4,103.3 L119.9,102.7 L120.3,102.2 L120.7,101.8 L121.1,101.3
		L121.6,100.8 L122.0,100.3 L122.4,99.8 L122.8,99.4 L123.3,98.9 L123.7,98.5 L124.1,98.0 L124.5,97.6
		L125.0,97.1 L125.4,96.7 L125.8,96.3 L126.2,95.9 L126.7,95.5 L127.1,95.0 L127.5,94.6 L128.0,94.2
		L128.4,93.8 L128.8,93.5 L129.2,93.1 L129.7,92.7 L130.1,92.3 L130.5,91.9 L130.9,91.6 L131.4,91.2
		L131.8,90.8 L132.2,90.5 L132.6,90.1 L133.1,89.8 L133.5,89.5 L133.9,89.1 L134.3,88.8 L134.8,88.5
		L135.2,88.1 L135.6,87.8 L136.0,87.5 L136.5,87.2 L136.9,86.9 L137.3,86.6 L137.8,86.2 L138.2,86.0
		L138.6,85.7 L139.0,85.4 L139.5,85.1 L139.9,84.8 L140.3,84.5 L140.7,84.2 L141.2,84.0 L141.6,83.7
		L142.0,83.4 L142.4,83.1 L142.9,82.9 L143.3,82.6 L143.7,82.4 L144.1,82.1 L144.6,81.9 L145.0,81.6
		L145.4,81.4 L145.9,81.1 L146.3,80.9 L146.7,80.7 L147.1,80.4 L147.6,80.2 L148.0,80.0 L148.4,79.7
		L148.8,79.5 L149.3,79.3 L149.7,79.1 L150.1,78.9 L150.5,78.7 L151.0,78.5 L151.4,78.3 L151.8,78.1
		L152.2,77.9 L152.7,77.7 L153.1,77.5 L153.5,77.3 L153.9,77.1 L154.4,76.9 L154.8,76.7 L155.2,76.5
		L155.7,76.4 L156.1,76.2 L156.5,76.0 L156.9,75.8 L157.4,75.7 L157.8,75.5 L158.2,75.3 L158.6,75.2
		L159.1,75.0 L159.5,74.8 L159.9,74.7 L160.3,74.5 L160.8,74.4 L161.2,74.2 L161.6,74.1 L162.0,73.9
		L162.5,73.8 L162.9,73.6 L163.3,73.5 L163.7,73.4 L164.2,73.2 L164.6,73.1 L165.0,73.0 L165.5,72.8
		L165.9,72.7 L166.3,72.6 L166.7,72.4 L167.2,72.3 L167.6,72.2 L168.0,72.1 L168.4,72.0 L168.9,71.9
		L169.3,71.7 L169.7,71.6 L170.1,71.5 L170.6,71.4 L171.0,71.3 L171.4,71.2 L171.8,71.1 L172.3,71.0
		L172.7,70.9 L173.1,70.8 L173.6,70.7 L174.0,70.6 L174.4,70.5 L174.8,70.4 L175.3,70.3 L175.7,70.2
		L176.1,70.2 L176.5,70.1 L177.0,70.0 L177.4,69.9 L177.8,69.8 L178.2,69.7 L178.7,69.7 L179.1,69.6
		L179.5,69.5 L179.9,69.4 L180.4,69.4 L180.8,69.3 L181.2,69.2 L181.6,69.2 L182.1,69.1 L182.5,69.0
		L182.9,69.0 L183.4,68.9 L183.8,68.8 L184.2,68.8 L184.6,68.7 L185.1,68.7 L185.5,68.6 L185.9,68.6
		L186.3,68.5 L186.8,68.5 L187.2,68.4 L187.6,68.4 L188.0,68.3 L188.5,68.3 L188.9,68.2 L189.3,68.2
		L189.7,68.1 L190.2,68.1 L190.6,68.1 L191.0,68.0 L191.5,68.0 L191.9,68.0 L192.3,67.9 L192.7,67.9
		L193.2,67.9 L193.6,67.8 L194.0,67.8 L194.4,67.8 L194.9,67.7 L195.3,67.7 L195.7,67.7 L196.1,67.7
		L196.6,67.6 L197.0,67.6 L197.4,67.6 L197.8,67.6 L198.3,67.6 L198.7,67.6 L199.1,67.5 L199.5,67.5
		L200.0,67.5 L200.4,67.5 L200.8,67.5 L201.3,67.5 L201.7,67.5 L202.1,67.5 L202.5,67.4 L203.0,67.4
		L203.4,67.4 L203.8,67.4 L204.2,67.4 L204.7,67.4 L205.1,67.4 L205.5,67.4 L205.9,67.4 L206.4,67.4
		L206.8,67.4 L207.2,67.4 L207.6,67.4 L208.1,67.4 L208.5,67.5 L208.9,67.5 L209.3,67.5 L209.8,67.5
		L210.2,67.5 L210.6,67.5 L211.1,67.5 L211.5,67.5 L211.9,67.5 L212.3,67.6 L212.8,67.6 L213.2,67.6
		L213.6,67.6 L214.0,67.6 L214.5,67.6 L214.9,67.7 L215.3,67.7 L215.7,67.7 L216.2,67.7 L216.6,67.8
		L217.0,67.8 L217.4,67.8 L217.9,67.8 L218.3,67.9 L218.7,67.9 L219.2,67.9 L219.6,67.9 L220.0,68.0
		L220.4,68.0 L220.9,68.0 L221.3,68.1 L221.7,68.1 L222.1,68.1 L222.6,68.2 L223.0,68.2 L223.4,68.2
		L223.8,68.3 L224.3,68.3 L224.7,68.4 L225.1,68.4 L225.5,68.4 L226.0,68.5 L226.4,68.5 L226.8,68.6
		L227.2,68.6 L227.7,68.7 L228.1,68.7 L228.5,68.7 L229.0,68.8 L229.4,68.8 L229.8,68.9 L230.2,68.9
		L230.7,69.0 L231.1,69.0 L231.5,69.1 L231.9,69.1 L232.4,69.2 L232.8,69.2 L233.2,69.3 L233.6,69.4
		L234.1,69.4 L234.5,69.5 L234.9,69.5 L235.3,69.6 L235.8,69.6 L236.2,69.7 L236.6,69.8 L237.0,69.8
		L237.5,69.9 L237.9,69.9 L238.3,70.0 L238.8,70.1 L239.2,70.1 L239.6,70.2 L240.0,70.3 L240.5,70.3
		L240.9,70.4 L241.3,70.5 L241.7,70.5 L242.2,70.6 L242.6,70.7 L243.0,70.7 L243.4,70.8 L243.9,70.9
		L244.3,70.9 L244.7,71.0 L245.1,71.1 L245.6,71.1 L246.0,71.2 L246.4,71.3 L246.9,71.4 L247.3,71.4
		L247.7,71.5 L248.1,71.6 L248.6,71.7 L249.0,71.8 L249.4,71.8 L249.8,71.9 L250.3,72.0 L250.7,72.1
		L251.1,72.1 L251.5,72.2 L252.0,72.3 L252.4,72.4 L252.8,72.5 L253.2,72.6 L253.7,72.6 L254.1,72.7
		L254.5,72.8 L254.9,72.9 L255.4,73.0 L255.8,73.1 L256.2,73.2 L256.7,73.2 L257.1,73.3 L257.5,73.4
		L257.9,73.5 L258.4,73.6 L258.8,73.7 L259.2,73.8 L259.6,73.9 L260.1,74.0 L260.5,74.1 L260.9,74.1
		L261.3,74.2 L261.8,74.3 L262.2,74.4 L262.6,74.5 L263.0,74.6 L263.5,74.7 L263.9,74.8 L264.3,74.9
		L264.8,75.0 L265.2,75.1 L265.6,75.2 L266.0,75.3 L266.5,75.4 L266.9,75.5 L267.3,75.6 L267.7,75.7
		L268.2,75.8 L268.6,75.9 L269.0,76.0 L269.4,76.1 L269.9,76.2 L270.3,76.3 L270.7,76.4 L271.1,76.5
		L271.6,76.6 L272.0,76.7 L272.4,76.8 L272.8,76.9 L273.3,77.1 L273.7,77.2 L274.1,77.3 L274.6,77.4
		L275.0,77.5 L275.4,77.6 L275.8,77.7 L276.3,77.8 L276.7,77.9 L277.1,78.0 L277.5,78.1 L278.0,78.3
		L278.4,78.4 L278.8,78.5 L279.2,78.6 L279.7,78.7 L280.1,78.8 L280.5,78.9 L280.9,79.0 L281.4,79.2
		L281.8,79.3 L282.2,79.4 L282.6,79.5 L283.1,79.6 L283.5,79.7 L283.9,79.9 L284.4,80.0 L284.8,80.1
		L285.2,80.2 L285.6,80.3 L286.1,80.5 L286.5,80.6 L286.9,80.7 L287.3,80.8 L287.8,80.9 L288.2,81.1
		L288.6,81.2 L289.0,81.3 L289.5,81.4 L289.9,81.6 L290.3,81.7 L290.7,81.8 L291.2,81.9 L291.6,82.0
		L292.0,82.2 L292.5,82.3 L292.9,82.4 L293.3,82.6 L293.7,82.7 L294.2,82.8 L294.6,82.9 L295.0,83.1
		L295.4,83.2 L295.9,83.3 L296.3,83.4 L296.7,83.6 L297.1,83.7 L297.6,83.8 L298.0,84.0 L298.4,84.1
		L298.8,84.2 L299.3,84.4 L299.7,84.5 L300.1,84.6 L300.5,84.8 L301.0,84.9 L301.4,85.0 L301.8,85.2
		L302.3,85.3 L302.7,85.4 L303.1,85.6 L303.5,85.7 L304.0,85.8 L304.4,86.0 L304.8,86.1 L305.2,86.2
		L305.7,86.4 L306.1,86.5 L306.5,86.6 L306.9,86.8 L307.4,86.9 L307.8,87.1 L308.2,87.2 L308.6,87.3
		L309.1,87.5 L309.5,87.6 L309.9,87.8 L310.4,87.9 L310.8,88.0 L311.2,88.2 L311.6,88.3 L312.1,88.5
		L312.5,88.6 L312.9,88.7 L313.3,88.9 L313.8,89.0 L314.2,89.2 L314.6,89.3 L315.0,89.5 L315.5,89.6
		L315.9,89.8 L316.3,89.9 L316.7,90.0 L317.2,90.2 L317.6,90.3 L318.0,90.5 L318.4,90.6 L318.9,90.8
		L319.3,90.9 L319.7,91.1 L320.2,91.2 L320.6,91.4 L321.0,91.5 L321.4,91.7 L321.9,91.8 L322.3,92.0
		L322.7,92.1 L323.1,92.3 L323.6,92.4 L324.0,92.6 L324.4,92.7 L324.8,92.9 L325.3,93.0 L325.7,93.2
		L326.1,93.3 L326.5,93.5 L327.0,93.6 L327.4,93.8 L327.8,93.9 L328.2,94.1 L328.7,94.2 L329.1,94.4
		L329.5,94.5 L330.0,94.7 L330.4,94.8 L330.8,95.0 L331.2,95.2 L331.7,95.3 L332.1,95.5 L332.5,95.6
		L332.9,95.8 L333.4,95.9 L333.8,96.1 L334.2,96.3 L334.6,96.4 L335.1,96.6 L335.5,96.7 L335.9,96.9
		L336.3,97.0 L336.8,97.2 L337.2,97.4 L337.6,97.5 L338.1,97.7 L338.5,97.8 L338.9,98.0 L339.3,98.2
		L339.8,98.3 L340.2,98.5 L340.6,98.6 L341.0,98.8 L341.5,99.0 L341.9,99.1 L342.3,99.3 L342.7,99.5
		L343.2,99.6 L343.6,99.8 L344.0,99.9 L344.4,100.1 L344.9,100.3 L345.3,100.4 L345.7,100.6 L346.1,100.8
		L346.6,100.9 L347.0,101.1 L347.4,101.3 L347.9,101.4 L348.3,101.6 L348.7,101.8 L349.1,101.9 L349.6,102.1
		L350.0,102.3 L350.4,102.4 L350.8,102.6 L351.3,102.8 L351.7,102.9 L352.1,103.1 L352.5,103.3 L353.0,103.4
		L353.4,103.6 L353.8,103.8 L354.2,103.9 L354.7,104.1 L355.1,104.3 L355.5,104.4 L356.0,104.6 L356.4,104.8
		L356.8,105.0 L357.2,105.1 L357.7,105.3 L358.1,105.5 L358.5,105.6 L358.9,105.8 L359.4,106.0 L359.8,106.2
		L360.2,106.3 L360.6,106.5 L361.1,106.7 L361.5,106.8 L361.9,107.0 L362.3,107.2 L362.8,107.4 L363.2,107.5
		L363.6,107.7 L364.0,107.9 L364.5,108.1 L364.9,108.2 L365.3,108.4 L365.8,108.6 L366.2,108.8 L366.6,108.9
		L367.0,109.1 L367.5,109.3 L367.9,109.5 L368.3,109.6 L368.7,109.8 L369.2,110.0 L369.6,110.2 L370.0,110.4
		L370.4,110.5 L370.9,110.7 L371.3,110.9 L371.7,111.1 L372.1,111.2 L372.6,111.4 L373.0,111.6 L373.4,111.8
		L373.8,112.0 L374.3,112.1 L374.7,112.3 L375.1,112.5 L375.6,112.7 L376.0,112.9 L376.4,113.0 L376.8,113.2
		L377.3,113.4 L377.7,113.6 L378.1,113.8 L378.5,113.9 L379.0,114.1 L379.4,114.3 L379.8,114.5 L380.2,114.7
		L380.7,114.9 L381.1,115.0 L381.5,115.2 L381.9,115.4 L382.4,115.6 L382.8,115.8 L383.2,116.0 L383.7,116.1
		L384.1,116.3 L384.5,116.5 L384.9,116.7 L385.4,116.9 L385.8,117.1 L386.2,117.2 L386.6,117.4 L387.1,117.6
		L387.5,117.8 L387.9,118.0 L388.3,118.2 L388.8,118.4 L389.2,118.5 L389.6,118.7 L390.0,118.9 L390.5,119.1
		L390.9,119.3 L391.3,119.5 L391.7,119.7 L392.2,119.9 L392.6,120.0 L393.0,120.2 L393.5,120.4 L393.9,120.6
		L394.3,120.8 L394.7,121.0 L395.2,121.2 L395.6,121.4 L396.0,121.6 L396.4,121.7 L396.9,121.9 L397.3,122.1
		L397.7,122.3 L398.1,122.5 L398.6,122.7 L399.0,122.9 L399.4,123.1 L399.8,123.3 L400.3,123.5 L400.7,123.7
		L401.1,123.8 L401.6,124.0 L402.0,124.2 L402.4,124.4 L402.8,124.6 L403.3,124.8 L403.7,125.0 L404.1,125.2
		L404.5,125.4 L405.0,125.6 L405.4,125.8 L405.8,126.0 L406.2,126.2 L406.7,126.4 L407.1,126.5 L407.5,126.7
		L407.9,126.9 L408.4,127.1 L408.8,127.3 L409.2,127.5 L409.6,127.7 L410.1,127.9 L410.5,128.1 L410.9,128.3
		L411.4,128.5 L411.8,128.7 L412.2,128.9 L412.6,129.1 L413.1,129.3 L413.5,129.5 L413.9,129.7 L414.3,129.9
		L414.8,130.1 L415.2,130.3 L415.6,130.5 L416.0,130.7 L416.5,130.9 L416.9,131.1 L417.3,131.2 L417.7,131.4
		L418.2,131.6 L418.6,131.8 L419.0,132.0 L419.4,132.2 L419.9,132.4 L420.3,132.6 L420.7,132.8 L421.2,133.0
		L421.6,133.2 L422.0,133.4 L422.4,133.6 L422.9,133.8 L423.3,134.0 L423.7,134.2 L424.1,134.4 L424.6,134.6
		L425.0,134.8 L425.4,135.0 L425.8,135.2 L426.3,135.4 L426.7,135.6 L427.1,135.8 L427.5,136.0 L428.0,136.2
		L428.4,136.5 L428.8,136.7 L429.3,136.9 L429.7,137.1 L430.1,137.3 L430.5,137.5 L431.0,137.7 L431.4,137.9
		L431.8,138.1 L432.2,138.3 L432.7,138.5 L433.1,138.7 L433.5,138.9 L433.9,139.1 L434.4,139.3 L434.8,139.5
		L435.2,139.7 L435.6,139.9 L436.1,140.1 L436.5,140.3 L436.9,140.5 L437.3,140.7 L437.8,140.9 L438.2,141.1
		L438.6,141.3 L439.1,141.5 L439.5,141.8 L439.9,142.0 L440.3,142.2 L440.8,142.4 L441.2,142.6 L441.6,142.8
		L442.0,143.0 L442.5,143.2 L442.9,143.4 L443.3,143.6 L443.7,143.8 L444.2,144.0 L444.6,144.2 L445.0,144.4
		L445.4,144.6 L445.9,144.9 L446.3,145.1 L446.7,145.3 L447.2,145.5 L447.6,145.7 L448.0,145.9 L448.4,146.1
		L448.9,146.3 L449.3,146.5 L449.7,146.7 L450.1,146.9 L450.6,147.2 L451.0,147.4 L451.4,147.6 L451.8,147.8
		L452.3,148.0 L452.7,148.2 L453.1,148.4 L453.5,148.6 L454.0,148.8 L454.4,149.0 L454.8,149.3 L455.2,149.5
		L455.7,149.7 L456.1,149.9 L456.5,150.1 L457.0,150.3 L457.4,150.5 L457.8,150.7 L458.2,150.9 L458.7,151.2
		L459.1,151.4 L459.5,151.6 L459.9,151.8 L460.4,152.0 L460.8,152.2 L461.2,152.4 L461.6,152.6 L462.1,152.9
		L462.5,153.1 L462.9,153.3 L463.3,153.5 L463.8,153.7 L464.2,153.9 L464.6,154.1 L465.0,154.3 L465.5,154.6
		L465.9,154.8 L466.3,155.0 L466.8,155.2 L467.2,155.4 L467.6,155.6 L468.0,155.8 L468.5,156.1 L468.9,156.3
		L469.3,156.5 L469.7,156.7 L470.2,156.9 L470.6,157.1 L471.0,157.3 L471.4,157.6 L471.9,157.8 L472.3,158.0
		L472.7,158.2 L473.1,158.4 L473.6,158.6 L474.0,158.9 L474.4,159.1 L474.9,159.3 L475.3,159.5 L475.7,159.7
		L476.1,159.9 L476.6,160.2 L477.0,160.4 L477.4,160.6 L477.8,160.8 L478.3,161.0 L478.7,161.2 L479.1,161.5
		L479.5,161.7 L480.0,161.9 L480.4,162.1 L480.8,162.3 L481.2,162.6 L481.7,162.8 L482.1,163.0 L482.5,163.2
		L482.9,163.4 L483.4,163.6 L483.8,163.9 L484.2,164.1 L484.7,164.3 L485.1,164.5 L485.5,164.7 L485.9,165.0
		L486.4,165.2 L486.8,165.4 L487.2,165.6 L487.6,165.8 L488.1,166.1 L488.5,166.3 L488.9,166.5 L489.3,166.7
		L489.8,166.9 L490.2,167.2 L490.6,167.4 L491.0,167.6 L491.5,167.8 L491.9,168.0 L492.3,168.3 L492.7,168.5
		L493.2,168.7 L493.6,168.9 L494.0,169.2 L494.5,169.4 L494.9,169.6 L495.3,169.8 L495.7,170.0 L496.2,170.3
		L496.6,170.5 L497.0,170.7 L497.4,170.9 L497.9,171.2 L498.3,171.4 L498.7,171.6 L499.1,171.8 L499.6,172.0
		L500.0,172.3 L500.4,172.5 L500.8,172.7 L501.3,172.9 L501.7,173.2 L502.1,173.4 L502.6,173.6 L503.0,173.8
		L503.4,174.1 L503.8,174.3 L504.3,174.5 L504.7,174.7 L505.1,175.0 L505.5,175.2 L506.0,175.4 L506.4,175.6
		L506.8,175.8 L507.2,176.1 L507.7,176.3 L508.1,176.5 L508.5,176.7 L508.9,177.0 L509.4,177.2 L509.8,177.4
		L510.2,177.7 L510.6,177.9 L511.1,178.1 L511.5,178.3 L511.9,178.6 L512.4,178.8 L512.8,179.0 L513.2,179.2
		L513.6,179.5 L514.1,179.7 L514.5,179.9 L514.9,180.1 L515.3,180.4 L515.8,180.6 L516.2,180.8 L516.6,181.0
		L517.0,181.3 L517.5,181.5 L517.9,181.7 L518.3,182.0 L518.7,182.2 L519.2,182.4 L519.6,182.6 L520.0,182.9
		L520.5,183.1 L520.9,183.3 L521.3,183.5 L521.7,183.8 L522.2,184.0 L522.6,184.2 L523.0,184.5 L523.4,184.7
		L523.9,184.9 L524.3,185.1 L524.7,185.4 L525.1,185.6 L525.6,185.8 L526.0,186.1 L526.4,186.3 L526.8,186.5
		L527.3,186.8 L527.7,187.0 L528.1,187.2 L528.5,187.4 L529.0,187.7 L529.4,187.9 L529.8,188.1 L530.3,188.4
		L530.7,188.6 L531.1,188.8 L531.5,189.0 L532.0,189.3 L532.4,189.5 L532.8,189.7 L533.2,190.0 L533.7,190.2
		L534.1,190.4 L534.5,190.7 L534.9,190.9 L535.4,191.1 L535.8,191.4 L536.2,191.6 L536.6,191.8 L537.1,192.1
		L537.5,192.3 L537.9,192.5 L538.3,192.7 L538.8,193.0 L539.2,193.2 L539.6,193.4 L540.1,193.7 L540.5,193.9
		L540.9,194.1 L541.3,194.4 L541.8,194.6 L542.2,194.8 L542.6,195.1 L543.0,195.3 L543.5,195.5 L543.9,195.8
		L544.3,196.0 L544.7,196.2 L545.2,196.5 L545.6,196.7 L546.0,196.9 L546.4,197.2 L546.9,197.4 L547.3,197.6
		L547.7,197.9 L548.2,198.1 L548.6,198.3 L549.0,198.6 L549.4,198.8 L549.9,199.0 L550.3,199.3 L550.7,199.5
		L551.1,199.7 L551.6,200.0 L552.0,200.2 L552.4,200.4 L552.8,200.7 L553.3,200.9 L553.7,201.1 L554.1,201.4
		L554.5,201.6 L555.0,201.9 L555.4,202.1 L555.8,202.3 L556.2,202.6 L556.7,202.8 L557.1,203.0 L557.5,203.3
		L558.0,203.5 L558.4,203.7 L558.8,204.0 L559.2,204.2 L559.7,204.4 L560.1,204.7 L560.5,204.9 L560.9,205.2
		L561.4,205.4 L561.8,205.6 L562.2,205.9 L562.6,206.1 L563.1,206.3 L563.5,206.6 L563.9,206.8 L564.3,207.0
		L564.8,207.3 L565.2,207.5 L565.6,207.8 L566.1,208.0 L566.5,208.2 L566.9,208.5 L567.3,208.7 L567.8,208.9
		L568.2,209.2 L568.6,209.4 L569.0,209.7 L569.5,209.9 L569.9,210.1 L570.3,210.4 L570.7,210.6 L571.2,210.8
		L571.6,211.1 L572.0,211.3 L572.4,211.6 L572.9,211.8 L573.3,212.0 L573.7,212.3 L574.1,212.5 L574.6,212.8
		L575.0,213.0  '/></g>
	</g>
	<g id="gnuplot_plot_4" ><title>Data</title>
<g fill="none" color="black" stroke="currentColor" stroke-width="1.00" stroke-linecap="butt" stroke-linejoin="miter">
	<g transform="translate(507.9,354.9)" stroke="none" fill="black" font-family="Arial" font-size="12.00"  text-anchor="end">
		<text><tspan font-family="Arial" >Data</tspan></text>
	</g>
</g>
<g fill="none" color="black" stroke="currentColor" stroke-width="1.00" stroke-linecap="butt" stroke-linejoin="miter">
	<path stroke='rgb(255,   0,   0)'  d='M516.2,350.4 L558.4,350.4 M516.2,345.9 L516.2,354.9 M558.4,345.9 L558.4,354.9 M67.9,363.0 L67.9,329.3
		M63.6,363.0 L72.4,363.0 M63.6,329.3 L72.4,329.3 M120.3,102.3 L120.3,83.0 M115.8,102.3 L124.8,102.3
		M115.8,83.0 L124.8,83.0 M172.3,74.0 L172.3,42.1 M167.8,74.0 L176.8,74.0 M167.8,42.1 L176.8,42.1
		M224.7,69.4 L224.7,37.0 M220.2,69.4 L229.2,69.4 M220.2,37.0 L229.2,37.0 M276.7,79.0 L276.7,43.0
		M272.2,79.0 L281.2,79.0 M272.2,43.0 L281.2,43.0 M328.7,82.4 L328.7,69.5 M324.2,82.4 L333.2,82.4
		M324.2,69.5 L333.2,69.5 M381.1,104.0 L381.1,86.6 M376.6,104.0 L385.6,104.0 M376.6,86.6 L385.6,86.6
		M433.5,133.5 L433.5,102.1 M429.0,133.5 L438.0,133.5 M429.0,102.1 L438.0,102.1 M485.5,150.2 L485.5,134.7
		M481.0,150.2 L490.0,150.2 M481.0,134.7 L490.0,134.7  '/>	<use xlink:href='#gpPt3' transform='translate(67.9,346.1) scale(4.50)' color='rgb(255,   0,   0)'/>
	<use xlink:href='#gpPt3' transform='translate(120.3,92.6) scale(4.50)' color='rgb(255,   0,   0)'/>
	<use xlink:href='#gpPt3' transform='translate(172.3,58.1) scale(4.50)' color='rgb(255,   0,   0)'/>
	<use xlink:href='#gpPt3' transform='translate(224.7,53.2) scale(4.50)' color='rgb(255,   0,   0)'/>
	<use xlink:href='#gpPt3' transform='translate(276.7,61.0) scale(4.50)' color='rgb(255,   0,   0)'/>
	<use xlink:href='#gpPt3' transform='translate(328.7,75.9) scale(4.50)' color='rgb(255,   0,   0)'/>
	<use xlink:href='#gpPt3' transform='translate(381.1,95.3) scale(4.50)' color='rgb(255,   0,   0)'/>
	<use xlink:href='#gpPt3' transform='translate(433.5,117.8) scale(4.50)' color='rgb(255,   0,   0)'/>
	<use xlink:href='#gpPt3' transform='translate(485.5,142.5) scale(4.50)' color='rgb(255,   0,   0)'/>
	<use xlink:href='#gpPt3' transform='translate(537.3,350.4) scale(4.50)' color='rgb(255,   0,   0)'/>
</g>
	</g>
	<g id="gnuplot_plot_5" ><title>Ordinary Fc(x)</title>
<g fill="none" color="black" stroke="currentColor" stroke-width="1.00" stroke-linecap="butt" stroke-linejoin="miter">
	<g transform="translate(507.9,372.9)" stroke="none" fill="black" font-family="Arial" font-size="12.00"  text-anchor="end">
		<text><tspan font-family="Arial" >Ordinary F</tspan><tspan font-family="Arial"  font-size="9.6" dy="3.60px">c</tspan><tspan font-family="Arial"  font-size="12.0" dy="-3.60px">(x)</tspan></text>
	</g>
</g>
<g fill="none" color="black" stroke="currentColor" stroke-width="1.00" stroke-linecap="butt" stroke-linejoin="miter">
	<use xlink:href='#gpPt4' transform='translate(67.9,346.2) scale(2.25)' color='rgb(  0,   0,   0)'/>
	<use xlink:href='#gpPt4' transform='translate(72.1,270.8) scale(2.25)' color='rgb(  0,   0,   0)'/>
	<use xlink:href='#gpPt4' transform='translate(76.4,228.1) scale(2.25)' color='rgb(  0,   0,   0)'/>
	<use xlink:href='#gpPt4' transform='translate(80.6,198.7) scale(2.25)' color='rgb(  0,   0,   0)'/>
	<use xlink:href='#gpPt4' transform='translate(84.9,176.6) scale(2.25)' color='rgb(  0,   0,   0)'/>
	<use xlink:href='#gpPt4' transform='translate(89.2,159.2) scale(2.25)' color='rgb(  0,   0,   0)'/>
	<use xlink:href='#gpPt4' transform='translate(93.4,144.9) scale(2.25)' color='rgb(  0,   0,   0)'/>
	<use xlink:href='#gpPt4' transform='translate(97.7,133.0) scale(2.25)' color='rgb(  0,   0,   0)'/>
	<use xlink:href='#gpPt4' transform='translate(102.0,122.9) scale(2.25)' color='rgb(  0,   0,   0)'/>
	<use xlink:href='#gpPt4' transform='translate(106.2,114.2) scale(2.25)' color='rgb(  0,   0,   0)'/>
	<use xlink:href='#gpPt4' transform='translate(110.5,106.6) scale(2.25)' color='rgb(  0,   0,   0)'/>
	<use xlink:href='#gpPt4' transform='translate(114.7,100.0) scale(2.25)' color='rgb(  0,   0,   0)'/>
	<use xlink:href='#gpPt4' transform='translate(119.0,94.1) scale(2.25)' color='rgb(  0,   0,   0)'/>
	<use xlink:href='#gpPt4' transform='translate(123.3,89.0) scale(2.25)' color='rgb(  0,   0,   0)'/>
	<use xlink:href='#gpPt4' transform='translate(127.5,84.4) scale(2.25)' color='rgb(  0,   0,   0)'/>
	<use xlink:href='#gpPt4' transform='translate(131.8,80.3) scale(2.25)' color='rgb(  0,   0,   0)'/>
	<use xlink:href='#gpPt4' transform='translate(136.0,76.6) scale(2.25)' color='rgb(  0,   0,   0)'/>
	<use xlink:href='#gpPt4' transform='translate(140.3,73.4) scale(2.25)' color='rgb(  0,   0,   0)'/>
	<use xlink:href='#gpPt4' transform='translate(144.6,70.5) scale(2.25)' color='rgb(  0,   0,   0)'/>
	<use xlink:href='#gpPt4' transform='translate(148.8,67.9) scale(2.25)' color='rgb(  0,   0,   0)'/>
	<use xlink:href='#gpPt4' transform='translate(153.1,65.6) scale(2.25)' color='rgb(  0,   0,   0)'/>
	<use xlink:href='#gpPt4' transform='translate(157.4,63.6) scale(2.25)' color='rgb(  0,   0,   0)'/>
	<use xlink:href='#gpPt4' transform='translate(161.6,61.8) scale(2.25)' color='rgb(  0,   0,   0)'/>
	<use xlink:href='#gpPt4' transform='translate(165.9,60.2) scale(2.25)' color='rgb(  0,   0,   0)'/>
	<use xlink:href='#gpPt4' transform='translate(170.1,58.8) scale(2.25)' color='rgb(  0,   0,   0)'/>
	<use xlink:href='#gpPt4' transform='translate(174.4,57.6) scale(2.25)' color='rgb(  0,   0,   0)'/>
	<use xlink:href='#gpPt4' transform='translate(178.7,56.6) scale(2.25)' color='rgb(  0,   0,   0)'/>
	<use xlink:href='#gpPt4' transform='translate(182.9,55.7) scale(2.25)' color='rgb(  0,   0,   0)'/>
	<use xlink:href='#gpPt4' transform='translate(187.2,54.9) scale(2.25)' color='rgb(  0,   0,   0)'/>
	<use xlink:href='#gpPt4' transform='translate(191.5,54.3) scale(2.25)' color='rgb(  0,   0,   0)'/>
	<use xlink:href='#gpPt4' transform='translate(195.7,53.8) scale(2.25)' color='rgb(  0,   0,   0)'/>
	<use xlink:href='#gpPt4' transform='translate(200.0,53.5) scale(2.25)' color='rgb(  0,   0,   0)'/>
	<use xlink:href='#gpPt4' transform='translate(204.2,53.2) scale(2.25)' color='rgb(  0,   0,   0)'/>
	<use xlink:href='#gpPt4' transform='translate(208.5,53.1) scale(2.25)' color='rgb(  0,   0,   0)'/>
	<use xlink:href='#gpPt4' transform='translate(212.8,53.0) scale(2.25)' color='rgb(  0,   0,   0)'/>
	<use xlink:href='#gpPt4' transform='translate(217.0,53.1) scale(2.25)' color='rgb(  0,   0,   0)'/>
	<use xlink:href='#gpPt4' transform='translate(221.3,53.2) scale(2.25)' color='rgb(  0,   0,   0)'/>
	<use xlink:href='#gpPt4' transform='translate(225.5,53.4) scale(2.25)' color='rgb(  0,   0,   0)'/>
	<use xlink:href='#gpPt4' transform='translate(229.8,53.7) scale(2.25)' color='rgb(  0,   0,   0)'/>
	<use xlink:href='#gpPt4' transform='translate(234.1,54.1) scale(2.25)' color='rgb(  0,   0,   0)'/>
	<use xlink:href='#gpPt4' transform='translate(238.3,54.5) scale(2.25)' color='rgb(  0,   0,   0)'/>
	<use xlink:href='#gpPt4' transform='translate(242.6,55.0) scale(2.25)' color='rgb(  0,   0,   0)'/>
	<use xlink:href='#gpPt4' transform='translate(246.9,55.6) scale(2.25)' color='rgb(  0,   0,   0)'/>
	<use xlink:href='#gpPt4' transform='translate(251.1,56.2) scale(2.25)' color='rgb(  0,   0,   0)'/>
	<use xlink:href='#gpPt4' transform='translate(255.4,56.9) scale(2.25)' color='rgb(  0,   0,   0)'/>
	<use xlink:href='#gpPt4' transform='translate(259.6,57.7) scale(2.25)' color='rgb(  0,   0,   0)'/>
	<use xlink:href='#gpPt4' transform='translate(263.9,58.5) scale(2.25)' color='rgb(  0,   0,   0)'/>
	<use xlink:href='#gpPt4' transform='translate(268.2,59.3) scale(2.25)' color='rgb(  0,   0,   0)'/>
	<use xlink:href='#gpPt4' transform='translate(272.4,60.2) scale(2.25)' color='rgb(  0,   0,   0)'/>
	<use xlink:href='#gpPt4' transform='translate(276.7,61.2) scale(2.25)' color='rgb(  0,   0,   0)'/>
	<use xlink:href='#gpPt4' transform='translate(280.9,62.2) scale(2.25)' color='rgb(  0,   0,   0)'/>
	<use xlink:href='#gpPt4' transform='translate(285.2,63.2) scale(2.25)' color='rgb(  0,   0,   0)'/>
	<use xlink:href='#gpPt4' transform='translate(289.5,64.3) scale(2.25)' color='rgb(  0,   0,   0)'/>
	<use xlink:href='#gpPt4' transform='translate(293.7,65.4) scale(2.25)' color='rgb(  0,   0,   0)'/>
	<use xlink:href='#gpPt4' transform='translate(298.0,66.6) scale(2.25)' color='rgb(  0,   0,   0)'/>
	<use xlink:href='#gpPt4' transform='translate(302.3,67.8) scale(2.25)' color='rgb(  0,   0,   0)'/>
	<use xlink:href='#gpPt4' transform='translate(306.5,69.0) scale(2.25)' color='rgb(  0,   0,   0)'/>
	<use xlink:href='#gpPt4' transform='translate(310.8,70.3) scale(2.25)' color='rgb(  0,   0,   0)'/>
	<use xlink:href='#gpPt4' transform='translate(315.0,71.6) scale(2.25)' color='rgb(  0,   0,   0)'/>
	<use xlink:href='#gpPt4' transform='translate(319.3,72.9) scale(2.25)' color='rgb(  0,   0,   0)'/>
	<use xlink:href='#gpPt4' transform='translate(323.6,74.3) scale(2.25)' color='rgb(  0,   0,   0)'/>
	<use xlink:href='#gpPt4' transform='translate(327.8,75.6) scale(2.25)' color='rgb(  0,   0,   0)'/>
	<use xlink:href='#gpPt4' transform='translate(332.1,77.1) scale(2.25)' color='rgb(  0,   0,   0)'/>
	<use xlink:href='#gpPt4' transform='translate(336.3,78.5) scale(2.25)' color='rgb(  0,   0,   0)'/>
	<use xlink:href='#gpPt4' transform='translate(340.6,80.0) scale(2.25)' color='rgb(  0,   0,   0)'/>
	<use xlink:href='#gpPt4' transform='translate(344.9,81.5) scale(2.25)' color='rgb(  0,   0,   0)'/>
	<use xlink:href='#gpPt4' transform='translate(349.1,83.0) scale(2.25)' color='rgb(  0,   0,   0)'/>
	<use xlink:href='#gpPt4' transform='translate(353.4,84.6) scale(2.25)' color='rgb(  0,   0,   0)'/>
	<use xlink:href='#gpPt4' transform='translate(357.7,86.2) scale(2.25)' color='rgb(  0,   0,   0)'/>
	<use xlink:href='#gpPt4' transform='translate(361.9,87.8) scale(2.25)' color='rgb(  0,   0,   0)'/>
	<use xlink:href='#gpPt4' transform='translate(366.2,89.4) scale(2.25)' color='rgb(  0,   0,   0)'/>
	<use xlink:href='#gpPt4' transform='translate(370.4,91.1) scale(2.25)' color='rgb(  0,   0,   0)'/>
	<use xlink:href='#gpPt4' transform='translate(374.7,92.8) scale(2.25)' color='rgb(  0,   0,   0)'/>
	<use xlink:href='#gpPt4' transform='translate(379.0,94.5) scale(2.25)' color='rgb(  0,   0,   0)'/>
	<use xlink:href='#gpPt4' transform='translate(383.2,96.2) scale(2.25)' color='rgb(  0,   0,   0)'/>
	<use xlink:href='#gpPt4' transform='translate(387.5,97.9) scale(2.25)' color='rgb(  0,   0,   0)'/>
	<use xlink:href='#gpPt4' transform='translate(391.7,99.7) scale(2.25)' color='rgb(  0,   0,   0)'/>
	<use xlink:href='#gpPt4' transform='translate(396.0,101.4) scale(2.25)' color='rgb(  0,   0,   0)'/>
	<use xlink:href='#gpPt4' transform='translate(400.3,103.2) scale(2.25)' color='rgb(  0,   0,   0)'/>
	<use xlink:href='#gpPt4' transform='translate(404.5,105.0) scale(2.25)' color='rgb(  0,   0,   0)'/>
	<use xlink:href='#gpPt4' transform='translate(408.8,106.9) scale(2.25)' color='rgb(  0,   0,   0)'/>
	<use xlink:href='#gpPt4' transform='translate(413.1,108.7) scale(2.25)' color='rgb(  0,   0,   0)'/>
	<use xlink:href='#gpPt4' transform='translate(417.3,110.6) scale(2.25)' color='rgb(  0,   0,   0)'/>
	<use xlink:href='#gpPt4' transform='translate(421.6,112.5) scale(2.25)' color='rgb(  0,   0,   0)'/>
	<use xlink:href='#gpPt4' transform='translate(425.8,114.4) scale(2.25)' color='rgb(  0,   0,   0)'/>
	<use xlink:href='#gpPt4' transform='translate(430.1,116.3) scale(2.25)' color='rgb(  0,   0,   0)'/>
	<use xlink:href='#gpPt4' transform='translate(434.4,118.2) scale(2.25)' color='rgb(  0,   0,   0)'/>
	<use xlink:href='#gpPt4' transform='translate(438.6,120.2) scale(2.25)' color='rgb(  0,   0,   0)'/>
	<use xlink:href='#gpPt4' transform='translate(442.9,122.1) scale(2.25)' color='rgb(  0,   0,   0)'/>
	<use xlink:href='#gpPt4' transform='translate(447.2,124.1) scale(2.25)' color='rgb(  0,   0,   0)'/>
	<use xlink:href='#gpPt4' transform='translate(451.4,126.1) scale(2.25)' color='rgb(  0,   0,   0)'/>
	<use xlink:href='#gpPt4' transform='translate(455.7,128.1) scale(2.25)' color='rgb(  0,   0,   0)'/>
	<use xlink:href='#gpPt4' transform='translate(459.9,130.1) scale(2.25)' color='rgb(  0,   0,   0)'/>
	<use xlink:href='#gpPt4' transform='translate(464.2,132.1) scale(2.25)' color='rgb(  0,   0,   0)'/>
	<use xlink:href='#gpPt4' transform='translate(468.5,134.1) scale(2.25)' color='rgb(  0,   0,   0)'/>
	<use xlink:href='#gpPt4' transform='translate(472.7,136.2) scale(2.25)' color='rgb(  0,   0,   0)'/>
	<use xlink:href='#gpPt4' transform='translate(477.0,138.3) scale(2.25)' color='rgb(  0,   0,   0)'/>
	<use xlink:href='#gpPt4' transform='translate(481.2,140.3) scale(2.25)' color='rgb(  0,   0,   0)'/>
	<use xlink:href='#gpPt4' transform='translate(485.5,142.4) scale(2.25)' color='rgb(  0,   0,   0)'/>
	<use xlink:href='#gpPt4' transform='translate(489.8,144.5) scale(2.25)' color='rgb(  0,   0,   0)'/>
	<use xlink:href='#gpPt4' transform='translate(494.0,146.6) scale(2.25)' color='rgb(  0,   0,   0)'/>
	<use xlink:href='#gpPt4' transform='translate(498.3,148.8) scale(2.25)' color='rgb(  0,   0,   0)'/>
	<use xlink:href='#gpPt4' transform='translate(502.6,150.9) scale(2.25)' color='rgb(  0,   0,   0)'/>
	<use xlink:href='#gpPt4' transform='translate(506.8,153.0) scale(2.25)' color='rgb(  0,   0,   0)'/>
	<use xlink:href='#gpPt4' transform='translate(511.1,155.2) scale(2.25)' color='rgb(  0,   0,   0)'/>
	<use xlink:href='#gpPt4' transform='translate(515.3,157.4) scale(2.25)' color='rgb(  0,   0,   0)'/>
	<use xlink:href='#gpPt4' transform='translate(519.6,159.5) scale(2.25)' color='rgb(  0,   0,   0)'/>
	<use xlink:href='#gpPt4' transform='translate(523.9,161.7) scale(2.25)' color='rgb(  0,   0,   0)'/>
	<use xlink:href='#gpPt4' transform='translate(528.1,163.9) scale(2.25)' color='rgb(  0,   0,   0)'/>
	<use xlink:href='#gpPt4' transform='translate(532.4,166.1) scale(2.25)' color='rgb(  0,   0,   0)'/>
	<use xlink:href='#gpPt4' transform='translate(536.6,168.3) scale(2.25)' color='rgb(  0,   0,   0)'/>
	<use xlink:href='#gpPt4' transform='translate(540.9,170.5) scale(2.25)' color='rgb(  0,   0,   0)'/>
	<use xlink:href='#gpPt4' transform='translate(545.2,172.8) scale(2.25)' color='rgb(  0,   0,   0)'/>
	<use xlink:href='#gpPt4' transform='translate(549.4,175.0) scale(2.25)' color='rgb(  0,   0,   0)'/>
	<use xlink:href='#gpPt4' transform='translate(553.7,177.3) scale(2.25)' color='rgb(  0,   0,   0)'/>
	<use xlink:href='#gpPt4' transform='translate(558.0,179.5) scale(2.25)' color='rgb(  0,   0,   0)'/>
	<use xlink:href='#gpPt4' transform='translate(562.2,181.8) scale(2.25)' color='rgb(  0,   0,   0)'/>
	<use xlink:href='#gpPt4' transform='translate(566.5,184.1) scale(2.25)' color='rgb(  0,   0,   0)'/>
	<use xlink:href='#gpPt4' transform='translate(570.7,186.4) scale(2.25)' color='rgb(  0,   0,   0)'/>
	<use xlink:href='#gpPt4' transform='translate(575.0,188.6) scale(2.25)' color='rgb(  0,   0,   0)'/>
	<use xlink:href='#gpPt4' transform='translate(537.3,368.4) scale(2.25)' color='rgb(  0,   0,   0)'/>
</g>
	</g>
	<g id="gnuplot_plot_6" ><title>Ordinary Fc+dc(x)</title>
<g fill="none" color="black" stroke="currentColor" stroke-width="1.00" stroke-linecap="butt" stroke-linejoin="miter">
	<g transform="translate(507.9,390.9)" stroke="none" fill="black" font-family="Arial" font-size="12.00"  text-anchor="end">
		<text><tspan font-family="Arial" >Ordinary F</tspan><tspan font-family="Arial"  font-size="9.6" dy="3.60px">c+dc</tspan><tspan font-family="Arial"  font-size="12.0" dy="-3.60px">(x)</tspan></text>
	</g>
</g>
<g fill="none" color="black" stroke="currentColor" stroke-width="1.00" stroke-linecap="butt" stroke-linejoin="miter">
	<use xlink:href='#gpPt4' transform='translate(67.9,348.8) scale(2.25)' color='rgb(255,   0,   0)'/>
	<use xlink:href='#gpPt4' transform='translate(72.1,271.4) scale(2.25)' color='rgb(255,   0,   0)'/>
	<use xlink:href='#gpPt4' transform='translate(76.4,227.4) scale(2.25)' color='rgb(255,   0,   0)'/>
	<use xlink:href='#gpPt4' transform='translate(80.6,197.2) scale(2.25)' color='rgb(255,   0,   0)'/>
	<use xlink:href='#gpPt4' transform='translate(84.9,174.4) scale(2.25)' color='rgb(255,   0,   0)'/>
	<use xlink:href='#gpPt4' transform='translate(89.2,156.4) scale(2.25)' color='rgb(255,   0,   0)'/>
	<use xlink:href='#gpPt4' transform='translate(93.4,141.7) scale(2.25)' color='rgb(255,   0,   0)'/>
	<use xlink:href='#gpPt4' transform='translate(97.7,129.3) scale(2.25)' color='rgb(255,   0,   0)'/>
	<use xlink:href='#gpPt4' transform='translate(102.0,118.8) scale(2.25)' color='rgb(255,   0,   0)'/>
	<use xlink:href='#gpPt4' transform='translate(106.2,109.8) scale(2.25)' color='rgb(255,   0,   0)'/>
	<use xlink:href='#gpPt4' transform='translate(110.5,101.9) scale(2.25)' color='rgb(255,   0,   0)'/>
	<use xlink:href='#gpPt4' transform='translate(114.7,95.0) scale(2.25)' color='rgb(255,   0,   0)'/>
	<use xlink:href='#gpPt4' transform='translate(119.0,88.9) scale(2.25)' color='rgb(255,   0,   0)'/>
	<use xlink:href='#gpPt4' transform='translate(123.3,83.5) scale(2.25)' color='rgb(255,   0,   0)'/>
	<use xlink:href='#gpPt4' transform='translate(127.5,78.7) scale(2.25)' color='rgb(255,   0,   0)'/>
	<use xlink:href='#gpPt4' transform='translate(131.8,74.4) scale(2.25)' color='rgb(255,   0,   0)'/>
	<use xlink:href='#gpPt4' transform='translate(136.0,70.5) scale(2.25)' color='rgb(255,   0,   0)'/>
	<use xlink:href='#gpPt4' transform='translate(140.3,67.1) scale(2.25)' color='rgb(255,   0,   0)'/>
	<use xlink:href='#gpPt4' transform='translate(144.6,64.0) scale(2.25)' color='rgb(255,   0,   0)'/>
	<use xlink:href='#gpPt4' transform='translate(148.8,61.2) scale(2.25)' color='rgb(255,   0,   0)'/>
	<use xlink:href='#gpPt4' transform='translate(153.1,58.8) scale(2.25)' color='rgb(255,   0,   0)'/>
	<use xlink:href='#gpPt4' transform='translate(157.4,56.6) scale(2.25)' color='rgb(255,   0,   0)'/>
	<use xlink:href='#gpPt4' transform='translate(161.6,54.6) scale(2.25)' color='rgb(255,   0,   0)'/>
	<use xlink:href='#gpPt4' transform='translate(165.9,52.8) scale(2.25)' color='rgb(255,   0,   0)'/>
	<use xlink:href='#gpPt4' transform='translate(170.1,51.3) scale(2.25)' color='rgb(255,   0,   0)'/>
	<use xlink:href='#gpPt4' transform='translate(174.4,49.9) scale(2.25)' color='rgb(255,   0,   0)'/>
	<use xlink:href='#gpPt4' transform='translate(178.7,48.8) scale(2.25)' color='rgb(255,   0,   0)'/>
	<use xlink:href='#gpPt4' transform='translate(182.9,47.7) scale(2.25)' color='rgb(255,   0,   0)'/>
	<use xlink:href='#gpPt4' transform='translate(187.2,46.9) scale(2.25)' color='rgb(255,   0,   0)'/>
	<use xlink:href='#gpPt4' transform='translate(191.5,46.1) scale(2.25)' color='rgb(255,   0,   0)'/>
	<use xlink:href='#gpPt4' transform='translate(195.7,45.5) scale(2.25)' color='rgb(255,   0,   0)'/>
	<use xlink:href='#gpPt4' transform='translate(200.0,45.0) scale(2.25)' color='rgb(255,   0,   0)'/>
	<use xlink:href='#gpPt4' transform='translate(204.2,44.6) scale(2.25)' color='rgb(255,   0,   0)'/>
	<use xlink:href='#gpPt4' transform='translate(208.5,44.4) scale(2.25)' color='rgb(255,   0,   0)'/>
	<use xlink:href='#gpPt4' transform='translate(212.8,44.2) scale(2.25)' color='rgb(255,   0,   0)'/>
	<use xlink:href='#gpPt4' transform='translate(217.0,44.1) scale(2.25)' color='rgb(255,   0,   0)'/>
	<use xlink:href='#gpPt4' transform='translate(221.3,44.2) scale(2.25)' color='rgb(255,   0,   0)'/>
	<use xlink:href='#gpPt4' transform='translate(225.5,44.3) scale(2.25)' color='rgb(255,   0,   0)'/>
	<use xlink:href='#gpPt4' transform='translate(229.8,44.5) scale(2.25)' color='rgb(255,   0,   0)'/>
	<use xlink:href='#gpPt4' transform='translate(234.1,44.7) scale(2.25)' color='rgb(255,   0,   0)'/>
	<use xlink:href='#gpPt4' transform='translate(238.3,45.0) scale(2.25)' color='rgb(255,   0,   0)'/>
	<use xlink:href='#gpPt4' transform='translate(242.6,45.4) scale(2.25)' color='rgb(255,   0,   0)'/>
	<use xlink:href='#gpPt4' transform='translate(246.9,45.9) scale(2.25)' color='rgb(255,   0,   0)'/>
	<use xlink:href='#gpPt4' transform='translate(251.1,46.4) scale(2.25)' color='rgb(255,   0,   0)'/>
	<use xlink:href='#gpPt4' transform='translate(255.4,47.0) scale(2.25)' color='rgb(255,   0,   0)'/>
	<use xlink:href='#gpPt4' transform='translate(259.6,47.7) scale(2.25)' color='rgb(255,   0,   0)'/>
	<use xlink:href='#gpPt4' transform='translate(263.9,48.4) scale(2.25)' color='rgb(255,   0,   0)'/>
	<use xlink:href='#gpPt4' transform='translate(268.2,49.2) scale(2.25)' color='rgb(255,   0,   0)'/>
	<use xlink:href='#gpPt4' transform='translate(272.4,50.0) scale(2.25)' color='rgb(255,   0,   0)'/>
	<use xlink:href='#gpPt4' transform='translate(276.7,50.8) scale(2.25)' color='rgb(255,   0,   0)'/>
	<use xlink:href='#gpPt4' transform='translate(280.9,51.7) scale(2.25)' color='rgb(255,   0,   0)'/>
	<use xlink:href='#gpPt4' transform='translate(285.2,52.7) scale(2.25)' color='rgb(255,   0,   0)'/>
	<use xlink:href='#gpPt4' transform='translate(289.5,53.7) scale(2.25)' color='rgb(255,   0,   0)'/>
	<use xlink:href='#gpPt4' transform='translate(293.7,54.7) scale(2.25)' color='rgb(255,   0,   0)'/>
	<use xlink:href='#gpPt4' transform='translate(298.0,55.8) scale(2.25)' color='rgb(255,   0,   0)'/>
	<use xlink:href='#gpPt4' transform='translate(302.3,56.9) scale(2.25)' color='rgb(255,   0,   0)'/>
	<use xlink:href='#gpPt4' transform='translate(306.5,58.0) scale(2.25)' color='rgb(255,   0,   0)'/>
	<use xlink:href='#gpPt4' transform='translate(310.8,59.2) scale(2.25)' color='rgb(255,   0,   0)'/>
	<use xlink:href='#gpPt4' transform='translate(315.0,60.4) scale(2.25)' color='rgb(255,   0,   0)'/>
	<use xlink:href='#gpPt4' transform='translate(319.3,61.7) scale(2.25)' color='rgb(255,   0,   0)'/>
	<use xlink:href='#gpPt4' transform='translate(323.6,62.9) scale(2.25)' color='rgb(255,   0,   0)'/>
	<use xlink:href='#gpPt4' transform='translate(327.8,64.3) scale(2.25)' color='rgb(255,   0,   0)'/>
	<use xlink:href='#gpPt4' transform='translate(332.1,65.6) scale(2.25)' color='rgb(255,   0,   0)'/>
	<use xlink:href='#gpPt4' transform='translate(336.3,67.0) scale(2.25)' color='rgb(255,   0,   0)'/>
	<use xlink:href='#gpPt4' transform='translate(340.6,68.4) scale(2.25)' color='rgb(255,   0,   0)'/>
	<use xlink:href='#gpPt4' transform='translate(344.9,69.8) scale(2.25)' color='rgb(255,   0,   0)'/>
	<use xlink:href='#gpPt4' transform='translate(349.1,71.3) scale(2.25)' color='rgb(255,   0,   0)'/>
	<use xlink:href='#gpPt4' transform='translate(353.4,72.8) scale(2.25)' color='rgb(255,   0,   0)'/>
	<use xlink:href='#gpPt4' transform='translate(357.7,74.3) scale(2.25)' color='rgb(255,   0,   0)'/>
	<use xlink:href='#gpPt4' transform='translate(361.9,75.8) scale(2.25)' color='rgb(255,   0,   0)'/>
	<use xlink:href='#gpPt4' transform='translate(366.2,77.3) scale(2.25)' color='rgb(255,   0,   0)'/>
	<use xlink:href='#gpPt4' transform='translate(370.4,78.9) scale(2.25)' color='rgb(255,   0,   0)'/>
	<use xlink:href='#gpPt4' transform='translate(374.7,80.5) scale(2.25)' color='rgb(255,   0,   0)'/>
	<use xlink:href='#gpPt4' transform='translate(379.0,82.2) scale(2.25)' color='rgb(255,   0,   0)'/>
	<use xlink:href='#gpPt4' transform='translate(383.2,83.8) scale(2.25)' color='rgb(255,   0,   0)'/>
	<use xlink:href='#gpPt4' transform='translate(387.5,85.5) scale(2.25)' color='rgb(255,   0,   0)'/>
	<use xlink:href='#gpPt4' transform='translate(391.7,87.1) scale(2.25)' color='rgb(255,   0,   0)'/>
	<use xlink:href='#gpPt4' transform='translate(396.0,88.9) scale(2.25)' color='rgb(255,   0,   0)'/>
	<use xlink:href='#gpPt4' transform='translate(400.3,90.6) scale(2.25)' color='rgb(255,   0,   0)'/>
	<use xlink:href='#gpPt4' transform='translate(404.5,92.3) scale(2.25)' color='rgb(255,   0,   0)'/>
	<use xlink:href='#gpPt4' transform='translate(408.8,94.1) scale(2.25)' color='rgb(255,   0,   0)'/>
	<use xlink:href='#gpPt4' transform='translate(413.1,95.9) scale(2.25)' color='rgb(255,   0,   0)'/>
	<use xlink:href='#gpPt4' transform='translate(417.3,97.7) scale(2.25)' color='rgb(255,   0,   0)'/>
	<use xlink:href='#gpPt4' transform='translate(421.6,99.5) scale(2.25)' color='rgb(255,   0,   0)'/>
	<use xlink:href='#gpPt4' transform='translate(425.8,101.3) scale(2.25)' color='rgb(255,   0,   0)'/>
	<use xlink:href='#gpPt4' transform='translate(430.1,103.1) scale(2.25)' color='rgb(255,   0,   0)'/>
	<use xlink:href='#gpPt4' transform='translate(434.4,105.0) scale(2.25)' color='rgb(255,   0,   0)'/>
	<use xlink:href='#gpPt4' transform='translate(438.6,106.9) scale(2.25)' color='rgb(255,   0,   0)'/>
	<use xlink:href='#gpPt4' transform='translate(442.9,108.8) scale(2.25)' color='rgb(255,   0,   0)'/>
	<use xlink:href='#gpPt4' transform='translate(447.2,110.7) scale(2.25)' color='rgb(255,   0,   0)'/>
	<use xlink:href='#gpPt4' transform='translate(451.4,112.6) scale(2.25)' color='rgb(255,   0,   0)'/>
	<use xlink:href='#gpPt4' transform='translate(455.7,114.5) scale(2.25)' color='rgb(255,   0,   0)'/>
	<use xlink:href='#gpPt4' transform='translate(459.9,116.5) scale(2.25)' color='rgb(255,   0,   0)'/>
	<use xlink:href='#gpPt4' transform='translate(464.2,118.4) scale(2.25)' color='rgb(255,   0,   0)'/>
	<use xlink:href='#gpPt4' transform='translate(468.5,120.4) scale(2.25)' color='rgb(255,   0,   0)'/>
	<use xlink:href='#gpPt4' transform='translate(472.7,122.4) scale(2.25)' color='rgb(255,   0,   0)'/>
	<use xlink:href='#gpPt4' transform='translate(477.0,124.4) scale(2.25)' color='rgb(255,   0,   0)'/>
	<use xlink:href='#gpPt4' transform='translate(481.2,126.4) scale(2.25)' color='rgb(255,   0,   0)'/>
	<use xlink:href='#gpPt4' transform='translate(485.5,128.4) scale(2.25)' color='rgb(255,   0,   0)'/>
	<use xlink:href='#gpPt4' transform='translate(489.8,130.5) scale(2.25)' color='rgb(255,   0,   0)'/>
	<use xlink:href='#gpPt4' transform='translate(494.0,132.5) scale(2.25)' color='rgb(255,   0,   0)'/>
	<use xlink:href='#gpPt4' transform='translate(498.3,134.6) scale(2.25)' color='rgb(255,   0,   0)'/>
	<use xlink:href='#gpPt4' transform='translate(502.6,136.7) scale(2.25)' color='rgb(255,   0,   0)'/>
	<use xlink:href='#gpPt4' transform='translate(506.8,138.7) scale(2.25)' color='rgb(255,   0,   0)'/>
	<use xlink:href='#gpPt4' transform='translate(511.1,140.8) scale(2.25)' color='rgb(255,   0,   0)'/>
	<use xlink:href='#gpPt4' transform='translate(515.3,142.9) scale(2.25)' color='rgb(255,   0,   0)'/>
	<use xlink:href='#gpPt4' transform='translate(519.6,145.1) scale(2.25)' color='rgb(255,   0,   0)'/>
	<use xlink:href='#gpPt4' transform='translate(523.9,147.2) scale(2.25)' color='rgb(255,   0,   0)'/>
	<use xlink:href='#gpPt4' transform='translate(528.1,149.3) scale(2.25)' color='rgb(255,   0,   0)'/>
	<use xlink:href='#gpPt4' transform='translate(532.4,151.5) scale(2.25)' color='rgb(255,   0,   0)'/>
	<use xlink:href='#gpPt4' transform='translate(536.6,153.6) scale(2.25)' color='rgb(255,   0,   0)'/>
	<use xlink:href='#gpPt4' transform='translate(540.9,155.8) scale(2.25)' color='rgb(255,   0,   0)'/>
	<use xlink:href='#gpPt4' transform='translate(545.2,157.9) scale(2.25)' color='rgb(255,   0,   0)'/>
	<use xlink:href='#gpPt4' transform='translate(549.4,160.1) scale(2.25)' color='rgb(255,   0,   0)'/>
	<use xlink:href='#gpPt4' transform='translate(553.7,162.3) scale(2.25)' color='rgb(255,   0,   0)'/>
	<use xlink:href='#gpPt4' transform='translate(558.0,164.5) scale(2.25)' color='rgb(255,   0,   0)'/>
	<use xlink:href='#gpPt4' transform='translate(562.2,166.7) scale(2.25)' color='rgb(255,   0,   0)'/>
	<use xlink:href='#gpPt4' transform='translate(566.5,168.9) scale(2.25)' color='rgb(255,   0,   0)'/>
	<use xlink:href='#gpPt4' transform='translate(570.7,171.2) scale(2.25)' color='rgb(255,   0,   0)'/>
	<use xlink:href='#gpPt4' transform='translate(575.0,173.4) scale(2.25)' color='rgb(255,   0,   0)'/>
	<use xlink:href='#gpPt4' transform='translate(537.3,386.4) scale(2.25)' color='rgb(255,   0,   0)'/>
</g>
	</g>
	<g id="gnuplot_plot_7" ><title>Ordinary Fc-dc(x)</title>
<g fill="none" color="black" stroke="currentColor" stroke-width="1.00" stroke-linecap="butt" stroke-linejoin="miter">
	<g transform="translate(507.9,408.9)" stroke="none" fill="black" font-family="Arial" font-size="12.00"  text-anchor="end">
		<text><tspan font-family="Arial" >Ordinary F</tspan><tspan font-family="Arial"  font-size="9.6" dy="3.60px">c-dc</tspan><tspan font-family="Arial"  font-size="12.0" dy="-3.60px">(x)</tspan></text>
	</g>
</g>
<g fill="none" color="black" stroke="currentColor" stroke-width="1.00" stroke-linecap="butt" stroke-linejoin="miter">
	<use xlink:href='#gpPt4' transform='translate(67.9,343.6) scale(2.25)' color='rgb(  0,   0, 255)'/>
	<use xlink:href='#gpPt4' transform='translate(72.1,270.3) scale(2.25)' color='rgb(  0,   0, 255)'/>
	<use xlink:href='#gpPt4' transform='translate(76.4,228.7) scale(2.25)' color='rgb(  0,   0, 255)'/>
	<use xlink:href='#gpPt4' transform='translate(80.6,200.2) scale(2.25)' color='rgb(  0,   0, 255)'/>
	<use xlink:href='#gpPt4' transform='translate(84.9,178.8) scale(2.25)' color='rgb(  0,   0, 255)'/>
	<use xlink:href='#gpPt4' transform='translate(89.2,161.9) scale(2.25)' color='rgb(  0,   0, 255)'/>
	<use xlink:href='#gpPt4' transform='translate(93.4,148.1) scale(2.25)' color='rgb(  0,   0, 255)'/>
	<use xlink:href='#gpPt4' transform='translate(97.7,136.7) scale(2.25)' color='rgb(  0,   0, 255)'/>
	<use xlink:href='#gpPt4' transform='translate(102.0,126.9) scale(2.25)' color='rgb(  0,   0, 255)'/>
	<use xlink:href='#gpPt4' transform='translate(106.2,118.5) scale(2.25)' color='rgb(  0,   0, 255)'/>
	<use xlink:href='#gpPt4' transform='translate(110.5,111.3) scale(2.25)' color='rgb(  0,   0, 255)'/>
	<use xlink:href='#gpPt4' transform='translate(114.7,104.9) scale(2.25)' color='rgb(  0,   0, 255)'/>
	<use xlink:href='#gpPt4' transform='translate(119.0,99.3) scale(2.25)' color='rgb(  0,   0, 255)'/>
	<use xlink:href='#gpPt4' transform='translate(123.3,94.4) scale(2.25)' color='rgb(  0,   0, 255)'/>
	<use xlink:href='#gpPt4' transform='translate(127.5,90.1) scale(2.25)' color='rgb(  0,   0, 255)'/>
	<use xlink:href='#gpPt4' transform='translate(131.8,86.2) scale(2.25)' color='rgb(  0,   0, 255)'/>
	<use xlink:href='#gpPt4' transform='translate(136.0,82.8) scale(2.25)' color='rgb(  0,   0, 255)'/>
	<use xlink:href='#gpPt4' transform='translate(140.3,79.7) scale(2.25)' color='rgb(  0,   0, 255)'/>
	<use xlink:href='#gpPt4' transform='translate(144.6,77.0) scale(2.25)' color='rgb(  0,   0, 255)'/>
	<use xlink:href='#gpPt4' transform='translate(148.8,74.6) scale(2.25)' color='rgb(  0,   0, 255)'/>
	<use xlink:href='#gpPt4' transform='translate(153.1,72.5) scale(2.25)' color='rgb(  0,   0, 255)'/>
	<use xlink:href='#gpPt4' transform='translate(157.4,70.6) scale(2.25)' color='rgb(  0,   0, 255)'/>
	<use xlink:href='#gpPt4' transform='translate(161.6,69.0) scale(2.25)' color='rgb(  0,   0, 255)'/>
	<use xlink:href='#gpPt4' transform='translate(165.9,67.6) scale(2.25)' color='rgb(  0,   0, 255)'/>
	<use xlink:href='#gpPt4' transform='translate(170.1,66.3) scale(2.25)' color='rgb(  0,   0, 255)'/>
	<use xlink:href='#gpPt4' transform='translate(174.4,65.3) scale(2.25)' color='rgb(  0,   0, 255)'/>
	<use xlink:href='#gpPt4' transform='translate(178.7,64.4) scale(2.25)' color='rgb(  0,   0, 255)'/>
	<use xlink:href='#gpPt4' transform='translate(182.9,63.6) scale(2.25)' color='rgb(  0,   0, 255)'/>
	<use xlink:href='#gpPt4' transform='translate(187.2,63.0) scale(2.25)' color='rgb(  0,   0, 255)'/>
	<use xlink:href='#gpPt4' transform='translate(191.5,62.5) scale(2.25)' color='rgb(  0,   0, 255)'/>
	<use xlink:href='#gpPt4' transform='translate(195.7,62.2) scale(2.25)' color='rgb(  0,   0, 255)'/>
	<use xlink:href='#gpPt4' transform='translate(200.0,62.0) scale(2.25)' color='rgb(  0,   0, 255)'/>
	<use xlink:href='#gpPt4' transform='translate(204.2,61.8) scale(2.25)' color='rgb(  0,   0, 255)'/>
	<use xlink:href='#gpPt4' transform='translate(208.5,61.8) scale(2.25)' color='rgb(  0,   0, 255)'/>
	<use xlink:href='#gpPt4' transform='translate(212.8,61.9) scale(2.25)' color='rgb(  0,   0, 255)'/>
	<use xlink:href='#gpPt4' transform='translate(217.0,62.0) scale(2.25)' color='rgb(  0,   0, 255)'/>
	<use xlink:href='#gpPt4' transform='translate(221.3,62.3) scale(2.25)' color='rgb(  0,   0, 255)'/>
	<use xlink:href='#gpPt4' transform='translate(225.5,62.6) scale(2.25)' color='rgb(  0,   0, 255)'/>
	<use xlink:href='#gpPt4' transform='translate(229.8,63.0) scale(2.25)' color='rgb(  0,   0, 255)'/>
	<use xlink:href='#gpPt4' transform='translate(234.1,63.5) scale(2.25)' color='rgb(  0,   0, 255)'/>
	<use xlink:href='#gpPt4' transform='translate(238.3,64.0) scale(2.25)' color='rgb(  0,   0, 255)'/>
	<use xlink:href='#gpPt4' transform='translate(242.6,64.6) scale(2.25)' color='rgb(  0,   0, 255)'/>
	<use xlink:href='#gpPt4' transform='translate(246.9,65.3) scale(2.25)' color='rgb(  0,   0, 255)'/>
	<use xlink:href='#gpPt4' transform='translate(251.1,66.0) scale(2.25)' color='rgb(  0,   0, 255)'/>
	<use xlink:href='#gpPt4' transform='translate(255.4,66.8) scale(2.25)' color='rgb(  0,   0, 255)'/>
	<use xlink:href='#gpPt4' transform='translate(259.6,67.7) scale(2.25)' color='rgb(  0,   0, 255)'/>
	<use xlink:href='#gpPt4' transform='translate(263.9,68.6) scale(2.25)' color='rgb(  0,   0, 255)'/>
	<use xlink:href='#gpPt4' transform='translate(268.2,69.5) scale(2.25)' color='rgb(  0,   0, 255)'/>
	<use xlink:href='#gpPt4' transform='translate(272.4,70.5) scale(2.25)' color='rgb(  0,   0, 255)'/>
	<use xlink:href='#gpPt4' transform='translate(276.7,71.5) scale(2.25)' color='rgb(  0,   0, 255)'/>
	<use xlink:href='#gpPt4' transform='translate(280.9,72.6) scale(2.25)' color='rgb(  0,   0, 255)'/>
	<use xlink:href='#gpPt4' transform='translate(285.2,73.7) scale(2.25)' color='rgb(  0,   0, 255)'/>
	<use xlink:href='#gpPt4' transform='translate(289.5,74.9) scale(2.25)' color='rgb(  0,   0, 255)'/>
	<use xlink:href='#gpPt4' transform='translate(293.7,76.1) scale(2.25)' color='rgb(  0,   0, 255)'/>
	<use xlink:href='#gpPt4' transform='translate(298.0,77.4) scale(2.25)' color='rgb(  0,   0, 255)'/>
	<use xlink:href='#gpPt4' transform='translate(302.3,78.6) scale(2.25)' color='rgb(  0,   0, 255)'/>
	<use xlink:href='#gpPt4' transform='translate(306.5,80.0) scale(2.25)' color='rgb(  0,   0, 255)'/>
	<use xlink:href='#gpPt4' transform='translate(310.8,81.3) scale(2.25)' color='rgb(  0,   0, 255)'/>
	<use xlink:href='#gpPt4' transform='translate(315.0,82.7) scale(2.25)' color='rgb(  0,   0, 255)'/>
	<use xlink:href='#gpPt4' transform='translate(319.3,84.1) scale(2.25)' color='rgb(  0,   0, 255)'/>
	<use xlink:href='#gpPt4' transform='translate(323.6,85.6) scale(2.25)' color='rgb(  0,   0, 255)'/>
	<use xlink:href='#gpPt4' transform='translate(327.8,87.0) scale(2.25)' color='rgb(  0,   0, 255)'/>
	<use xlink:href='#gpPt4' transform='translate(332.1,88.5) scale(2.25)' color='rgb(  0,   0, 255)'/>
	<use xlink:href='#gpPt4' transform='translate(336.3,90.1) scale(2.25)' color='rgb(  0,   0, 255)'/>
	<use xlink:href='#gpPt4' transform='translate(340.6,91.6) scale(2.25)' color='rgb(  0,   0, 255)'/>
	<use xlink:href='#gpPt4' transform='translate(344.9,93.2) scale(2.25)' color='rgb(  0,   0, 255)'/>
	<use xlink:href='#gpPt4' transform='translate(349.1,94.8) scale(2.25)' color='rgb(  0,   0, 255)'/>
	<use xlink:href='#gpPt4' transform='translate(353.4,96.5) scale(2.25)' color='rgb(  0,   0, 255)'/>
	<use xlink:href='#gpPt4' transform='translate(357.7,98.1) scale(2.25)' color='rgb(  0,   0, 255)'/>
	<use xlink:href='#gpPt4' transform='translate(361.9,99.8) scale(2.25)' color='rgb(  0,   0, 255)'/>
	<use xlink:href='#gpPt4' transform='translate(366.2,101.5) scale(2.25)' color='rgb(  0,   0, 255)'/>
	<use xlink:href='#gpPt4' transform='translate(370.4,103.2) scale(2.25)' color='rgb(  0,   0, 255)'/>
	<use xlink:href='#gpPt4' transform='translate(374.7,105.0) scale(2.25)' color='rgb(  0,   0, 255)'/>
	<use xlink:href='#gpPt4' transform='translate(379.0,106.8) scale(2.25)' color='rgb(  0,   0, 255)'/>
	<use xlink:href='#gpPt4' transform='translate(383.2,108.5) scale(2.25)' color='rgb(  0,   0, 255)'/>
	<use xlink:href='#gpPt4' transform='translate(387.5,110.4) scale(2.25)' color='rgb(  0,   0, 255)'/>
	<use xlink:href='#gpPt4' transform='translate(391.7,112.2) scale(2.25)' color='rgb(  0,   0, 255)'/>
	<use xlink:href='#gpPt4' transform='translate(396.0,114.0) scale(2.25)' color='rgb(  0,   0, 255)'/>
	<use xlink:href='#gpPt4' transform='translate(400.3,115.9) scale(2.25)' color='rgb(  0,   0, 255)'/>
	<use xlink:href='#gpPt4' transform='translate(404.5,117.8) scale(2.25)' color='rgb(  0,   0, 255)'/>
	<use xlink:href='#gpPt4' transform='translate(408.8,119.7) scale(2.25)' color='rgb(  0,   0, 255)'/>
	<use xlink:href='#gpPt4' transform='translate(413.1,121.6) scale(2.25)' color='rgb(  0,   0, 255)'/>
	<use xlink:href='#gpPt4' transform='translate(417.3,123.5) scale(2.25)' color='rgb(  0,   0, 255)'/>
	<use xlink:href='#gpPt4' transform='translate(421.6,125.5) scale(2.25)' color='rgb(  0,   0, 255)'/>
	<use xlink:href='#gpPt4' transform='translate(425.8,127.4) scale(2.25)' color='rgb(  0,   0, 255)'/>
	<use xlink:href='#gpPt4' transform='translate(430.1,129.4) scale(2.25)' color='rgb(  0,   0, 255)'/>
	<use xlink:href='#gpPt4' transform='translate(434.4,131.4) scale(2.25)' color='rgb(  0,   0, 255)'/>
	<use xlink:href='#gpPt4' transform='translate(438.6,133.4) scale(2.25)' color='rgb(  0,   0, 255)'/>
	<use xlink:href='#gpPt4' transform='translate(442.9,135.5) scale(2.25)' color='rgb(  0,   0, 255)'/>
	<use xlink:href='#gpPt4' transform='translate(447.2,137.5) scale(2.25)' color='rgb(  0,   0, 255)'/>
	<use xlink:href='#gpPt4' transform='translate(451.4,139.5) scale(2.25)' color='rgb(  0,   0, 255)'/>
	<use xlink:href='#gpPt4' transform='translate(455.7,141.6) scale(2.25)' color='rgb(  0,   0, 255)'/>
	<use xlink:href='#gpPt4' transform='translate(459.9,143.7) scale(2.25)' color='rgb(  0,   0, 255)'/>
	<use xlink:href='#gpPt4' transform='translate(464.2,145.8) scale(2.25)' color='rgb(  0,   0, 255)'/>
	<use xlink:href='#gpPt4' transform='translate(468.5,147.9) scale(2.25)' color='rgb(  0,   0, 255)'/>
	<use xlink:href='#gpPt4' transform='translate(472.7,150.0) scale(2.25)' color='rgb(  0,   0, 255)'/>
	<use xlink:href='#gpPt4' transform='translate(477.0,152.1) scale(2.25)' color='rgb(  0,   0, 255)'/>
	<use xlink:href='#gpPt4' transform='translate(481.2,154.3) scale(2.25)' color='rgb(  0,   0, 255)'/>
	<use xlink:href='#gpPt4' transform='translate(485.5,156.4) scale(2.25)' color='rgb(  0,   0, 255)'/>
	<use xlink:href='#gpPt4' transform='translate(489.8,158.6) scale(2.25)' color='rgb(  0,   0, 255)'/>
	<use xlink:href='#gpPt4' transform='translate(494.0,160.8) scale(2.25)' color='rgb(  0,   0, 255)'/>
	<use xlink:href='#gpPt4' transform='translate(498.3,162.9) scale(2.25)' color='rgb(  0,   0, 255)'/>
	<use xlink:href='#gpPt4' transform='translate(502.6,165.1) scale(2.25)' color='rgb(  0,   0, 255)'/>
	<use xlink:href='#gpPt4' transform='translate(506.8,167.3) scale(2.25)' color='rgb(  0,   0, 255)'/>
	<use xlink:href='#gpPt4' transform='translate(511.1,169.6) scale(2.25)' color='rgb(  0,   0, 255)'/>
	<use xlink:href='#gpPt4' transform='translate(515.3,171.8) scale(2.25)' color='rgb(  0,   0, 255)'/>
	<use xlink:href='#gpPt4' transform='translate(519.6,174.0) scale(2.25)' color='rgb(  0,   0, 255)'/>
	<use xlink:href='#gpPt4' transform='translate(523.9,176.3) scale(2.25)' color='rgb(  0,   0, 255)'/>
	<use xlink:href='#gpPt4' transform='translate(528.1,178.5) scale(2.25)' color='rgb(  0,   0, 255)'/>
	<use xlink:href='#gpPt4' transform='translate(532.4,180.8) scale(2.25)' color='rgb(  0,   0, 255)'/>
	<use xlink:href='#gpPt4' transform='translate(536.6,183.0) scale(2.25)' color='rgb(  0,   0, 255)'/>
	<use xlink:href='#gpPt4' transform='translate(540.9,185.3) scale(2.25)' color='rgb(  0,   0, 255)'/>
	<use xlink:href='#gpPt4' transform='translate(545.2,187.6) scale(2.25)' color='rgb(  0,   0, 255)'/>
	<use xlink:href='#gpPt4' transform='translate(549.4,189.9) scale(2.25)' color='rgb(  0,   0, 255)'/>
	<use xlink:href='#gpPt4' transform='translate(553.7,192.2) scale(2.25)' color='rgb(  0,   0, 255)'/>
	<use xlink:href='#gpPt4' transform='translate(558.0,194.5) scale(2.25)' color='rgb(  0,   0, 255)'/>
	<use xlink:href='#gpPt4' transform='translate(562.2,196.9) scale(2.25)' color='rgb(  0,   0, 255)'/>
	<use xlink:href='#gpPt4' transform='translate(566.5,199.2) scale(2.25)' color='rgb(  0,   0, 255)'/>
	<use xlink:href='#gpPt4' transform='translate(570.7,201.5) scale(2.25)' color='rgb(  0,   0, 255)'/>
	<use xlink:href='#gpPt4' transform='translate(575.0,203.9) scale(2.25)' color='rgb(  0,   0, 255)'/>
	<use xlink:href='#gpPt4' transform='translate(537.3,404.4) scale(2.25)' color='rgb(  0,   0, 255)'/>
</g>
	</g>
<g fill="none" color="#FFFFFF" stroke="rgb(  0,   0, 255)" stroke-width="2.00" stroke-linecap="butt" stroke-linejoin="miter">
</g>
<g fill="none" color="black" stroke="currentColor" stroke-width="2.00" stroke-linecap="butt" stroke-linejoin="miter">
</g>
<g fill="none" color="black" stroke="black" stroke-width="1.00" stroke-linecap="butt" stroke-linejoin="miter">
</g>
<g fill="none" color="black" stroke="currentColor" stroke-width="1.00" stroke-linecap="butt" stroke-linejoin="miter">
	<path stroke='black'  d='M63.6,16.7 L63.6,422.4 L575.0,422.4 L575.0,16.7 L63.6,16.7 Z  '/></g>
<g fill="none" color="black" stroke="currentColor" stroke-width="1.00" stroke-linecap="butt" stroke-linejoin="miter">
</g>
</g>
</svg>

