x 	 c 	 epsilon_ii 	 epsilon_iii
0 1 1 1
0.1 1 0.950083 0.950132
0.2 1 0.900665 0.900852
0.3 1 0.85224 0.852644
0.4 1 0.805291 0.805981
0.5 1 0.760287 0.761321
0.6 1 0.717679 0.719104
0.7 1 0.677891 0.679746
0.8 1 0.641322 0.643634
0.9 1 0.608336 0.611123
1 1 0.579264 0.582536
1.1 1 0.554396 0.558154
1.2 1 0.53398 0.538218
1.3 1 0.51822 0.522924
1.4 1 0.507274 0.512425
1.5 1 0.501252 0.506824
1.6 1 0.500212 0.506176
1.7 1 0.504167 0.510488
1.8 1 0.513075 0.519717
1.9 1 0.526849 0.533772
2 1 0.54535 0.552514
2.1 1 0.568394 0.575757
2.2 1 0.595751 0.603273
2.3 1 0.627146 0.634789
2.4 1 0.662267 0.669994
2.5 1 0.700763 0.708542
2.6 1 0.742248 0.750052
2.7 1 0.786309 0.794116
2.8 1 0.832505 0.840299
2.9 1 0.880375 0.88815
3 1 0.929439 0.937196
3.1 1 0.979209 0.986958
3.2 1 1.02919 1.03695
3.3 1 1.07887 1.08668
3.4 1 1.12777 1.13566
3.5 1 1.17539 1.18341
3.6 1 1.22126 1.22947
3.7 1 1.26492 1.27339
3.8 1 1.30593 1.31474
3.9 1 1.34388 1.35312
4 1 1.3784 1.38815
4.1 1 1.40914 1.41949
4.2 1 1.43579 1.44685
4.3 1 1.45809 1.46995
4.4 1 1.4758 1.48857
4.5 1 1.48877 1.50253
4.6 1 1.49685 1.5117
4.7 1 1.49996 1.51598
4.8 1 1.49809 1.51533
4.9 1 1.49123 1.50977
5 1 1.47947 1.49933
5.1 1 1.46291 1.48414
5.2 1 1.44173 1.46432
5.3 1 1.41614 1.44009
5.4 1 1.38639 1.41166
5.5 1 1.35277 1.37931
5.6 1 1.31564 1.34337
5.7 1 1.27535 1.30418
5.8 1 1.2323 1.26212
5.9 1 1.18694 1.21759
6 1 1.13971 1.17104
6.1 1 1.09108 1.12292
6.2 1 1.04155 1.0737
6.3 1 0.991594 1.02386
6.4 1 0.941726 0.973879
6.5 1 0.89244 0.924258
6.6 1 0.844229 0.875478
6.7 1 0.797574 0.828019
6.8 1 0.752942 0.782347
6.9 1 0.710778 0.738912
7 1 0.671504 0.698139
7.1 1 0.635513 0.660431
7.2 1 0.603163 0.62616
7.3 1 0.574778 0.595663
7.4 1 0.550642 0.569242
7.5 1 0.530996 0.547157
7.6 1 0.516036 0.529627
7.7 1 0.505911 0.516824
7.8 1 0.500723 0.508876
7.9 1 0.500524 0.505861
8 1 0.505315 0.507809
8.1 1 0.51505 0.514701
8.2 1 0.529629 0.526468
8.3 1 0.548909 0.542994
8.4 1 0.572695 0.564116
8.5 1 0.600751 0.589625
8.6 1 0.632797 0.619269
8.7 1 0.668511 0.652756
8.8 1 0.707537 0.689755
8.9 1 0.749486 0.729901
9 1 0.793937 0.7728
9.1 1 0.840448 0.818028
9.2 1 0.888553 0.865141
9.3 1 0.937771 0.913677
9.4 1 0.987611 0.963158
9.5 1 1.03757 1.0131
9.6 1 1.08716 1.06302
9.7 1 1.13588 1.11241
9.8 1 1.18324 1.16081
9.9 1 1.22877 1.20774
10 1 1.27201 1.25273
10.1 1 1.31254 1.29536
10.2 1 1.34994 1.3352
10.3 1 1.38385 1.37188
10.4 1 1.41392 1.40502
10.5 1 1.43985 1.43432
10.6 1 1.46139 1.45948
10.7 1 1.47832 1.48026
10.8 1 1.49047 1.49647
10.9 1 1.49773 1.50793
11 1 1.5 1.51455
11.1 1 1.49728 1.51626
11.2 1 1.4896 1.51304
11.3 1 1.47702 1.50492
11.4 1 1.45967 1.49198
11.5 1 1.43773 1.47435
11.6 1 1.41142 1.45219
11.7 1 1.381 1.42573
11.8 1 1.34677 1.39522
11.9 1 1.30907 1.36095
12 1 1.26829 1.32326
12.1 1 1.22483 1.28252
12.2 1 1.17912 1.23912
12.3 1 1.13162 1.19348
12.4 1 1.08281 1.14605
12.5 1 1.03316 1.09729
12.6 1 0.98319 1.04768
12.7 1 0.933385 0.997709
12.8 1 0.884245 0.947856
12.9 1 0.836262 0.898614
13 1 0.789915 0.850465
13.1 1 0.745667 0.803883
13.2 1 0.70396 0.759326
13.3 1 0.665211 0.71723
13.4 1 0.629807 0.678012
13.5 1 0.598102 0.642056
13.6 1 0.570412 0.609719
13.7 1 0.547015 0.581318
13.8 1 0.528144 0.557134
13.9 1 0.513988 0.537406
14 1 0.504687 0.522329
14.1 1 0.500336 0.512052
14.2 1 0.500977 0.506677
14.3 1 0.506604 0.506257
14.4 1 0.517161 0.510795
14.5 1 0.532543 0.520248
14.6 1 0.552595 0.534521
14.7 1 0.577117 0.553474
14.8 1 0.605865 0.576919
14.9 1 0.638551 0.604625
15 1 0.674848 0.636318
15.1 1 0.714394 0.671685
15.2 1 0.756794 0.710377
15.3 1 0.801624 0.752014
15.4 1 0.848435 0.796185
15.5 1 0.896762 0.842456
15.6 1 0.94612 0.890373
15.7 1 0.996016 0.939463
15.8 1 1.04595 0.989247
15.9 1 1.09543 1.03924
16 1 1.14395 1.08894
16.1 1 1.19104 1.13788
16.2 1 1.23621 1.18556
16.3 1 1.27903 1.23154
16.4 1 1.31906 1.27535
16.5 1 1.3559 1.31657
16.6 1 1.38918 1.3548
16.7 1 1.41858 1.38967
16.8 1 1.44379 1.42084
16.9 1 1.46457 1.44801
17 1 1.48071 1.47091
17.1 1 1.49204 1.48932
17.2 1 1.49846 1.50307
17.3 1 1.4999 1.51201
17.4 1 1.49634 1.51606
17.5 1 1.48783 1.51519
17.6 1 1.47443 1.5094
17.7 1 1.4563 1.49875
17.8 1 1.43361 1.48334
17.9 1 1.40659 1.46332
18 1 1.3755 1.43888
18.1 1 1.34067 1.41026
18.2 1 1.30243 1.37775
18.3 1 1.26116 1.34165
18.4 1 1.21729 1.30232
18.5 1 1.17125 1.26013
18.6 1 1.12349 1.2155
18.7 1 1.0745 1.16887
18.8 1 1.02477 1.12069
18.9 1 0.974791 1.07143
19 1 0.925062 1.02157
19.1 1 0.876082 0.971593
19.2 1 0.828341 0.921999
19.3 1 0.782314 0.873269
19.4 1 0.738463 0.825881
19.5 1 0.697224 0.780301
19.6 1 0.659011 0.736977
19.7 1 0.624205 0.696336
19.8 1 0.593154 0.658777
19.9 1 0.566168 0.624671
20 1 0.543516 0.594354
20.1 1 0.525425 0.568126
20.2 1 0.512077 0.546245
20.3 1 0.503603 0.528927
20.4 1 0.500089 0.516345
20.5 1 0.501571 0.508621
20.6 1 0.508032 0.505834
20.7 1 0.519409 0.508009
20.8 1 0.535588 0.515126
20.9 1 0.556407 0.527114
21 1 0.581658 0.543855
21.1 1 0.61109 0.565184
21.2 1 0.644407 0.590888
21.3 1 0.681277 0.620716
21.4 1 0.721332 0.654371
21.5 1 0.764171 0.691523
21.6 1 0.809366 0.731805
21.7 1 0.856466 0.774821
21.8 1 0.905001 0.820146
21.9 1 0.954484 0.867335
22 1 1.00442 0.915926
22.1 1 1.05432 0.96544
22.2 1 1.10367 1.01539
22.3 1 1.15198 1.06529
22.4 1 1.19878 1.11466
22.5 1 1.24359 1.163
22.6 1 1.28597 1.20985
22.7 1 1.32549 1.25475
22.8 1 1.36176 1.29725
22.9 1 1.39441 1.33696
23 1 1.42312 1.37348
23.1 1 1.44761 1.40646
23.2 1 1.46762 1.43557
23.3 1 1.48296 1.46054
23.4 1 1.49347 1.48112
23.5 1 1.49906 1.4971
23.6 1 1.49965 1.50835
23.7 1 1.49526 1.51475
23.8 1 1.48592 1.51623
23.9 1 1.47172 1.51278
24 1 1.45281 1.50444
24.1 1 1.42937 1.49128
24.2 1 1.40164 1.47344
24.3 1 1.3699 1.45108
24.4 1 1.33447 1.42442
24.5 1 1.29569 1.39373
24.6 1 1.25396 1.3593
24.7 1 1.20969 1.32146
24.8 1 1.16333 1.28059
24.9 1 1.11533 1.23707
25 1 1.06618 1.19134
25.1 1 1.01637 1.14384
