\relax 
\@writefile{toc}{\contentsline {section}{\numberline {1}Introduction}{1}}
\newlabel{error}{{2}{1}}
\@writefile{toc}{\contentsline {section}{\numberline {2}Solution}{1}}
\@writefile{lof}{\contentsline {figure}{\numberline {1}{\ignorespaces Shows the numerically integrated derivative of the error function as points and the error function included in C as a red line.}}{2}}
\newlabel{fig:errorfunction}{{1}{2}}
